{   "parent": "block/block",
    "display": {
        "fixed": {
            "rotation": [ 0, 90, 0 ],
            "translation": [ 0, 0, 0 ],
            "scale": [ 0.5, 0.5, 0.5 ]
        }
    },
    "elements": [
        {
            "__comment": "Base",
            "from": [ 2, 0, 2 ],
            "to": [ 14, 4, 14 ],
            "faces": {
                "down":  { "uv": [ 2, 2, 14, 14 ], "texture": "#bottom" },
                "up":    { "uv": [ 2, 2, 14, 14 ], "texture": "#bottom" },
                "north": { "uv": [ 2, 12, 14, 16 ], "texture": "#body" },
                "south": { "uv": [ 2, 12, 14, 16 ], "texture": "#body" },
                "west":  { "uv": [ 2, 12, 14, 16 ], "texture": "#body" },
                "east":  { "uv": [ 2, 12, 14, 16 ], "texture": "#body" }
            }
        },
        {
            "__comment": "Lower Portion",
            "from": [ 3, 4, 3 ],
            "to": [ 13, 5, 13 ],
            "faces": {
                "down":  { "uv": [ 3, 3, 13, 13 ], "texture": "#bottom" },
                "up":    { "uv": [ 3, 3, 13, 13 ], "texture": "#bottom" },
                "north": { "uv": [ 3, 11, 13, 12 ], "texture": "#body" },
                "south": { "uv": [ 3, 11, 13, 12 ], "texture": "#body" },
                "west":  { "uv": [ 3, 11, 13, 12 ], "texture": "#body" },
                "east":  { "uv": [ 3, 11, 13, 12 ], "texture": "#body" }
            }
        },
        {
            "__comment": "Wider Portion",
            "from": [ 4, 5, 4 ],
            "to": [ 12, 11, 12 ],
            "faces": {
                "down":  { "uv": [ 4, 4, 12, 12 ], "texture": "#bottom" },
                "up":    { "uv": [ 4, 4, 12, 12 ], "texture": "#bottom" },
                "north": { "uv": [ 4, 5, 12, 11 ], "texture": "#body" },
                "south": { "uv": [ 4, 5, 12, 11 ], "texture": "#body" },
                "west":  { "uv": [ 4, 5, 12, 11 ], "texture": "#body" },
                "east":  { "uv": [ 4, 5, 12, 11 ], "texture": "#body" }
            }
        },
        {
            "__comment": "Top",
            "from": [ 2, 11, 2 ],
            "to": [ 14, 16, 14 ],
            "faces": {
                "down":  { "uv": [ 2, 2, 14, 14 ], "texture": "#top" },
                "up":    { "uv": [ 2, 2, 14, 14 ], "texture": "#top" },
                "north": { "uv": [ 2, 0, 14, 5 ], "texture": "#body" },
                "south": { "uv": [ 2, 0, 14, 5 ], "texture": "#body" },
                "west":  { "uv": [ 2, 0, 14, 5 ], "texture": "#body" },
                "east":  { "uv": [ 2, 0, 14, 5 ], "texture": "#body" }
            }
        }
    ]
}
