{
    "ambientocclusion": false,
    "textures": {
        "particle": "#cross"
    },
    "elements": [ 
{
    "from": [ 16, 0, 0 ],
    "to": [ 16.0625, 16, 23 ],
    "rotation": { "origin": [ 16, 0, 0 ], "axis": "y", "angle": -45 },
    "faces": {
        "west":  { "uv": [ 0, 0, 16, 16 ], "texture": "#cross" },
        "east":  { "uv": [ 0, 0, 16, 16 ], "texture": "#cross" }
    }
},
{
    "from": [ 0, 0, 0 ],
    "to": [ 23, 16, 0.0625 ],
    "rotation": { "origin": [ 0, 0, 0 ], "axis": "y", "angle": -45 },
    "faces": {
        "north": { "uv": [ 0, 0, 16, 16 ], "texture": "#cross" },
        "south": { "uv": [ 0, 0, 16, 16 ], "texture": "#cross" }
    }
}
]
}