{
"__comment": "Fair warning, this format is highly likely to change even more in the future!",
"parent": "block/block", 
"textures": {
    "particle": "blocks/jungle_fence",
    "texture": "blocks/jungle_fence",
    "inner": "blocks/door_jungle_inner",
    "door_jungle_upper": "blocks/door_jungle_upper",
    "post": "blocks/planks_jungle"
},
"elements": [ 
{
    "__comment": "Center post",
    "from": [ 6, 0, 6 ],
    "to": [ 10, 16, 10 ],
    "faces": {
        "down":  { "uv": [ 6, 10, 10, 6 ], "texture": "#post", "cullface": "down" },
        "up":    { "uv": [ 6, 6, 10, 10 ], "texture": "#post" },
        "north": { "uv": [ 10, 0, 6, 16 ], "texture": "#post" },
        "south": { "uv": [ 6, 0, 10, 16 ], "texture": "#post" },
        "west":  { "uv": [ 6, 0, 10, 16 ], "texture": "#post" },
        "east":  { "uv": [ 10, 0, 6, 16 ], "texture": "#post" }
    }
},
{
    "__comment": "Fence1",
    "from": [ 7, 0, 4.25 ],
    "to": [ 8, 16, 5.75 ],
    "faces": {
        "down":  { "uv": [ 5.5, 4.5, 6.5, 3 ], "texture": "#texture", "cullface": "down" },
        "up":    { "uv": [ 5.5, 8.5, 6.5, 10 ], "texture": "#texture", "cullface": "up" },
        "north": { "uv": [ 9, 0, 8, 16 ], "texture": "#texture", "cullface": "north" },
        "south": { "uv": [ 2, 0, 3, 16 ], "texture": "#texture", "cullface": "south" },
        "west":  { "uv": [ 2, 0, 3.5, 16 ], "texture": "#texture", "cullface": "west" },
        "east":  { "uv": [ 7.5, 0, 6, 16 ], "texture": "#texture" }
    }
},
{
    "__comment": "Fence1",
    "from": [ 7, 0, 0.25 ],
    "to": [ 8, 16, 3.75 ],
    "faces": {
        "down":  { "uv": [ 1, 3.5, 2, 0 ], "texture": "#texture", "cullface": "down" },
        "up":    { "uv": [ 1, 0, 2, 3.5 ], "texture": "#texture", "cullface": "up" },
        "north": { "uv": [ 7, 0, 6, 16 ], "texture": "#texture", "cullface": "north" },
        "south": { "uv": [ 2, 0, 3, 16 ], "texture": "#texture", "cullface": "south" },
        "west":  { "uv": [ 0, 0, 3.5, 16 ], "texture": "#texture", "cullface": "west" },
        "east":  { "uv": [ 3.5, 0, 0, 16 ], "texture": "#texture" }
    }
},
{
    "__comment": "Fence1",
    "from": [ 8, 8.5, 0 ],
    "to": [ 9, 12, 6 ],
    "faces": {
        "down":  { "uv": [ 0.5, 12, 6.5, 11 ], "rotation": 90, "texture": "#inner", "cullface": "down" },
        "up":    { "uv": [ 3.5, 9.5, 9.5, 10.5 ], "rotation": 90, "texture": "#inner", "cullface": "up" },
        "north": { "uv": [ 11.5, 0, 12.5, 3.5 ], "texture": "#inner", "cullface": "north" },
        "south": { "uv": [ 11.5, 0, 12.5, 3.5 ], "texture": "#inner", "cullface": "south" },
        "west":  { "uv": [ 16, 3.5, 15.5, 0 ], "rotation": 180, "texture": "#inner", "cullface": "west" },
        "east":  { "uv": [ 10, 0, 16, 3.5 ], "texture": "#inner" }
    }
},
{
    "__comment": "Fence1*",
    "from": [ 6.95, 0, 4.2 ],
    "to": [ 8.05, 2, 5.8 ],
    "faces": {
        "north": { "uv": [ 9, 14, 8, 16 ], "texture": "#texture", "cullface": "north" },
        "south": { "uv": [ 2, 14, 3, 16 ], "texture": "#texture", "cullface": "south" },
        "west":  { "uv": [ 2, 14, 3.5, 16 ], "texture": "#texture", "cullface": "west" },
        "east":  { "uv": [ 7.5, 14, 6, 16 ], "texture": "#texture" }
    }
},
{
    "__comment": "Fence1*",
    "from": [ 6.95, 0, 0.2 ],
    "to": [ 8.05, 2, 3.8 ],
    "faces": {
        "north": { "uv": [ 7, 14, 6, 16 ], "texture": "#texture", "cullface": "north" },
        "south": { "uv": [ 2, 14, 3, 16 ], "texture": "#texture", "cullface": "south" },
        "west":  { "uv": [ 0, 14, 3.5, 16 ], "texture": "#texture", "cullface": "west" },
        "east":  { "uv": [ 3.5, 14, 0, 16 ], "texture": "#texture" }
    }
},
{
    "__comment": "Top",
    "from": [ 7, 17, 0.25 ],
    "to": [ 8, 17.5, 2.25 ],
    "faces": {
        "up":    { "uv": [ 5.5, 6.5, 6.5, 8.5 ], "texture": "#texture", "cullface": "up" },
        "north": { "uv": [ 9, 0, 8, 0.5 ], "texture": "#texture", "cullface": "up" },
        "south": { "uv": [ 8, 0, 9, 0.5 ], "texture": "#texture", "cullface": "up" },
        "west":  { "uv": [ 0, 0, 2, 0.5 ], "texture": "#door_jungle_upper", "cullface": "up" },
        "east":  { "uv": [ 2, 0, 0, 0.5 ], "texture": "#door_jungle_upper", "cullface": "up" }
    }
},
{
    "__comment": "Top",
    "from": [ 7, 16, 0.25 ],
    "to": [ 8, 16.5, 3.75 ],
    "faces": {
        "up":    { "uv": [ 13, 10, 14, 13.5 ], "texture": "#door_jungle_upper" },
        "north": { "uv": [ 9, 1, 8, 1.5 ], "texture": "#door_jungle_upper" },
        "south": { "uv": [ 8, 1, 9, 1.5 ], "texture": "#door_jungle_upper" },
        "west":  { "uv": [ 0, 1, 3.5, 1.5 ], "texture": "#door_jungle_upper" },
        "east":  { "uv": [ 3.5, 1, 0, 1.5 ], "texture": "#door_jungle_upper" }
    }
},
{
    "__comment": "Top",
    "from": [ 7, 16.5, 0.25 ],
    "to": [ 8, 17, 3.25 ],
    "faces": {
        "up":    { "uv": [ 14, 13, 15, 16 ], "texture": "#door_jungle_upper" },
        "north": { "uv": [ 9, 0.5, 8, 1 ], "texture": "#door_jungle_upper" },
        "south": { "uv": [ 8, 0.5, 9, 1 ], "texture": "#door_jungle_upper" },
        "west":  { "uv": [ 0, 0.5, 3, 1 ], "texture": "#door_jungle_upper" },
        "east":  { "uv": [ 3, 0.5, 0, 1 ], "texture": "#door_jungle_upper" }
    }
},
{
    "__comment": "Top",
    "from": [ 7, 16, 4.25 ],
    "to": [ 8, 16.5, 5.25 ],
    "faces": {
        "up":    { "uv": [ 4, 0, 5, 1 ], "texture": "#texture" },
        "north": { "uv": [ 1.5, 0.5, 2.5, 1 ], "texture": "#texture" },
        "south": { "uv": [ 14, 1.5, 15, 2 ], "texture": "#texture" },
        "west":  { "uv": [ 4.5, 0, 5.5, 0.5 ], "texture": "#door_jungle_upper" },
        "east":  { "uv": [ 5, 0, 6, 0.5 ], "texture": "#door_jungle_upper" }
    }
}
]
}