{
"parent": "block/block",
"ambientocclusion": false,
"__comment": "Designed by Leondonis with BDcraft Cubik PRO 0.96 Beta - http://bdcraft.net",
"textures": {
    "particle": "#texture"
},
"elements": [ 
{
    "from": [ 0, 0, 8 ],
    "to": [ 16, 16, 16 ],
    "faces": {
        "down":  { "uv": [ 0, 0, 16, 8 ], "texture": "#bottom" },
        "up":    { "uv": [ 0, 8, 16, 16 ], "texture": "#top" },
        "north": { "uv": [ 0, 0, 16, 16 ], "texture": "#texture" },
        "south": { "uv": [ 0, 0, 16, 16 ], "texture": "#texture" },
        "west":  { "uv": [ 8, 0, 16, 16 ], "texture": "#texture" },
        "east":  { "uv": [ 0, 0, 8, 16 ], "texture": "#texture" }
    }
},
{
    "from": [ 8, 0, 0 ],
    "to": [ 16, 16, 8 ],
    "faces": {
        "down":  { "uv": [ 16, 16, 8, 8 ], "texture": "#bottom" },
        "up":    { "uv": [ 8, 0, 16, 8 ], "texture": "#top" },
        "north": { "uv": [ 0, 0, 8, 16 ], "texture": "#texture" },
        "west":  { "uv": [ 0, 0, 8, 16 ], "texture": "#texture" },
        "east":  { "uv": [ 8, 0, 16, 16 ], "texture": "#texture" }
    }
}
]
}