{
"parent": "block/block",
"ambientocclusion": false,
"textures": {
    "particle": "#side"
},
"elements": [ 
{
    "from": [ 0, 10, 0 ],
    "to": [ 16, 11, 16 ],
    "faces": {
        "down":  { "uv": [ 0, 0, 16, 16 ], "texture": "#top" },
        "up":    { "uv": [ 0, 0, 16, 16 ], "texture": "#top" },
        "north": { "uv": [ 0, 5, 16, 6 ], "texture": "#side" },
        "south": { "uv": [ 0, 5, 16, 6 ], "texture": "#side" },
        "west":  { "uv": [ 0, 5, 16, 6 ], "texture": "#side" },
        "east":  { "uv": [ 0, 5, 16, 6 ], "texture": "#side" }
    }
},
{
    "from": [ 0, 11, 0 ],
    "to": [ 2, 15, 16 ],
    "faces": {
        "north": { "uv": [ 0, 0, 2, 5 ], "texture": "#side" },
        "south": { "uv": [ 0, 0, 2, 5 ], "texture": "#side" },
        "west":  { "uv": [ 0, 0, 16, 5 ], "texture": "#side" },
        "east":  { "uv": [ 0, 0, 16, 5 ], "texture": "#side" }
    }
},
{
    "from": [ 14, 11, 0 ],
    "to": [ 16, 15, 16 ],
    "faces": {
        "north": { "uv": [ 14, 0, 16, 5 ], "texture": "#side" },
        "south": { "uv": [ 14, 0, 16, 5 ], "texture": "#side" },
        "west":  { "uv": [ 0, 0, 16, 5 ], "texture": "#side" },
        "east":  { "uv": [ 0, 0, 16, 5 ], "texture": "#side" }
    }
},
{
    "from": [ 2, 11, 0 ],
    "to": [ 14, 15, 2 ],
    "faces": {
        "north": { "uv": [ 2, 0, 14, 5 ], "texture": "#side" },
        "south": { "uv": [ 2, 0, 14, 5 ], "texture": "#side" }
    }
},
{
    "from": [ 2, 11, 14 ],
    "to": [ 14, 15, 16 ],
    "faces": {
        "north": { "uv": [ 2, 0, 14, 5 ], "texture": "#side" },
        "south": { "uv": [ 2, 0, 14, 5 ], "texture": "#side" }
    }
},
{
    "from": [ 4, 4, 4 ],
    "to": [ 12, 10, 12 ],
    "faces": {
        "down":  { "uv": [ 4, 4, 12, 12 ], "texture": "#bottom" },
        "north": { "uv": [ 4, 6, 12, 12 ], "texture": "#side" },
        "south": { "uv": [ 4, 6, 12, 12 ], "texture": "#side" },
        "west":  { "uv": [ 4, 6, 12, 12 ], "texture": "#side" },
        "east":  { "uv": [ 4, 6, 12, 12 ], "texture": "#side" }
    }
},
{
    "from": [ 6, 0, 6 ],
    "to": [ 10, 4, 10 ],
    "faces": {
        "down":  { "uv": [ 6, 6, 10, 10 ], "texture": "#bottom" },
        "north": { "uv": [ 6, 12, 10, 16 ], "texture": "#side" },
        "south": { "uv": [ 6, 12, 10, 16 ], "texture": "#side" },
        "west":  { "uv": [ 6, 12, 10, 16 ], "texture": "#side" },
        "east":  { "uv": [ 6, 12, 10, 16 ], "texture": "#side" }
    }
},
{
    "from": [ 0, 13.4375, 0 ],
    "to": [ 1, 13.5, 1 ],
    "faces": {
        "down":  { "uv": [ 16, 1, 15, 0 ], "texture": "#top" },
        "up":    { "uv": [ 0, 0, 1, 1 ], "texture": "#top" }
    }
},
{
    "from": [ 0, 15, 0 ],
    "to": [ 16, 16, 16 ],
    "faces": {
        "down":  { "uv": [ 0, 0, 16, 16 ], "texture": "#top" },
        "up":    { "uv": [ 0, 0, 16, 16 ], "texture": "#top" },
        "north": { "uv": [ 0, 0, 16, 1 ], "texture": "#side" },
        "south": { "uv": [ 0, 0, 16, 1 ], "texture": "#side" },
        "west":  { "uv": [ 0, 0, 16, 1 ], "texture": "#side" },
        "east":  { "uv": [ 0, 0, 16, 1 ], "texture": "#side" }
    }
}
]
}