{
"__comment": "Fair warning, this format is highly likely to change even more in the future!",
"parent": "block/block", 
"textures": {
    "particle": "blocks/planks_spruce",
    "side": "blocks/spruce_fence",
    "top": "blocks/spruce_fence_top"
},
"elements": [ 
{
    "__comment": "Center post",
    "from": [ 6, 0, 6 ],
    "to": [ 10, 16, 10 ],
    "faces": {
        "down":  { "uv": [ 6, 10, 10, 6 ], "texture": "#top", "cullface": "down" },
        "up":    { "uv": [ 6, 6, 10, 10 ], "texture": "#top" },
        "north": { "uv": [ 10, 0, 6, 16 ], "texture": "#side" },
        "south": { "uv": [ 6, 0, 10, 16 ], "texture": "#side" },
        "west":  { "uv": [ 6, 0, 10, 16 ], "texture": "#side" },
        "east":  { "uv": [ 10, 0, 6, 16 ], "texture": "#side" }
    }
}
]
}