{
"__comment": "Fair warning, this format is highly likely to change even more in the future!",
"parent": "block/block", 
"textures": {
    "particle": "blocks/planks_spruce",
    "side": "blocks/spruce_fence",
    "top": "blocks/spruce_fence_top"
},
"elements": [ 
{
    "__comment": "NVerts*",
    "from": [ 7, 3, 2.5 ],
    "to": [ 9, 13, 4.5 ],
    "faces": {
        "north": { "uv": [ 9, 3, 7, 13 ], "texture": "#side" },
        "south": { "uv": [ 7, 3, 9, 13 ], "texture": "#side" },
        "west":  { "uv": [ 2.5, 3, 4.5, 13 ], "texture": "#side" },
        "east":  { "uv": [ 4.5, 3, 2.5, 13 ], "texture": "#side" }
    }
},
{
    "__comment": "NVerts*",
    "from": [ 7, 3, 0 ],
    "to": [ 9, 13, 1 ],
    "faces": {
        "north": { "uv": [ 9, 3, 7, 13 ], "texture": "#side" },
        "south": { "uv": [ 7, 3, 9, 13 ], "texture": "#side" },
        "west":  { "uv": [ 0, 3, 1, 13 ], "texture": "#side" },
        "east":  { "uv": [ 1, 3, 0, 13 ], "texture": "#side" }
    }
},
{
    "__comment": "NStrats",
    "from": [ 6.5, 1, 0 ],
    "to": [ 9.5, 3, 6 ],
    "faces": {
        "down":  { "uv": [ 6.5, 6, 9.5, 0 ], "texture": "#top", "cullface": "down" },
        "up":    { "uv": [ 6.5, 0, 9.5, 6 ], "texture": "#top" },
        "north": { "uv": [ 9.5, 13, 6.5, 15 ], "texture": "#side", "cullface": "north" },
        "west":  { "uv": [ 0, 13, 6, 15 ], "texture": "#side" },
        "east":  { "uv": [ 6, 13, 0, 15 ], "texture": "#side" }
    }
},
{
    "__comment": "NStrats",
    "from": [ 6.5, 13, 0 ],
    "to": [ 9.5, 15, 6 ],
    "faces": {
        "down":  { "uv": [ 6.5, 6, 9.5, 0 ], "texture": "#top", "cullface": "down" },
        "up":    { "uv": [ 6.5, 0, 9.5, 6 ], "texture": "#top" },
        "north": { "uv": [ 9.5, 1, 6.5, 3 ], "texture": "#side", "cullface": "north" },
        "west":  { "uv": [ 0, 1, 6, 3 ], "texture": "#side" },
        "east":  { "uv": [ 6, 1, 0, 3 ], "texture": "#side" }
    }
}
]
}