{
    "variants": {
        "level=0": { "model": "conquest:cauldronextremehills_empty" },
        "level=1": { "model": "conquest:cauldronextremehills_level1" },
        "level=2": { "model": "conquest:cauldronextremehills_level2" },
        "level=3": { "model": "conquest:cauldronextremehills_level3" }
    }
}
