{
    "variants": {
        "eye=false,facing=south": { "model": "conquest:roman_frame_off" },
        "eye=false,facing=west": { "model": "conquest:roman_frame_off", "y": 90 },
        "eye=false,facing=north": { "model": "conquest:roman_frame_off", "y": 180 },
        "eye=false,facing=east": { "model": "conquest:roman_frame_off", "y": 270 },
        "eye=true,facing=south": { "model": "conquest:roman_frame" },
        "eye=true,facing=west": { "model": "conquest:roman_frame", "y": 90 },
        "eye=true,facing=north": { "model": "conquest:roman_frame", "y": 180 },
        "eye=true,facing=east": { "model": "conquest:roman_frame", "y": 270 }
    }
}
