{
    "variants": {
        "level=0": { "model": "conquest:cauldrondesert_empty" },
        "level=1": { "model": "conquest:cauldrondesert_level1" },
        "level=2": { "model": "conquest:cauldrondesert_level2" },
        "level=3": { "model": "conquest:cauldrondesert_level3" }
    }
}
