{
    "variants": {
        "bites=0": { "model": "conquest:cakehell_uneaten" },
        "bites=1": { "model": "conquest:cakehell_slice1" },
        "bites=2": { "model": "conquest:cakehell_slice2" },
        "bites=3": { "model": "conquest:cakehell_slice3" },
        "bites=4": { "model": "conquest:cakehell_slice4" },
        "bites=5": { "model": "conquest:cakehell_slice5" },
        "bites=6": { "model": "conquest:cakehell_slice6" }
    }
}
