{
    "variants": {
        "bites=0": { "model": "conquest:cakedesert_uneaten" },
        "bites=1": { "model": "conquest:cakedesert_slice1" },
        "bites=2": { "model": "conquest:cakedesert_slice2" },
        "bites=3": { "model": "conquest:cakedesert_slice3" },
        "bites=4": { "model": "conquest:cakedesert_slice4" },
        "bites=5": { "model": "conquest:cakedesert_slice5" },
        "bites=6": { "model": "conquest:cakedesert_slice6" }
    }
}
