{
    "variants": {
        "bites=0": { "model": "conquest:cakeextremehills_uneaten" },
        "bites=1": { "model": "conquest:cakeextremehills_slice1" },
        "bites=2": { "model": "conquest:cakeextremehills_slice2" },
        "bites=3": { "model": "conquest:cakeextremehills_slice3" },
        "bites=4": { "model": "conquest:cakeextremehills_slice4" },
        "bites=5": { "model": "conquest:cakeextremehills_slice5" },
        "bites=6": { "model": "conquest:cakeextremehills_slice6" }
    }
}
