{
    "variants": {
        "facing=down,triggered=false":  { "model": "conquest:dropperdesert_vertical", "x": 180 },
        "facing=up,triggered=false":    { "model": "conquest:dropperdesert_vertical" },
        "facing=north,triggered=false": { "model": "conquest:dropperdesert" },
        "facing=south,triggered=false": { "model": "conquest:dropperdesert", "y": 180 },
        "facing=west,triggered=false":  { "model": "conquest:dropperdesert", "y": 270 },
        "facing=east,triggered=false":  { "model": "conquest:dropperdesert", "y": 90 },
        "facing=down,triggered=true":  { "model": "conquest:dropperdesert_vertical", "x": 180 },
        "facing=up,triggered=true":    { "model": "conquest:dropperdesert_vertical" },
        "facing=north,triggered=true": { "model": "conquest:dropperdesert" },
        "facing=south,triggered=true": { "model": "conquest:dropperdesert", "y": 180 },
        "facing=west,triggered=true":  { "model": "conquest:dropperdesert", "y": 270 },
        "facing=east,triggered=true":  { "model": "conquest:dropperdesert", "y": 90 }
    }
}
