{
    "variants": {
        "half=bottom,variant=alpha": { "model": "conquest:half_stoneslab2plains" },
        "half=bottom,variant=bravo": { "model": "conquest:half_dirtandgravelslab" },
        "half=bottom,variant=charlie": { "model": "conquest:half_stoneslab2megataiga" },
        "half=bottom,variant=delta": { "model": "conquest:half_stoneslab2" },
        "half=bottom,variant=echo": { "model": "conquest:half_stoneslab2extremehills" },
        "half=bottom,variant=fox": { "model": "conquest:half_stoneslab2mushroomisland" },
        "half=bottom,variant=golf": { "model": "conquest:none" },
        "half=bottom,variant=hotel": { "model": "conquest:none" },
        "half=top,variant=alpha": { "model": "conquest:upper_stoneslab2plains" },
        "half=top,variant=bravo": { "model": "conquest:upper_dirtandgravelslab" },
        "half=top,variant=charlie": { "model": "conquest:upper_stoneslab2megataiga" },
        "half=top,variant=delta": { "model": "conquest:upper_stoneslab2" },
        "half=top,variant=echo": { "model": "conquest:upper_stoneslab2extremehills" },
        "half=top,variant=fox": { "model": "conquest:upper_stoneslab2mushroomisland" },
        "half=top,variant=golf": { "model": "conquest:none" },
        "half=top,variant=hotel": { "model": "conquest:none" }
    }
}