{
    "variants": {
        "variant=alpha": { "model": "conquest:web9" },
        "variant=bravo": { "model": "conquest:brokenbottle" },
        "variant=charlie": { "model": "conquest:web1" },
        "variant=delta": { "model": "conquest:web1desert" },
        "variant=echo": { "model": "conquest:goblet" },
        "variant=fox": { "model": "conquest:none" },
        "variant=golf": { "model": "conquest:none" },
        "variant=hotel": { "model": "conquest:none" },
        "variant=india": { "model": "conquest:none" },
        "variant=juliet": { "model": "conquest:none" },
        "variant=kilo": { "model": "conquest:none" },
        "variant=lima": { "model": "conquest:none" },
        "variant=mike": { "model": "conquest:none" },
        "variant=november": { "model": "conquest:none" },
        "variant=oscar": { "model": "conquest:none" },
        "variant=papa": { "model": "conquest:none" }
    }
}