{
    "variants": {
        "facing=down,variant=alpha": { 	"model": "conquest:iron_trapdoor", "x": 180},
        "facing=up,variant=alpha": { 	"model": "conquest:iron_trapdoor" },
        "facing=north,variant=alpha": {		"model": "conquest:iron_trapdoor", "x": 90},
        "facing=south,variant=alpha": { 	"model": "conquest:iron_trapdoor", "x": 90, "y": 180 },
        "facing=east,variant=alpha": { 		"model": "conquest:iron_trapdoor", "x": 90, "y": 90 },
        "facing=west,variant=alpha": { 		"model": "conquest:iron_trapdoor", "x": 90, "y": 270 },

        "facing=east,variant=bravo": { "model": "conquest:trapdooriceplains_open", "y": 90 },
        "facing=south,variant=bravo": { "model": "conquest:trapdooriceplains_open", "y": 180 },
        "facing=west,variant=bravo": { "model": "conquest:trapdooriceplains_open", "y": 270 },
        "facing=north,variant=bravo": { "model": "conquest:trapdooriceplains_open" },
        "facing=up,variant=bravo": { "model": "conquest:trapdooriceplains_bottom" },
        "facing=down,variant=bravo": { "model": "conquest:trapdooriceplains_top" }
    }
}
