{
    "variants": {
        "axis=y,variant=alpha": { "model": "conquest:conquest_anvil_base" },
        "axis=x,variant=alpha": { "model": "conquest:anvil", "y": 90 },
        "axis=z,variant=alpha": { "model": "conquest:anvil", "y": 180 },
        "axis=none,variant=alpha": { "model": "conquest:none" },

        "axis=y,variant=bravo": { "model": "conquest:anvildesert_base" },
        "axis=x,variant=bravo": { "model": "conquest:anvildesert", "y": 90 },
        "axis=z,variant=bravo": { "model": "conquest:anvildesert", "y": 180 },
        "axis=none,variant=bravo": { "model": "conquest:none" },

        "axis=y,variant=charlie": { "model": "conquest:anvilsky_base" },
        "axis=x,variant=charlie": { "model": "conquest:anvilsky", "y": 90 },
        "axis=z,variant=charlie": { "model": "conquest:anvilsky", "y": 180 },
        "axis=none,variant=charlie": { "model": "conquest:none" },

        "axis=y,variant=delta": { "model": "conquest:none" },
        "axis=x,variant=delta": { "model": "conquest:none", "y": 90 },
        "axis=z,variant=delta": { "model": "conquest:none", "y": 180 },
        "axis=none,variant=delta": { "model": "conquest:none" }
    }
}