{
    "variants": {
        "facing=east,variant=alpha": { "model": "conquest:circularsaw_open", "x": 90, "y": 90 },
        "facing=south,variant=alpha": { "model": "conquest:circularsaw_open", "x": 90, "y": 180 },
        "facing=west,variant=alpha": { "model": "conquest:circularsaw_open", "x": 90, "y": 270 },
        "facing=north,variant=alpha": { "model": "conquest:circularsaw_open", "x": 90 },
        "facing=up,variant=alpha": { "model": "conquest:circularsaw_open" },
        "facing=down,variant=alpha": { "model": "conquest:circularsaw_open", "x": 180 },

        "facing=east,variant=bravo": { "model": "conquest:none", "y": 90 },
        "facing=south,variant=bravo": { "model": "conquest:none", "y": 180 },
        "facing=west,variant=bravo": { "model": "conquest:none", "y": 270 },
        "facing=north,variant=bravo": { "model": "conquest:none" },
        "facing=up,variant=bravo": { "model": "conquest:none" },
        "facing=down,variant=bravo": { "model": "conquest:none" }
    }
}
