{
    "variants": {
        "facing=south,variant=alpha": { "model": "conquest:axe", "y":90 },
        "facing=west,variant=alpha": { "model": "conquest:axe", "y": 180 },
        "facing=north,variant=alpha": { "model": "conquest:axe", "y": 270 },
        "facing=east,variant=alpha": { "model": "conquest:axe" },

        "facing=south,variant=bravo": { "model": "conquest:ironpressureplatetaiga", "y": 90 },
        "facing=west,variant=bravo": { "model": "conquest:ironpressureplatetaiga", "y": 180 },
        "facing=north,variant=bravo": { "model": "conquest:ironpressureplatetaiga", "y": 270 },
        "facing=east,variant=bravo": { "model": "conquest:ironpressureplatetaiga" },

        "facing=south,variant=charlie": { "model": "conquest:shovel", "y": 90 },
        "facing=west,variant=charlie": { "model": "conquest:shovel", "y": 180 },
        "facing=north,variant=charlie": { "model": "conquest:shovel", "y": 270 },
        "facing=east,variant=charlie": { "model": "conquest:shovel" },

        "facing=south,variant=delta": { "model": "conquest:ironpressureplatedesert", "y": 90 },
        "facing=west,variant=delta": { "model": "conquest:ironpressureplatedesert", "y": 180 },
        "facing=north,variant=delta": { "model": "conquest:ironpressureplatedesert", "y": 270 },
        "facing=east,variant=delta": { "model": "conquest:ironpressureplatedesert" }
    }
}