{
    "forge_marker": 1,
    "defaults": {
        "textures": {},
        "model": "conquest:LogPileLeft.obj"
    },
    "variants": {
        "normal": [{}],
        "inventory": [{
            "transform": "forge:default-block"
        }],
        "facing": {
            "down": {"model": "conquest:LogPileLeft.obj", "x": 90},
            "up": {"model": "conquest:LogPileLeft.obj", "x": 270},
            "north": {"model": "conquest:LogPileLeft.obj"},
            "south": {"model": "conquest:LogPileLeft.obj", "y": 180},
            "west": {"model": "conquest:LogPileLeft.obj", "y": 270},
            "east": {"model": "conquest:LogPileLeft.obj", "y": 90}
        }
    }
}
