{
    "variants": {
        "variant=alpha": { "model": "conquest:web13" },
        "variant=bravo": { "model": "conquest:web13plains" },
        "variant=charlie": { "model": "conquest:web13roofedforest" },
        "variant=delta": { "model": "conquest:web13beach" },
        "variant=echo": { "model": "conquest:web13river" },
        "variant=fox": { "model": "conquest:pigeon" },
        "variant=golf": { "model": "conquest:web13forest" },
        "variant=hotel": { "model": "conquest:web13sky" },
        "variant=india": { "model": "conquest:web14" },
        "variant=juliet": { "model": "conquest:web14plains" },
        "variant=kilo": { "model": "conquest:web8" },
        "variant=lima": { "model": "conquest:web2" },
        "variant=mike": { "model": "conquest:web2taiga" },
        "variant=november": { "model": "conquest:none" },
        "variant=oscar": { "model": "conquest:none" },
        "variant=papa": { "model": "conquest:none" }
    }
}