{
    "variants": {
        "facing=east,half=lower,hinge=left,open=false,powered=false":  { "model": "conquest:planks_greenweathered_door_bottom", "uvlock": true },
        "facing=south,half=lower,hinge=left,open=false,powered=false": { "model": "conquest:planks_greenweathered_door_bottom", "y": 90, "uvlock": true },
        "facing=west,half=lower,hinge=left,open=false,powered=false":  { "model": "conquest:planks_greenweathered_door_bottom", "y": 180, "uvlock": true },
        "facing=north,half=lower,hinge=left,open=false,powered=false": { "model": "conquest:planks_greenweathered_door_bottom", "y": 270, "uvlock": true },
        "facing=east,half=lower,hinge=right,open=false,powered=false":  { "model": "conquest:planks_greenweathered_door_bottom_rh", "uvlock": true },
        "facing=south,half=lower,hinge=right,open=false,powered=false": { "model": "conquest:planks_greenweathered_door_bottom_rh", "y": 90, "uvlock": true },
        "facing=west,half=lower,hinge=right,open=false,powered=false":  { "model": "conquest:planks_greenweathered_door_bottom_rh", "y": 180, "uvlock": true },
        "facing=north,half=lower,hinge=right,open=false,powered=false": { "model": "conquest:planks_greenweathered_door_bottom_rh", "y": 270, "uvlock": true },
        "facing=east,half=lower,hinge=left,open=true,powered=false":  { "model": "conquest:planks_greenweathered_door_bottom_rh", "y": 90, "uvlock": true },
        "facing=south,half=lower,hinge=left,open=true,powered=false": { "model": "conquest:planks_greenweathered_door_bottom_rh", "y": 180, "uvlock": true },
        "facing=west,half=lower,hinge=left,open=true,powered=false":  { "model": "conquest:planks_greenweathered_door_bottom_rh", "y": 270, "uvlock": true },
        "facing=north,half=lower,hinge=left,open=true,powered=false": { "model": "conquest:planks_greenweathered_door_bottom_rh", "uvlock": true },
        "facing=east,half=lower,hinge=right,open=true,powered=false":  { "model": "conquest:planks_greenweathered_door_bottom", "y": 270, "uvlock": true },
        "facing=south,half=lower,hinge=right,open=true,powered=false": { "model": "conquest:planks_greenweathered_door_bottom", "uvlock": true },
        "facing=west,half=lower,hinge=right,open=true,powered=false":  { "model": "conquest:planks_greenweathered_door_bottom", "y": 90, "uvlock": true },
        "facing=north,half=lower,hinge=right,open=true,powered=false": { "model": "conquest:planks_greenweathered_door_bottom", "y": 180, "uvlock": true },
        "facing=east,half=upper,hinge=left,open=false,powered=false":  { "model": "conquest:planks_greenweathered_door_top", "uvlock": true },
        "facing=south,half=upper,hinge=left,open=false,powered=false": { "model": "conquest:planks_greenweathered_door_top", "y": 90, "uvlock": true },
        "facing=west,half=upper,hinge=left,open=false,powered=false":  { "model": "conquest:planks_greenweathered_door_top", "y": 180, "uvlock": true },
        "facing=north,half=upper,hinge=left,open=false,powered=false": { "model": "conquest:planks_greenweathered_door_top", "y": 270, "uvlock": true },
        "facing=east,half=upper,hinge=right,open=false,powered=false":  { "model": "conquest:planks_greenweathered_door_top_rh", "uvlock": true },
        "facing=south,half=upper,hinge=right,open=false,powered=false": { "model": "conquest:planks_greenweathered_door_top_rh", "y": 90, "uvlock": true },
        "facing=west,half=upper,hinge=right,open=false,powered=false":  { "model": "conquest:planks_greenweathered_door_top_rh", "y": 180, "uvlock": true },
        "facing=north,half=upper,hinge=right,open=false,powered=false": { "model": "conquest:planks_greenweathered_door_top_rh", "y": 270, "uvlock": true },
        "facing=east,half=upper,hinge=left,open=true,powered=false":  { "model": "conquest:planks_greenweathered_door_top_rh", "y": 90, "uvlock": true },
        "facing=south,half=upper,hinge=left,open=true,powered=false": { "model": "conquest:planks_greenweathered_door_top_rh", "y": 180, "uvlock": true },
        "facing=west,half=upper,hinge=left,open=true,powered=false":  { "model": "conquest:planks_greenweathered_door_top_rh", "y": 270, "uvlock": true },
        "facing=north,half=upper,hinge=left,open=true,powered=false": { "model": "conquest:planks_greenweathered_door_top_rh", "uvlock": true },
        "facing=east,half=upper,hinge=right,open=true,powered=false":  { "model": "conquest:planks_greenweathered_door_top", "y": 270, "uvlock": true },
        "facing=south,half=upper,hinge=right,open=true,powered=false": { "model": "conquest:planks_greenweathered_door_top", "uvlock": true },
        "facing=west,half=upper,hinge=right,open=true,powered=false":  { "model": "conquest:planks_greenweathered_door_top", "y": 90, "uvlock": true },
        "facing=north,half=upper,hinge=right,open=true,powered=false": { "model": "conquest:planks_greenweathered_door_top", "y": 180, "uvlock": true },
        "facing=east,half=lower,hinge=left,open=false,powered=true":  { "model": "conquest:planks_greenweathered_door_bottom", "uvlock": true },
        "facing=south,half=lower,hinge=left,open=false,powered=true": { "model": "conquest:planks_greenweathered_door_bottom", "y": 90, "uvlock": true },
        "facing=west,half=lower,hinge=left,open=false,powered=true":  { "model": "conquest:planks_greenweathered_door_bottom", "y": 180, "uvlock": true },
        "facing=north,half=lower,hinge=left,open=false,powered=true": { "model": "conquest:planks_greenweathered_door_bottom", "y": 270, "uvlock": true },
        "facing=east,half=lower,hinge=right,open=false,powered=true":  { "model": "conquest:planks_greenweathered_door_bottom_rh", "uvlock": true },
        "facing=south,half=lower,hinge=right,open=false,powered=true": { "model": "conquest:planks_greenweathered_door_bottom_rh", "y": 90, "uvlock": true },
        "facing=west,half=lower,hinge=right,open=false,powered=true":  { "model": "conquest:planks_greenweathered_door_bottom_rh", "y": 180, "uvlock": true },
        "facing=north,half=lower,hinge=right,open=false,powered=true": { "model": "conquest:planks_greenweathered_door_bottom_rh", "y": 270, "uvlock": true },
        "facing=east,half=lower,hinge=left,open=true,powered=true":  { "model": "conquest:planks_greenweathered_door_bottom_rh", "y": 90, "uvlock": true },
        "facing=south,half=lower,hinge=left,open=true,powered=true": { "model": "conquest:planks_greenweathered_door_bottom_rh", "y": 180, "uvlock": true },
        "facing=west,half=lower,hinge=left,open=true,powered=true":  { "model": "conquest:planks_greenweathered_door_bottom_rh", "y": 270, "uvlock": true },
        "facing=north,half=lower,hinge=left,open=true,powered=true": { "model": "conquest:planks_greenweathered_door_bottom_rh", "uvlock": true },
        "facing=east,half=lower,hinge=right,open=true,powered=true":  { "model": "conquest:planks_greenweathered_door_bottom", "y": 270, "uvlock": true },
        "facing=south,half=lower,hinge=right,open=true,powered=true": { "model": "conquest:planks_greenweathered_door_bottom", "uvlock": true },
        "facing=west,half=lower,hinge=right,open=true,powered=true":  { "model": "conquest:planks_greenweathered_door_bottom", "y": 90, "uvlock": true },
        "facing=north,half=lower,hinge=right,open=true,powered=true": { "model": "conquest:planks_greenweathered_door_bottom", "y": 180, "uvlock": true },
        "facing=east,half=upper,hinge=left,open=false,powered=true":  { "model": "conquest:planks_greenweathered_door_top", "uvlock": true },
        "facing=south,half=upper,hinge=left,open=false,powered=true": { "model": "conquest:planks_greenweathered_door_top", "y": 90, "uvlock": true },
        "facing=west,half=upper,hinge=left,open=false,powered=true":  { "model": "conquest:planks_greenweathered_door_top", "y": 180, "uvlock": true },
        "facing=north,half=upper,hinge=left,open=false,powered=true": { "model": "conquest:planks_greenweathered_door_top", "y": 270, "uvlock": true },
        "facing=east,half=upper,hinge=right,open=false,powered=true":  { "model": "conquest:planks_greenweathered_door_top_rh", "uvlock": true },
        "facing=south,half=upper,hinge=right,open=false,powered=true": { "model": "conquest:planks_greenweathered_door_top_rh", "y": 90, "uvlock": true },
        "facing=west,half=upper,hinge=right,open=false,powered=true":  { "model": "conquest:planks_greenweathered_door_top_rh", "y": 180, "uvlock": true },
        "facing=north,half=upper,hinge=right,open=false,powered=true": { "model": "conquest:planks_greenweathered_door_top_rh", "y": 270, "uvlock": true },
        "facing=east,half=upper,hinge=left,open=true,powered=true":  { "model": "conquest:planks_greenweathered_door_top_rh", "y": 90, "uvlock": true },
        "facing=south,half=upper,hinge=left,open=true,powered=true": { "model": "conquest:planks_greenweathered_door_top_rh", "y": 180, "uvlock": true },
        "facing=west,half=upper,hinge=left,open=true,powered=true":  { "model": "conquest:planks_greenweathered_door_top_rh", "y": 270, "uvlock": true },
        "facing=north,half=upper,hinge=left,open=true,powered=true": { "model": "conquest:planks_greenweathered_door_top_rh", "uvlock": true },
        "facing=east,half=upper,hinge=right,open=true,powered=true":  { "model": "conquest:planks_greenweathered_door_top", "y": 270, "uvlock": true },
        "facing=south,half=upper,hinge=right,open=true,powered=true": { "model": "conquest:planks_greenweathered_door_top", "uvlock": true },
        "facing=west,half=upper,hinge=right,open=true,powered=true":  { "model": "conquest:planks_greenweathered_door_top", "y": 90, "uvlock": true },
        "facing=north,half=upper,hinge=right,open=true,powered=true": { "model": "conquest:planks_greenweathered_door_top", "y": 180, "uvlock": true }
    }
}
