{
    "variants": {
        "variant=alpha": { "model": "conquest:reedswampland" },
        "variant=bravo": { "model": "conquest:cannonball" },
        "variant=charlie": { "model": "conquest:hangingflowers" },
        "variant=delta": { "model": "conquest:mushroombrownswampland" },
        "variant=echo": { "model": "conquest:mushroomredswampland" },
        "variant=fox": { "model": "conquest:greencarpetforest" },
        "variant=golf": { "model": "conquest:birdnest" },
        "variant=hotel": { "model": "conquest:birdnest_small" },
        "variant=india": { "model": "conquest:cowplate" },
        "variant=juliet": { "model": "conquest:flowerpot13forest" },
        "variant=kilo": { "model": "conquest:brownrabbit" },
        "variant=lima": { "model": "conquest:whiterabbit" },
        "variant=mike": { "model": "conquest:web12coldtaiga3" },
        "variant=november": { "model": "conquest:web12coldtaiga" },
        "variant=oscar": { "model": "conquest:web12coldtaiga1" },
        "variant=papa": { "model": "conquest:web12coldtaiga2" }
    }
}