{
    "variants": {
        "variant=alpha": { "model": "conquest:sand2" },
        "variant=bravo": { "model": "conquest:sand4" },
        "variant=charlie": { "model": "conquest:sand5" },
        "variant=delta": { "model": "conquest:sandocean" },
        "variant=echo": { "model": "conquest:wet_sand_gravel" },
        "variant=fox": { "model": "conquest:wet_sand_mossy" },
        "variant=golf": { "model": "conquest:red_sand_gravel" },
        "variant=hotel": { "model": "conquest:red_sand_mossy" },
        "variant=india": { "model": "conquest:none" },
        "variant=juliet": { "model": "conquest:none" },
        "variant=kilo": { "model": "conquest:none" },
        "variant=lima": { "model": "conquest:none" },
        "variant=mike": { "model": "conquest:none" },
        "variant=november": { "model": "conquest:none" },
        "variant=oscar": { "model": "conquest:none" },
        "variant=papa": { "model": "conquest:none" }
    }
}