{
    "variants": {
        "facing=east,half=bottom,shape=straight,variant=alpha":  { "model": "conquest:quartzstairsiceplains_normal" },
        "facing=west,half=bottom,shape=straight,variant=alpha":  { "model": "conquest:quartzstairsiceplains_normal", "y": 180, "uvlock": true },
        "facing=south,half=bottom,shape=straight,variant=alpha": { "model": "conquest:quartzstairsiceplains_normal", "y": 90, "uvlock": true },
        "facing=north,half=bottom,shape=straight,variant=alpha": { "model": "conquest:quartzstairsiceplains_normal", "y": 270, "uvlock": true },
        "facing=east,half=bottom,shape=outer_right,variant=alpha":  { "model": "conquest:quartzstairsiceplains_outer" },
        "facing=west,half=bottom,shape=outer_right,variant=alpha":  { "model": "conquest:quartzstairsiceplains_outer", "y": 180, "uvlock": true },
        "facing=south,half=bottom,shape=outer_right,variant=alpha": { "model": "conquest:quartzstairsiceplains_outer", "y": 90, "uvlock": true },
        "facing=north,half=bottom,shape=outer_right,variant=alpha": { "model": "conquest:quartzstairsiceplains_outer", "y": 270, "uvlock": true },
        "facing=east,half=bottom,shape=outer_left,variant=alpha":  { "model": "conquest:quartzstairsiceplains_outer", "y": 270, "uvlock": true },
        "facing=west,half=bottom,shape=outer_left,variant=alpha":  { "model": "conquest:quartzstairsiceplains_outer", "y": 90, "uvlock": true },
        "facing=south,half=bottom,shape=outer_left,variant=alpha": { "model": "conquest:quartzstairsiceplains_outer" },
        "facing=north,half=bottom,shape=outer_left,variant=alpha": { "model": "conquest:quartzstairsiceplains_outer", "y": 180, "uvlock": true },
        "facing=east,half=bottom,shape=inner_right,variant=alpha":  { "model": "conquest:quartzstairsiceplains_inner" },
        "facing=west,half=bottom,shape=inner_right,variant=alpha":  { "model": "conquest:quartzstairsiceplains_inner", "y": 180, "uvlock": true },
        "facing=south,half=bottom,shape=inner_right,variant=alpha": { "model": "conquest:quartzstairsiceplains_inner", "y": 90, "uvlock": true },
        "facing=north,half=bottom,shape=inner_right,variant=alpha": { "model": "conquest:quartzstairsiceplains_inner", "y": 270, "uvlock": true },
        "facing=east,half=bottom,shape=inner_left,variant=alpha":  { "model": "conquest:quartzstairsiceplains_inner", "y": 270, "uvlock": true },
        "facing=west,half=bottom,shape=inner_left,variant=alpha":  { "model": "conquest:quartzstairsiceplains_inner", "y": 90, "uvlock": true },
        "facing=south,half=bottom,shape=inner_left,variant=alpha": { "model": "conquest:quartzstairsiceplains_inner" },
        "facing=north,half=bottom,shape=inner_left,variant=alpha": { "model": "conquest:quartzstairsiceplains_inner", "y": 180, "uvlock": true },
        "facing=east,half=top,shape=straight,variant=alpha":  { "model": "conquest:quartzstairsiceplains_normal", "x": 180, "uvlock": true },
        "facing=west,half=top,shape=straight,variant=alpha":  { "model": "conquest:quartzstairsiceplains_normal", "x": 180, "y": 180, "uvlock": true },
        "facing=south,half=top,shape=straight,variant=alpha": { "model": "conquest:quartzstairsiceplains_normal", "x": 180, "y": 90, "uvlock": true },
        "facing=north,half=top,shape=straight,variant=alpha": { "model": "conquest:quartzstairsiceplains_normal", "x": 180, "y": 270, "uvlock": true },
        "facing=east,half=top,shape=outer_right,variant=alpha":  { "model": "conquest:quartzstairsiceplains_outer", "x": 180, "y": 90, "uvlock": true },
        "facing=west,half=top,shape=outer_right,variant=alpha":  { "model": "conquest:quartzstairsiceplains_outer", "x": 180, "y": 270, "uvlock": true },
        "facing=south,half=top,shape=outer_right,variant=alpha": { "model": "conquest:quartzstairsiceplains_outer", "x": 180, "y": 180, "uvlock": true },
        "facing=north,half=top,shape=outer_right,variant=alpha": { "model": "conquest:quartzstairsiceplains_outer", "x": 180, "uvlock": true },
        "facing=east,half=top,shape=outer_left,variant=alpha":  { "model": "conquest:quartzstairsiceplains_outer", "x": 180, "uvlock": true },
        "facing=west,half=top,shape=outer_left,variant=alpha":  { "model": "conquest:quartzstairsiceplains_outer", "x": 180, "y": 180, "uvlock": true },
        "facing=south,half=top,shape=outer_left,variant=alpha": { "model": "conquest:quartzstairsiceplains_outer", "x": 180, "y": 90, "uvlock": true },
        "facing=north,half=top,shape=outer_left,variant=alpha": { "model": "conquest:quartzstairsiceplains_outer", "x": 180, "y": 270, "uvlock": true },
        "facing=east,half=top,shape=inner_right,variant=alpha":  { "model": "conquest:quartzstairsiceplains_inner", "x": 180, "y": 90, "uvlock": true },
        "facing=west,half=top,shape=inner_right,variant=alpha":  { "model": "conquest:quartzstairsiceplains_inner", "x": 180, "y": 270, "uvlock": true },
        "facing=south,half=top,shape=inner_right,variant=alpha": { "model": "conquest:quartzstairsiceplains_inner", "x": 180, "y": 180, "uvlock": true },
        "facing=north,half=top,shape=inner_right,variant=alpha": { "model": "conquest:quartzstairsiceplains_inner", "x": 180, "uvlock": true },
        "facing=east,half=top,shape=inner_left,variant=alpha":  { "model": "conquest:quartzstairsiceplains_inner", "x": 180, "uvlock": true },
        "facing=west,half=top,shape=inner_left,variant=alpha":  { "model": "conquest:quartzstairsiceplains_inner", "x": 180, "y": 180, "uvlock": true },
        "facing=south,half=top,shape=inner_left,variant=alpha": { "model": "conquest:quartzstairsiceplains_inner", "x": 180, "y": 90, "uvlock": true },
        "facing=north,half=top,shape=inner_left,variant=alpha": { "model": "conquest:quartzstairsiceplains_inner", "x": 180, "y": 270, "uvlock": true },

        "facing=east,half=bottom,shape=straight,variant=bravo":  { "model": "conquest:none" },
        "facing=west,half=bottom,shape=straight,variant=bravo":  { "model": "conquest:none", "y": 180, "uvlock": true },
        "facing=south,half=bottom,shape=straight,variant=bravo": { "model": "conquest:none", "y": 90, "uvlock": true },
        "facing=north,half=bottom,shape=straight,variant=bravo": { "model": "conquest:none", "y": 270, "uvlock": true },
        "facing=east,half=bottom,shape=outer_right,variant=bravo":  { "model": "conquest:none" },
        "facing=west,half=bottom,shape=outer_right,variant=bravo":  { "model": "conquest:none", "y": 180, "uvlock": true },
        "facing=south,half=bottom,shape=outer_right,variant=bravo": { "model": "conquest:none", "y": 90, "uvlock": true },
        "facing=north,half=bottom,shape=outer_right,variant=bravo": { "model": "conquest:none", "y": 270, "uvlock": true },
        "facing=east,half=bottom,shape=outer_left,variant=bravo":  { "model": "conquest:none", "y": 270, "uvlock": true },
        "facing=west,half=bottom,shape=outer_left,variant=bravo":  { "model": "conquest:none", "y": 90, "uvlock": true },
        "facing=south,half=bottom,shape=outer_left,variant=bravo": { "model": "conquest:none" },
        "facing=north,half=bottom,shape=outer_left,variant=bravo": { "model": "conquest:none", "y": 180, "uvlock": true },
        "facing=east,half=bottom,shape=inner_right,variant=bravo":  { "model": "conquest:none" },
        "facing=west,half=bottom,shape=inner_right,variant=bravo":  { "model": "conquest:none", "y": 180, "uvlock": true },
        "facing=south,half=bottom,shape=inner_right,variant=bravo": { "model": "conquest:none", "y": 90, "uvlock": true },
        "facing=north,half=bottom,shape=inner_right,variant=bravo": { "model": "conquest:none", "y": 270, "uvlock": true },
        "facing=east,half=bottom,shape=inner_left,variant=bravo":  { "model": "conquest:none", "y": 270, "uvlock": true },
        "facing=west,half=bottom,shape=inner_left,variant=bravo":  { "model": "conquest:none", "y": 90, "uvlock": true },
        "facing=south,half=bottom,shape=inner_left,variant=bravo": { "model": "conquest:none" },
        "facing=north,half=bottom,shape=inner_left,variant=bravo": { "model": "conquest:none", "y": 180, "uvlock": true },
        "facing=east,half=top,shape=straight,variant=bravo":  { "model": "conquest:none", "x": 180, "uvlock": true },
        "facing=west,half=top,shape=straight,variant=bravo":  { "model": "conquest:none", "x": 180, "y": 180, "uvlock": true },
        "facing=south,half=top,shape=straight,variant=bravo": { "model": "conquest:none", "x": 180, "y": 90, "uvlock": true },
        "facing=north,half=top,shape=straight,variant=bravo": { "model": "conquest:none", "x": 180, "y": 270, "uvlock": true },
        "facing=east,half=top,shape=outer_right,variant=bravo":  { "model": "conquest:none", "x": 180, "y": 90, "uvlock": true },
        "facing=west,half=top,shape=outer_right,variant=bravo":  { "model": "conquest:none", "x": 180, "y": 270, "uvlock": true },
        "facing=south,half=top,shape=outer_right,variant=bravo": { "model": "conquest:none", "x": 180, "y": 180, "uvlock": true },
        "facing=north,half=top,shape=outer_right,variant=bravo": { "model": "conquest:none", "x": 180, "uvlock": true },
        "facing=east,half=top,shape=outer_left,variant=bravo":  { "model": "conquest:none", "x": 180, "uvlock": true },
        "facing=west,half=top,shape=outer_left,variant=bravo":  { "model": "conquest:none", "x": 180, "y": 180, "uvlock": true },
        "facing=south,half=top,shape=outer_left,variant=bravo": { "model": "conquest:none", "x": 180, "y": 90, "uvlock": true },
        "facing=north,half=top,shape=outer_left,variant=bravo": { "model": "conquest:none", "x": 180, "y": 270, "uvlock": true },
        "facing=east,half=top,shape=inner_right,variant=bravo":  { "model": "conquest:none", "x": 180, "y": 90, "uvlock": true },
        "facing=west,half=top,shape=inner_right,variant=bravo":  { "model": "conquest:none", "x": 180, "y": 270, "uvlock": true },
        "facing=south,half=top,shape=inner_right,variant=bravo": { "model": "conquest:none", "x": 180, "y": 180, "uvlock": true },
        "facing=north,half=top,shape=inner_right,variant=bravo": { "model": "conquest:none", "x": 180, "uvlock": true },
        "facing=east,half=top,shape=inner_left,variant=bravo":  { "model": "conquest:none", "x": 180, "uvlock": true },
        "facing=west,half=top,shape=inner_left,variant=bravo":  { "model": "conquest:none", "x": 180, "y": 180, "uvlock": true },
        "facing=south,half=top,shape=inner_left,variant=bravo": { "model": "conquest:none", "x": 180, "y": 90, "uvlock": true },
        "facing=north,half=top,shape=inner_left,variant=bravo": { "model": "conquest:none", "x": 180, "y": 270, "uvlock": true }
    }
}