{
    "variants": {
        "facing=north,half=bottom,open=false": { "model": "conquest:spruce_railing_bl", "y": 270, "x":180 },
        "facing=south,half=bottom,open=false": { "model": "conquest:spruce_railing_bl", "y": 90, "x":180 },
        "facing=east,half=bottom,open=false": { "model": "conquest:spruce_railing_bl", "x":180 },
        "facing=west,half=bottom,open=false": { "model": "conquest:spruce_railing_bl", "y": 180, "x":180 },
        "facing=north,half=top,open=false": { "model": "conquest:spruce_railing_ur", "y": 90, "x":180 },
        "facing=south,half=top,open=false": { "model": "conquest:spruce_railing_ur", "y": 270, "x":180 },
        "facing=east,half=top,open=false": { "model": "conquest:spruce_railing_ur", "y": 180, "x":180 },
        "facing=west,half=top,open=false": { "model": "conquest:spruce_railing_ur", "x":180 },
        "facing=north,half=bottom,open=true": { "model": "conquest:spruce_railing_bl", "y": 270 },
        "facing=south,half=bottom,open=true": { "model": "conquest:spruce_railing_bl", "y": 90 },
        "facing=east,half=bottom,open=true": { "model": "conquest:spruce_railing_bl" },
        "facing=west,half=bottom,open=true": { "model": "conquest:spruce_railing_bl", "y": 180 },
        "facing=north,half=top,open=true": { "model": "conquest:spruce_railing_ur", "y": 90 },
        "facing=south,half=top,open=true": { "model": "conquest:spruce_railing_ur", "y": 270 },
        "facing=east,half=top,open=true": { "model": "conquest:spruce_railing_ur", "y": 180 },
        "facing=west,half=top,open=true": { "model": "conquest:spruce_railing_ur" }
    }
}
