{
    "variants": {
        "variant=alpha": { "model": "conquest:granite_polished_dragonegg" },
        "variant=bravo": { "model": "conquest:diorite_polished_dragonegg" },
        "variant=charlie": { "model": "conquest:andesite_polished_dragonegg" },
        "variant=delta": { "model": "conquest:cobblestone_normal_dragonegg" },
        "variant=echo": { "model": "conquest:sandstone_normal_dragonegg" },
        "variant=fox": { "model": "conquest:iron_normal_dragonegg" },
        "variant=golf": { "model": "conquest:bricks_normal_dragonegg" },
        "variant=hotel": { "model": "conquest:cobblestone_normal_dragonegg" },
        "variant=india": { "model": "conquest:stonebrick_normal_dragonegg" },
        "variant=juliet": { "model": "conquest:stonebrick_mossy_dragonegg" },
        "variant=kilo": { "model": "conquest:stonebrick_cracked_dragonegg" },
        "variant=lima": { "model": "conquest:netherbrick_normal_dragonegg" },
        "variant=mike": { "model": "conquest:plaster_magenta_dragonegg" },
        "variant=november": { "model": "conquest:plaster_lightgray_dragonegg" },
        "variant=oscar": { "model": "conquest:plaster_purple_dragonegg" },
        "variant=papa": { "model": "conquest:prismarine_normal_dragonegg" }
    }
}