{
    "variants": {
        "facing=south,variant=alpha": { "model": "conquest:stone_hewn_verticalslab", "y": 270, "uvlock": true },
        "facing=west,variant=alpha": { "model": "conquest:stone_hewn_verticalslab", "uvlock": true },
        "facing=north,variant=alpha": { "model": "conquest:stone_hewn_verticalslab", "y": 90, "uvlock": true },
        "facing=east,variant=alpha": { "model": "conquest:stone_hewn_verticalslab", "y": 180, "uvlock": true },

        "facing=south,variant=bravo": { "model": "conquest:stone_colorfulslate_verticalslab", "y": 270, "uvlock": true },
        "facing=west,variant=bravo": { "model": "conquest:stone_colorfulslate_verticalslab", "uvlock": true },
        "facing=north,variant=bravo": { "model": "conquest:stone_colorfulslate_verticalslab", "y": 90, "uvlock": true },
        "facing=east,variant=bravo": { "model": "conquest:stone_colorfulslate_verticalslab", "y": 180, "uvlock": true },

        "facing=south,variant=charlie": { "model": "conquest:cobblestone_old_verticalslab", "y": 270, "uvlock": true },
        "facing=west,variant=charlie": { "model": "conquest:cobblestone_old_verticalslab", "uvlock": true },
        "facing=north,variant=charlie": { "model": "conquest:cobblestone_old_verticalslab", "y": 90, "uvlock": true },
        "facing=east,variant=charlie": { "model": "conquest:cobblestone_old_verticalslab", "y": 180, "uvlock": true },

        "facing=south,variant=delta": { "model": "conquest:cobblestone_damaged_verticalslab", "y": 270, "uvlock": true },
        "facing=west,variant=delta": { "model": "conquest:cobblestone_damaged_verticalslab", "uvlock": true },
        "facing=north,variant=delta": { "model": "conquest:cobblestone_damaged_verticalslab", "y": 90, "uvlock": true },
        "facing=east,variant=delta": { "model": "conquest:cobblestone_damaged_verticalslab", "y": 180, "uvlock": true }
    }
}