{
    "variants": {
        "axis=y,variant=alpha": { "model": "conquest:brick_darkroman_slit" },
        "axis=z,variant=alpha": { "model": "conquest:brick_darkroman_slit", "x": 90 },
        "axis=x,variant=alpha": { "model": "conquest:brick_darkroman_slit", "x": 90, "y": 90 },
        "axis=none,variant=alpha": { "model": "conquest:none" },

        "axis=y,variant=bravo": { "model": "conquest:brick_darkromansandstone_slit" },
        "axis=z,variant=bravo": { "model": "conquest:brick_darkromansandstone_slit", "x": 90 },
        "axis=x,variant=bravo": { "model": "conquest:brick_darkromansandstone_slit", "x": 90, "y": 90 },
        "axis=none,variant=bravo": { "model": "conquest:none" },

        "axis=y,variant=charlie": { "model": "conquest:brick_romansandstone_slit" },
        "axis=z,variant=charlie": { "model": "conquest:brick_romansandstone_slit", "x": 90 },
        "axis=x,variant=charlie": { "model": "conquest:brick_romansandstone_slit", "x": 90, "y": 90 },
        "axis=none,variant=charlie": { "model": "conquest:none" },

        "axis=y,variant=delta": { "model": "conquest:cobblestone_dark_slit" },
        "axis=z,variant=delta": { "model": "conquest:cobblestone_dark_slit", "x": 90 },
        "axis=x,variant=delta": { "model": "conquest:cobblestone_dark_slit", "x": 90, "y": 90 },
        "axis=none,variant=delta": { "model": "conquest:none" }
    }
}
