{
    "variants": {
        "facing=south,variant=alpha": { "model": "conquest:base_marble_verticalslab", "y": 270, "uvlock": true },
        "facing=west,variant=alpha": { "model": "conquest:base_marble_verticalslab", "uvlock": true },
        "facing=north,variant=alpha": { "model": "conquest:base_marble_verticalslab", "y": 90, "uvlock": true },
        "facing=east,variant=alpha": { "model": "conquest:base_marble_verticalslab", "y": 180, "uvlock": true },

        "facing=south,variant=bravo": { "model": "conquest:capitalcorinthian_verticalslab", "y": 270, "uvlock": true },
        "facing=west,variant=bravo": { "model": "conquest:capitalcorinthian_verticalslab", "uvlock": true },
        "facing=north,variant=bravo": { "model": "conquest:capitalcorinthian_verticalslab", "y": 90, "uvlock": true },
        "facing=east,variant=bravo": { "model": "conquest:capitalcorinthian_verticalslab", "y": 180, "uvlock": true },

        "facing=south,variant=charlie": { "model": "conquest:capitalcorinthian_sandstone_verticalslab", "y": 270, "uvlock": true },
        "facing=west,variant=charlie": { "model": "conquest:capitalcorinthian_sandstone_verticalslab", "uvlock": true },
        "facing=north,variant=charlie": { "model": "conquest:capitalcorinthian_sandstone_verticalslab", "y": 90, "uvlock": true },
        "facing=east,variant=charlie": { "model": "conquest:capitalcorinthian_sandstone_verticalslab", "y": 180, "uvlock": true },

        "facing=south,variant=delta": { "model": "conquest:cornice_sandstone_verticalslab", "y": 270, "uvlock": true },
        "facing=west,variant=delta": { "model": "conquest:cornice_sandstone_verticalslab", "uvlock": true },
        "facing=north,variant=delta": { "model": "conquest:cornice_sandstone_verticalslab", "y": 90, "uvlock": true },
        "facing=east,variant=delta": { "model": "conquest:cornice_sandstone_verticalslab", "y": 180, "uvlock": true }
    }
}