{
    "variants": {
        "half=bottom,variant=alpha": { "model": "conquest:half_cobblestone_reinforced" },
        "half=bottom,variant=bravo": { "model": "conquest:half_cobblestone_reinforced" },
        "half=bottom,variant=charlie": { "model": "conquest:half_groove_portculis" },
        "half=bottom,variant=delta": { "model": "conquest:half_netherbrick_big" },
        "half=bottom,variant=echo": { "model": "conquest:half_tiles_red" },
        "half=bottom,variant=fox": { "model": "conquest:half_iron_normal" },
        "half=bottom,variant=golf": { "model": "conquest:half_marble" },
        "half=bottom,variant=hotel": { "model": "conquest:half_marble_smoothwhite" },
        "half=top,variant=alpha": { "model": "conquest:upper_cobblestone_reinforced" },
        "half=top,variant=bravo": { "model": "conquest:upper_cobblestone_reinforced" },
        "half=top,variant=charlie": { "model": "conquest:upper_groove_portculis" },
        "half=top,variant=delta": { "model": "conquest:upper_netherbrick_big" },
        "half=top,variant=echo": { "model": "conquest:upper_tiles_red" },
        "half=top,variant=fox": { "model": "conquest:upper_iron_normal" },
        "half=top,variant=golf": { "model": "conquest:upper_marble" },
        "half=top,variant=hotel": { "model": "conquest:upper_marble_smoothwhite" }
    }
}