{
    "variants": {
        "facing=south,variant=alpha": { "model": "conquest:bigslab_blackinscribed_verticalslab", "y": 270, "uvlock": true },
        "facing=west,variant=alpha": { "model": "conquest:bigslab_blackinscribed_verticalslab", "uvlock": true },
        "facing=north,variant=alpha": { "model": "conquest:bigslab_blackinscribed_verticalslab", "y": 90, "uvlock": true },
        "facing=east,variant=alpha": { "model": "conquest:bigslab_blackinscribed_verticalslab", "y": 180, "uvlock": true },

        "facing=south,variant=bravo": { "model": "conquest:bigslab_blackinscribed1_verticalslab", "y": 270, "uvlock": true },
        "facing=west,variant=bravo": { "model": "conquest:bigslab_blackinscribed1_verticalslab", "uvlock": true },
        "facing=north,variant=bravo": { "model": "conquest:bigslab_blackinscribed1_verticalslab", "y": 90, "uvlock": true },
        "facing=east,variant=bravo": { "model": "conquest:bigslab_blackinscribed1_verticalslab", "y": 180, "uvlock": true },

        "facing=south,variant=charlie": { "model": "conquest:mosaic_roman_verticalslab", "y": 270, "uvlock": true },
        "facing=west,variant=charlie": { "model": "conquest:mosaic_roman_verticalslab", "uvlock": true },
        "facing=north,variant=charlie": { "model": "conquest:mosaic_roman_verticalslab", "y": 90, "uvlock": true },
        "facing=east,variant=charlie": { "model": "conquest:mosaic_roman_verticalslab", "y": 180, "uvlock": true },

        "facing=south,variant=delta": { "model": "conquest:mosaic_indian_verticalslab", "y": 270, "uvlock": true },
        "facing=west,variant=delta": { "model": "conquest:mosaic_indian_verticalslab", "uvlock": true },
        "facing=north,variant=delta": { "model": "conquest:mosaic_indian_verticalslab", "y": 90, "uvlock": true },
        "facing=east,variant=delta": { "model": "conquest:mosaic_indian_verticalslab", "y": 180, "uvlock": true }
    }
}