{
    "variants": {
        "axis=y,variant=alpha": { "model": "conquest:bronzeblock_gilded_base" },
        "axis=x,variant=alpha": { "model": "conquest:bronzeblock_gilded_anvil", "y": 90 },
        "axis=z,variant=alpha": { "model": "conquest:bronzeblock_gilded_anvil", "y": 180 },
        "axis=none,variant=alpha": { "model": "conquest:none" },

        "axis=y,variant=bravo": { "model": "conquest:granite_polished_base" },
        "axis=x,variant=bravo": { "model": "conquest:granite_polished_anvil", "y": 90 },
        "axis=z,variant=bravo": { "model": "conquest:granite_polished_anvil", "y": 180 },
        "axis=none,variant=bravo": { "model": "conquest:none" },

        "axis=y,variant=charlie": { "model": "conquest:diorite_polished_base" },
        "axis=x,variant=charlie": { "model": "conquest:diorite_polished_anvil", "y": 90 },
        "axis=z,variant=charlie": { "model": "conquest:diorite_polished_anvil", "y": 180 },
        "axis=none,variant=charlie": { "model": "conquest:none" },

        "axis=y,variant=delta": { "model": "conquest:andesite_polished_base" },
        "axis=x,variant=delta": { "model": "conquest:andesite_polished_anvil", "y": 90 },
        "axis=z,variant=delta": { "model": "conquest:andesite_polished_anvil", "y": 180 },
        "axis=none,variant=delta": { "model": "conquest:none" }
    }
}