{
    "variants": {
        "axis=y,variant=alpha": { "model": "conquest:marble_smoothwhite_base" },
        "axis=x,variant=alpha": { "model": "conquest:marble_smoothwhite_anvil", "y": 90 },
        "axis=z,variant=alpha": { "model": "conquest:marble_smoothwhite_anvil", "y": 180 },
        "axis=none,variant=alpha": { "model": "conquest:none" },

        "axis=y,variant=bravo": { "model": "conquest:none" },
        "axis=x,variant=bravo": { "model": "conquest:none", "y": 90 },
        "axis=z,variant=bravo": { "model": "conquest:none", "y": 180 },
        "axis=none,variant=bravo": { "model": "conquest:none" },

        "axis=y,variant=charlie": { "model": "conquest:bigslab_marble1_base" },
        "axis=x,variant=charlie": { "model": "conquest:bigslab_marble1_anvil", "y": 90 },
        "axis=z,variant=charlie": { "model": "conquest:bigslab_marble1_anvil", "y": 180 },
        "axis=none,variant=charlie": { "model": "conquest:none" },

        "axis=y,variant=delta": { "model": "conquest:bigslab_sandstone1_base" },
        "axis=x,variant=delta": { "model": "conquest:bigslab_sandstone1_anvil", "y": 90 },
        "axis=z,variant=delta": { "model": "conquest:bigslab_sandstone1_anvil", "y": 180 },
        "axis=none,variant=delta": { "model": "conquest:none" }
    }
}