{
    "variants": {
        "variant=alpha": { "model": "conquest:web10beach" },
        "variant=bravo": { "model": "conquest:hourglass" },
        "variant=charlie": { "model": "conquest:globe" },
        "variant=delta": { "model": "conquest:compass_web" },
        "variant=echo": { "model": "conquest:silvercoins" },
        "variant=fox": { "model": "conquest:goldpressureplateextremehills" },
        "variant=golf": { "model": "conquest:flowerpot12" },
        "variant=hotel": { "model": "conquest:flowerpot13" },
        "variant=india": { "model": "conquest:flowerpot14" },
        "variant=juliet": { "model": "conquest:amphora" },
        "variant=kilo": { "model": "conquest:none" },
        "variant=lima": { "model": "conquest:none" },
        "variant=mike": { "model": "conquest:none" },
        "variant=november": { "model": "conquest:none" },
        "variant=oscar": { "model": "conquest:none" },
        "variant=papa": { "model": "conquest:none" }
    }
}