{
    "variants": {
        "variant=alpha": { "model": "conquest:rooftile_lightgreen_fence_post" },
        "variant=bravo": { "model": "conquest:oxidized_copper_fence_post" },
        "variant=charlie": { "model": "conquest:stone_colorfulslate_fence_post" },
        "variant=delta": { "model": "conquest:cobblestone_old_fence_post" },
        "variant=echo": { "model": "conquest:cobblestone_damaged_fence_post" },
        "variant=fox": { "model": "conquest:none" },
        "variant=golf": { "model": "conquest:cobblestone_mossy_fence_post" },
        "variant=hotel": { "model": "conquest:cobblestone_overgrown_fence_post" },
        "variant=india": { "model": "conquest:cobblestone_vines_fence_post" },
        "variant=juliet": { "model": "conquest:none" },
        "variant=kilo": { "model": "conquest:none" },
        "variant=lima": { "model": "conquest:groove_portculis_fence_post" },
        "variant=mike": { "model": "conquest:pillar_stone_fence_post" },
        "variant=november": { "model": "conquest:netherbrick_wall_fence_post" },
        "variant=oscar": { "model": "conquest:netherbrick_big_fence_post" },
        "variant=papa": { "model": "conquest:netherbrick_pillar_fence_post" }
    }
}