{
    "variants": {
        "variant=alpha": { "model": "conquest:plaster_magenta_fence_post" },
        "variant=bravo": { "model": "conquest:plaster_lightgray_fence_post" },
        "variant=charlie": { "model": "conquest:plaster_purple_fence_post" },
        "variant=delta": { "model": "conquest:prismarine_normal_fence_post" },
        "variant=echo": { "model": "conquest:prismarine_bricks_fence_post" },
        "variant=fox": { "model": "conquest:prismarine_dark_fence_post" },
        "variant=golf": { "model": "conquest:sandstone_red_fence_post" },
        "variant=hotel": { "model": "conquest:sandstone_redchiseled_fence_post" },
        "variant=india": { "model": "conquest:sandstone_redsmooth_fence_post" },
        "variant=juliet": { "model": "conquest:none" },
        "variant=kilo": { "model": "conquest:purpur_pillar_fence_post" },
        "variant=lima": { "model": "conquest:endstone_bricks_fence_post" },
        "variant=mike": { "model": "conquest:netherbrick_red_fence_post" },
        "variant=november": { "model": "conquest:none" },
        "variant=oscar": { "model": "conquest:marble_black_fence_post" },
        "variant=papa": { "model": "conquest:marble_blue_fence_post" }
    }
}