{
    "variants": {
        "facing=south,variant=alpha": { "model": "conquest:netherbrick_normal_windowslit", "y": 270, "uvlock": true },
        "facing=west,variant=alpha": { "model": "conquest:netherbrick_normal_windowslit", "uvlock": true },
        "facing=north,variant=alpha": { "model": "conquest:netherbrick_normal_windowslit", "y": 90, "uvlock": true },
        "facing=east,variant=alpha": { "model": "conquest:netherbrick_normal_windowslit", "y": 180, "uvlock": true },

        "facing=south,variant=bravo": { "model": "conquest:quartz_normal_windowslit", "y": 270, "uvlock": true },
        "facing=west,variant=bravo": { "model": "conquest:quartz_normal_windowslit", "uvlock": true },
        "facing=north,variant=bravo": { "model": "conquest:quartz_normal_windowslit", "y": 90, "uvlock": true },
        "facing=east,variant=bravo": { "model": "conquest:quartz_normal_windowslit", "y": 180, "uvlock": true },

        "facing=south,variant=charlie": { "model": "conquest:plaster_magenta_windowslit", "y": 270, "uvlock": true },
        "facing=west,variant=charlie": { "model": "conquest:plaster_magenta_windowslit", "uvlock": true },
        "facing=north,variant=charlie": { "model": "conquest:plaster_magenta_windowslit", "y": 90, "uvlock": true },
        "facing=east,variant=charlie": { "model": "conquest:plaster_magenta_windowslit", "y": 180, "uvlock": true },

        "facing=south,variant=delta": { "model": "conquest:plaster_lightgray_windowslit", "y": 270, "uvlock": true },
        "facing=west,variant=delta": { "model": "conquest:plaster_lightgray_windowslit", "uvlock": true },
        "facing=north,variant=delta": { "model": "conquest:plaster_lightgray_windowslit", "y": 90, "uvlock": true },
        "facing=east,variant=delta": { "model": "conquest:plaster_lightgray_windowslit", "y": 180, "uvlock": true }

    }
}