{
    "variants": {
        "variant=alpha": { "model": "conquest:clayredmesa" },
        "variant=bravo": { "model": "conquest:claygreymesa" },
        "variant=charlie": { "model": "conquest:claybrownmesa" },
        "variant=delta": { "model": "conquest:oxidized_copper" },
        "variant=echo": { "model": "conquest:stone7" },
        "variant=fox": { "model": "conquest:bone" },
        "variant=golf": { "model": "conquest:stone_mossy_full" },
        "variant=hotel": { "model": "conquest:stone_mossytop_full" },
        "variant=india": { "model": "conquest:lapisblock7" },
        "variant=juliet": { "model": "conquest:stone10" },
        "variant=kilo": { "model": "conquest:stone11" },
        "variant=lima": { "model": "conquest:stone12" },
        "variant=mike": { "model": "conquest:sandstone5" },
        "variant=november": { "model": "conquest:clayorangemesa" },
        "variant=oscar": { "model": "conquest:obsidian2" },
        "variant=papa": { "model": "conquest:hardenedclay1" }
    }
}