{
    "variants": {
        "variant=alpha": { "model": "conquest:ironpressureplatehell" },
        "variant=bravo": { "model": "conquest:corpse" },
        "variant=charlie": { "model": "conquest:pressureplate5" },
        "variant=delta": { "model": "conquest:pressureplate5jungle" },
        "variant=echo": { "model": "conquest:pressureplate5hell" },
        "variant=fox": { "model": "conquest:web9extremehills" },
        "variant=golf": { "model": "conquest:stalagmite1" },
        "variant=hotel": { "model": "conquest:sandstonerock" },
        "variant=india": { "model": "conquest:graniterock" },
        "variant=juliet": { "model": "conquest:limestonerock" },
        "variant=kilo": { "model": "conquest:holeplate" },
        "variant=lima": { "model": "conquest:web3" },
        "variant=mike": { "model": "conquest:web3jungle" },
        "variant=november": { "model": "conquest:web3beach" },
        "variant=oscar": { "model": "conquest:web3extremehills" },
        "variant=papa": { "model": "conquest:web10" }
    }
}