{
    "variants": {
        "axis=y,variant=alpha": { "model": "conquest:netherbrick_normal_base" },
        "axis=x,variant=alpha": { "model": "conquest:netherbrick_normal_anvil", "y": 90 },
        "axis=z,variant=alpha": { "model": "conquest:netherbrick_normal_anvil", "y": 180 },
        "axis=none,variant=alpha": { "model": "conquest:none" },

        "axis=y,variant=bravo": { "model": "conquest:plaster_magenta_base" },
        "axis=x,variant=bravo": { "model": "conquest:plaster_magenta_anvil", "y": 90 },
        "axis=z,variant=bravo": { "model": "conquest:plaster_magenta_anvil", "y": 180 },
        "axis=none,variant=bravo": { "model": "conquest:none" },

        "axis=y,variant=charlie": { "model": "conquest:plaster_lightgray_base" },
        "axis=x,variant=charlie": { "model": "conquest:plaster_lightgray_anvil", "y": 90 },
        "axis=z,variant=charlie": { "model": "conquest:plaster_lightgray_anvil", "y": 180 },
        "axis=none,variant=charlie": { "model": "conquest:none" },

        "axis=y,variant=delta": { "model": "conquest:plaster_purple_base" },
        "axis=x,variant=delta": { "model": "conquest:plaster_purple_anvil", "y": 90 },
        "axis=z,variant=delta": { "model": "conquest:plaster_purple_anvil", "y": 180 },
        "axis=none,variant=delta": { "model": "conquest:none" }
    }
}