{
    "variants": {
        "facing=south,variant=alpha": { "model": "conquest:slate_lightmortar_windowslit", "y": 270, "uvlock": true },
        "facing=west,variant=alpha": { "model": "conquest:slate_lightmortar_windowslit", "uvlock": true },
        "facing=north,variant=alpha": { "model": "conquest:slate_lightmortar_windowslit", "y": 90, "uvlock": true },
        "facing=east,variant=alpha": { "model": "conquest:slate_lightmortar_windowslit", "y": 180, "uvlock": true },

        "facing=south,variant=bravo": { "model": "conquest:plasterwork_white_windowslit", "y": 270, "uvlock": true },
        "facing=west,variant=bravo": { "model": "conquest:plasterwork_white_windowslit", "uvlock": true },
        "facing=north,variant=bravo": { "model": "conquest:plasterwork_white_windowslit", "y": 90, "uvlock": true },
        "facing=east,variant=bravo": { "model": "conquest:plasterwork_white_windowslit", "y": 180, "uvlock": true },

        "facing=south,variant=charlie": { "model": "conquest:plasterwork_magentaclean_windowslit", "y": 270, "uvlock": true },
        "facing=west,variant=charlie": { "model": "conquest:plasterwork_magentaclean_windowslit", "uvlock": true },
        "facing=north,variant=charlie": { "model": "conquest:plasterwork_magentaclean_windowslit", "y": 90, "uvlock": true },
        "facing=east,variant=charlie": { "model": "conquest:plasterwork_magentaclean_windowslit", "y": 180, "uvlock": true },

        "facing=south,variant=delta": { "model": "conquest:plasterwork_lightgrayclean_windowslit", "y": 270, "uvlock": true },
        "facing=west,variant=delta": { "model": "conquest:plasterwork_lightgrayclean_windowslit", "uvlock": true },
        "facing=north,variant=delta": { "model": "conquest:plasterwork_lightgrayclean_windowslit", "y": 90, "uvlock": true },
        "facing=east,variant=delta": { "model": "conquest:plasterwork_lightgrayclean_windowslit", "y": 180, "uvlock": true }

    }
}