{
    "variants": {
        "facing=south,variant=alpha": { "model": "conquest:stucco_white_corner", "y": 270, "uvlock": true },
        "facing=west,variant=alpha": { "model": "conquest:stucco_white_corner", "uvlock": true },
        "facing=north,variant=alpha": { "model": "conquest:stucco_white_corner", "y": 90, "uvlock": true },
        "facing=east,variant=alpha": { "model": "conquest:stucco_white_corner", "y": 180, "uvlock": true },

        "facing=south,variant=bravo": { "model": "conquest:stucco_tan_corner", "y": 270, "uvlock": true },
        "facing=west,variant=bravo": { "model": "conquest:stucco_tan_corner", "uvlock": true },
        "facing=north,variant=bravo": { "model": "conquest:stucco_tan_corner", "y": 90, "uvlock": true },
        "facing=east,variant=bravo": { "model": "conquest:stucco_tan_corner", "y": 180, "uvlock": true },

        "facing=south,variant=charlie": { "model": "conquest:walldesign_brown_corner", "y": 270, "uvlock": true },
        "facing=west,variant=charlie": { "model": "conquest:walldesign_brown_corner", "uvlock": true },
        "facing=north,variant=charlie": { "model": "conquest:walldesign_brown_corner", "y": 90, "uvlock": true },
        "facing=east,variant=charlie": { "model": "conquest:walldesign_brown_corner", "y": 180, "uvlock": true },

        "facing=south,variant=delta": { "model": "conquest:stucco_brown_corner", "y": 270, "uvlock": true },
        "facing=west,variant=delta": { "model": "conquest:stucco_brown_corner", "uvlock": true },
        "facing=north,variant=delta": { "model": "conquest:stucco_brown_corner", "y": 90, "uvlock": true },
        "facing=east,variant=delta": { "model": "conquest:stucco_brown_corner", "y": 180, "uvlock": true }
    }
}