{
    "variants": {
        "axis=y,variant=alpha": { "model": "conquest:stucco_lime_slit" },
        "axis=z,variant=alpha": { "model": "conquest:stucco_lime_slit", "x": 90 },
        "axis=x,variant=alpha": { "model": "conquest:stucco_lime_slit", "x": 90, "y": 90 },
        "axis=none,variant=alpha": { "model": "conquest:none" },

        "axis=y,variant=bravo": { "model": "conquest:stucco_green_slit" },
        "axis=z,variant=bravo": { "model": "conquest:stucco_green_slit", "x": 90 },
        "axis=x,variant=bravo": { "model": "conquest:stucco_green_slit", "x": 90, "y": 90 },
        "axis=none,variant=bravo": { "model": "conquest:none" },

        "axis=y,variant=charlie": { "model": "conquest:stucco_cyan_slit" },
        "axis=z,variant=charlie": { "model": "conquest:stucco_cyan_slit", "x": 90 },
        "axis=x,variant=charlie": { "model": "conquest:stucco_cyan_slit", "x": 90, "y": 90 },
        "axis=none,variant=charlie": { "model": "conquest:none" },

        "axis=y,variant=delta": { "model": "conquest:stucco_lightblue_slit" },
        "axis=z,variant=delta": { "model": "conquest:stucco_lightblue_slit", "x": 90 },
        "axis=x,variant=delta": { "model": "conquest:stucco_lightblue_slit", "x": 90, "y": 90 },
        "axis=none,variant=delta": { "model": "conquest:none" }
    }
}
