{
    "variants": {
        "half=bottom,variant=alpha": { "model": "conquest:half_sandstone_mossy" },
        "half=bottom,variant=bravo": { "model": "conquest:half_tile_clay" },
        "half=bottom,variant=charlie": { "model": "conquest:half_tile_mixedclay" },
        "half=bottom,variant=delta": { "model": "conquest:half_tile_lightclay" },
        "half=bottom,variant=echo": { "model": "conquest:half_ironblock_rusty" },
        "half=bottom,variant=fox": { "model": "conquest:half_brick_mossy" },
        "half=bottom,variant=golf": { "model": "conquest:half_brick_darkredmossy" },
        "half=bottom,variant=hotel": { "model": "conquest:half_brick_redmossy" },
        "half=top,variant=alpha": { "model": "conquest:upper_sandstone_mossy" },
        "half=top,variant=bravo": { "model": "conquest:upper_tile_clay" },
        "half=top,variant=charlie": { "model": "conquest:upper_tile_mixedclay" },
        "half=top,variant=delta": { "model": "conquest:upper_tile_lightclay" },
        "half=top,variant=echo": { "model": "conquest:upper_ironblock_rusty" },
        "half=top,variant=fox": { "model": "conquest:upper_brick_mossy" },
        "half=top,variant=golf": { "model": "conquest:upper_brick_darkredmossy" },
        "half=top,variant=hotel": { "model": "conquest:upper_brick_redmossy" }
    }
}