{
    "variants": {
        "height=height2,variant=alpha":  { "model": "conquest:stone_plastered_snowlayer_height2" },
        "height=height4,variant=alpha":  { "model": "conquest:stone_plastered_snowlayer_height4" },
        "height=height6,variant=alpha":  { "model": "conquest:stone_plastered_snowlayer_height6" },
        "height=height8,variant=alpha":  { "model": "conquest:stone_plastered_snowlayer_height8" },
        "height=height10,variant=alpha": { "model": "conquest:stone_plastered_snowlayer_height10" },
        "height=height12,variant=alpha": { "model": "conquest:stone_plastered_snowlayer_height12" },
        "height=height14,variant=alpha": { "model": "conquest:stone_plastered_snowlayer_height14" },
        "height=full,variant=alpha":  	 { "model": "conquest:stone_plastered_snowlayer" },

        "height=height2,variant=bravo":  { "model": "conquest:cobblestone_fishscale_snowlayer_height2" },
        "height=height4,variant=bravo":  { "model": "conquest:cobblestone_fishscale_snowlayer_height4" },
        "height=height6,variant=bravo":  { "model": "conquest:cobblestone_fishscale_snowlayer_height6" },
        "height=height8,variant=bravo":  { "model": "conquest:cobblestone_fishscale_snowlayer_height8" },
        "height=height10,variant=bravo": { "model": "conquest:cobblestone_fishscale_snowlayer_height10" },
        "height=height12,variant=bravo": { "model": "conquest:cobblestone_fishscale_snowlayer_height12" },
        "height=height14,variant=bravo": { "model": "conquest:cobblestone_fishscale_snowlayer_height14" },
        "height=full,variant=bravo":  	 { "model": "conquest:cobblestone_fishscale_snowlayer" }
    }
}
