{
    "variants": {
        "axis=y,variant=alpha": { "model": "conquest:roman_column_sandstone" },
        "axis=z,variant=alpha": { "model": "conquest:roman_column_sandstone", "x": 90 },
        "axis=x,variant=alpha": { "model": "conquest:roman_column_sandstone", "x": 90, "y": 90 },
        "axis=none,variant=alpha": { "model": "conquest:roman_column_sandstone" },

        "axis=y,variant=bravo": { "model": "conquest:roman_column_red" },
        "axis=z,variant=bravo": { "model": "conquest:roman_column_red", "x": 90 },
        "axis=x,variant=bravo": { "model": "conquest:roman_column_red", "x": 90, "y": 90 },
        "axis=none,variant=bravo": { "model": "conquest:roman_column_red" },

        "axis=y,variant=charlie": { "model": "conquest:roman_column_blue" },
        "axis=z,variant=charlie": { "model": "conquest:roman_column_blue", "x": 90 },
        "axis=x,variant=charlie": { "model": "conquest:roman_column_blue", "x": 90, "y": 90 },
        "axis=none,variant=charlie": { "model": "conquest:roman_column_blue" },

        "axis=y,variant=delta": { "model": "conquest:roman_column_gold" },
        "axis=z,variant=delta": { "model": "conquest:roman_column_gold", "x": 90 },
        "axis=x,variant=delta": { "model": "conquest:roman_column_gold", "x": 90, "y": 90 },
        "axis=none,variant=delta": { "model": "conquest:roman_column_gold" }
    }
}