{
    "variants": {
        "variant=alpha": { "model": "conquest:brick_darkred_hopper_down" },
        "variant=bravo": { "model": "conquest:brick_darkredmossy_hopper_down" },
        "variant=charlie": { "model": "conquest:brick_red_hopper_down" },
        "variant=delta": { "model": "conquest:brick_redmossy_hopper_down" },
        "variant=echo": { "model": "conquest:brick_roman_hopper_down" },
        "variant=fox": { "model": "conquest:stucco_white_hopper_down" },
        "variant=golf": { "model": "conquest:stucco_tan_hopper_down" },
        "variant=hotel": { "model": "conquest:stucco_brown_hopper_down" },
        "variant=india": { "model": "conquest:stucco_purple_hopper_down" },
        "variant=juliet": { "model": "conquest:walldesign_red8_hopper_down" },
        "variant=kilo": { "model": "conquest:stucco_lightred_hopper_down" },
        "variant=lima": { "model": "conquest:stucco_lime_hopper_down" },
        "variant=mike": { "model": "conquest:stucco_green_hopper_down" },
        "variant=november": { "model": "conquest:stucco_cyan_hopper_down" },
        "variant=oscar": { "model": "conquest:stucco_lightblue_hopper_down" },
        "variant=papa": { "model": "conquest:stucco_blue_hopper_down" }
    }
}