{
    "variants": {
        "axis=y,variant=alpha": { "model": "conquest:stone_hewn_base" },
        "axis=x,variant=alpha": { "model": "conquest:stone_hewn_anvil", "y": 90 },
        "axis=z,variant=alpha": { "model": "conquest:stone_hewn_anvil", "y": 180 },
        "axis=none,variant=alpha": { "model": "conquest:none" },

        "axis=y,variant=bravo": { "model": "conquest:stone_colorfulslate_base" },
        "axis=x,variant=bravo": { "model": "conquest:stone_colorfulslate_anvil", "y": 90 },
        "axis=z,variant=bravo": { "model": "conquest:stone_colorfulslate_anvil", "y": 180 },
        "axis=none,variant=bravo": { "model": "conquest:none" },

        "axis=y,variant=charlie": { "model": "conquest:cobblestone_old_base" },
        "axis=x,variant=charlie": { "model": "conquest:cobblestone_old_anvil", "y": 90 },
        "axis=z,variant=charlie": { "model": "conquest:cobblestone_old_anvil", "y": 180 },
        "axis=none,variant=charlie": { "model": "conquest:none" },

        "axis=y,variant=delta": { "model": "conquest:cobblestone_damaged_base" },
        "axis=x,variant=delta": { "model": "conquest:cobblestone_damaged_anvil", "y": 90 },
        "axis=z,variant=delta": { "model": "conquest:cobblestone_damaged_anvil", "y": 180 },
        "axis=none,variant=delta": { "model": "conquest:none" }
    }
}