{
    "variants": {
        "variant=alpha": { "model": "conquest:hardenedclay2" },
        "variant=bravo": { "model": "conquest:roman_brick_vertical" },
        "variant=charlie": { "model": "conquest:roman_tile1" },
        "variant=delta": { "model": "conquest:roman_architrave_polychrome" },
        "variant=echo": { "model": "conquest:roman_architrave_polychrome2" },
        "variant=fox": { "model": "conquest:roman_architrave_polychrome3" },
        "variant=golf": { "model": "conquest:roman_corinthian_capital_polychrome" },
        "variant=hotel": { "model": "conquest:roman_marble_design1" },
        "variant=india": { "model": "conquest:roman_marble_design2" },
        "variant=juliet": { "model": "conquest:roman_marble_design3" },
        "variant=kilo": { "model": "conquest:roman_marble_design4" },
        "variant=lima": { "model": "conquest:roman_marble_design5" },
        "variant=mike": { "model": "conquest:roman_marble_design6" },
        "variant=november": { "model": "conquest:roman_marble_design7" },
        "variant=oscar": { "model": "conquest:roman_marble_design8" },
        "variant=papa": { "model": "conquest:roman_marble_black" }
    }
}