{
    "variants": {
        "axis=y,variant=alpha": { "model": "conquest:marble_gray_slit" },
        "axis=z,variant=alpha": { "model": "conquest:marble_gray_slit", "x": 90 },
        "axis=x,variant=alpha": { "model": "conquest:marble_gray_slit", "x": 90, "y": 90 },
        "axis=none,variant=alpha": { "model": "conquest:none" },

        "axis=y,variant=bravo": { "model": "conquest:marble_green_slit" },
        "axis=z,variant=bravo": { "model": "conquest:marble_green_slit", "x": 90 },
        "axis=x,variant=bravo": { "model": "conquest:marble_green_slit", "x": 90, "y": 90 },
        "axis=none,variant=bravo": { "model": "conquest:none" },

        "axis=y,variant=charlie": { "model": "conquest:marble_pink_slit" },
        "axis=z,variant=charlie": { "model": "conquest:marble_pink_slit", "x": 90 },
        "axis=x,variant=charlie": { "model": "conquest:marble_pink_slit", "x": 90, "y": 90 },
        "axis=none,variant=charlie": { "model": "conquest:none" },

        "axis=y,variant=delta": { "model": "conquest:marble_red_slit" },
        "axis=z,variant=delta": { "model": "conquest:marble_red_slit", "x": 90 },
        "axis=x,variant=delta": { "model": "conquest:marble_red_slit", "x": 90, "y": 90 },
        "axis=none,variant=delta": { "model": "conquest:none" }
    }
}
