{
    "variants": {
        "facing=south,variant=alpha": { "model": "conquest:stone_plastered_verticalslab", "y": 270, "uvlock": true },
        "facing=west,variant=alpha": { "model": "conquest:stone_plastered_verticalslab", "uvlock": true },
        "facing=north,variant=alpha": { "model": "conquest:stone_plastered_verticalslab", "y": 90, "uvlock": true },
        "facing=east,variant=alpha": { "model": "conquest:stone_plastered_verticalslab", "y": 180, "uvlock": true },

        "facing=south,variant=bravo": { "model": "conquest:cobblestone_normal_verticalslab", "y": 270, "uvlock": true },
        "facing=west,variant=bravo": { "model": "conquest:cobblestone_normal_verticalslab", "uvlock": true },
        "facing=north,variant=bravo": { "model": "conquest:cobblestone_normal_verticalslab", "y": 90, "uvlock": true },
        "facing=east,variant=bravo": { "model": "conquest:cobblestone_normal_verticalslab", "y": 180, "uvlock": true },

        "facing=south,variant=charlie": { "model": "conquest:bay_base", "y": 270, "uvlock": true },
        "facing=west,variant=charlie": { "model": "conquest:bay_base", "uvlock": true },
        "facing=north,variant=charlie": { "model": "conquest:bay_base", "y": 90, "uvlock": true },
        "facing=east,variant=charlie": { "model": "conquest:bay_base", "y": 180, "uvlock": true },

        "facing=south,variant=delta": { "model": "conquest:bay_window", "y": 270, "uvlock": true },
        "facing=west,variant=delta": { "model": "conquest:bay_window", "uvlock": true },
        "facing=north,variant=delta": { "model": "conquest:bay_window", "y": 90, "uvlock": true },
        "facing=east,variant=delta": { "model": "conquest:bay_window", "y": 180, "uvlock": true }
    }
}