{
    "variants": {
        "facing=south,variant=alpha": { "model": "conquest:stone_plastered_windowslit", "y": 270, "uvlock": true },
        "facing=west,variant=alpha": { "model": "conquest:stone_plastered_windowslit", "uvlock": true },
        "facing=north,variant=alpha": { "model": "conquest:stone_plastered_windowslit", "y": 90, "uvlock": true },
        "facing=east,variant=alpha": { "model": "conquest:stone_plastered_windowslit", "y": 180, "uvlock": true },

        "facing=south,variant=bravo": { "model": "conquest:stone_window", "y": 270, "uvlock": true },
        "facing=west,variant=bravo": { "model": "conquest:stone_window", "uvlock": true },
        "facing=north,variant=bravo": { "model": "conquest:stone_window", "y": 90, "uvlock": true },
        "facing=east,variant=bravo": { "model": "conquest:stone_window", "y": 180, "uvlock": true },

        "facing=south,variant=charlie": { "model": "conquest:stone_hewn_windowslit", "y": 270, "uvlock": true },
        "facing=west,variant=charlie": { "model": "conquest:stone_hewn_windowslit", "uvlock": true },
        "facing=north,variant=charlie": { "model": "conquest:stone_hewn_windowslit", "y": 90, "uvlock": true },
        "facing=east,variant=charlie": { "model": "conquest:stone_hewn_windowslit", "y": 180, "uvlock": true },

        "facing=south,variant=delta": { "model": "conquest:stone_colorfulslate_windowslit", "y": 270, "uvlock": true },
        "facing=west,variant=delta": { "model": "conquest:stone_colorfulslate_windowslit", "uvlock": true },
        "facing=north,variant=delta": { "model": "conquest:stone_colorfulslate_windowslit", "y": 90, "uvlock": true },
        "facing=east,variant=delta": { "model": "conquest:stone_colorfulslate_windowslit", "y": 180, "uvlock": true }

    }
}