{
    "variants": {
        "variant=alpha": { "model": "conquest:plaster_purple_wall_post" },
        "variant=bravo": { "model": "conquest:prismarine_normal_wall_post" },
        "variant=charlie": { "model": "conquest:prismarine_bricks_wall_post" },
        "variant=delta": { "model": "conquest:prismarine_dark_wall_post" },
        "variant=echo": { "model": "conquest:sandstone_red_wall_post" },
        "variant=fox": { "model": "conquest:sandstone_redchiseled_wall_post" },
        "variant=golf": { "model": "conquest:sandstone_redsmooth_wall_post" },
        "variant=hotel": { "model": "conquest:purpur_normal_wall_post" },
        "variant=india": { "model": "conquest:purpur_pillar_wall_post" },
        "variant=juliet": { "model": "conquest:endstone_bricks_wall_post" },
        "variant=kilo": { "model": "conquest:netherbrick_red_wall_post" },
        "variant=lima": { "model": "conquest:brick_romanvertical_wall_post" },
        "variant=mike": { "model": "conquest:marble_black_wall_post" },
        "variant=november": { "model": "conquest:marble_blue_wall_post" },
        "variant=oscar": { "model": "conquest:marble_gray_wall_post" },
        "variant=papa": { "model": "conquest:marble_green_wall_post" }
    }
}