{
    "variants": {
        "axis=y,variant=alpha": { "model": "conquest:brick_darkredmossy_slit" },
        "axis=z,variant=alpha": { "model": "conquest:brick_darkredmossy_slit", "x": 90 },
        "axis=x,variant=alpha": { "model": "conquest:brick_darkredmossy_slit", "x": 90, "y": 90 },
        "axis=none,variant=alpha": { "model": "conquest:none" },

        "axis=y,variant=bravo": { "model": "conquest:brick_red_slit" },
        "axis=z,variant=bravo": { "model": "conquest:brick_red_slit", "x": 90 },
        "axis=x,variant=bravo": { "model": "conquest:brick_red_slit", "x": 90, "y": 90 },
        "axis=none,variant=bravo": { "model": "conquest:none" },

        "axis=y,variant=charlie": { "model": "conquest:brick_redmossy_slit" },
        "axis=z,variant=charlie": { "model": "conquest:brick_redmossy_slit", "x": 90 },
        "axis=x,variant=charlie": { "model": "conquest:brick_redmossy_slit", "x": 90, "y": 90 },
        "axis=none,variant=charlie": { "model": "conquest:none" },

        "axis=y,variant=delta": { "model": "conquest:brick_roman_slit" },
        "axis=z,variant=delta": { "model": "conquest:brick_roman_slit", "x": 90 },
        "axis=x,variant=delta": { "model": "conquest:brick_roman_slit", "x": 90, "y": 90 },
        "axis=none,variant=delta": { "model": "conquest:none" }
    }
}
