{
    "variants": {
        "axis=y,variant=alpha": { "model": "conquest:stone_colorfulslate_slit" },
        "axis=z,variant=alpha": { "model": "conquest:stone_colorfulslate_slit", "x": 90 },
        "axis=x,variant=alpha": { "model": "conquest:stone_colorfulslate_slit", "x": 90, "y": 90 },
        "axis=none,variant=alpha": { "model": "conquest:none" },

        "axis=y,variant=bravo": { "model": "conquest:cobblestone_old_slit" },
        "axis=z,variant=bravo": { "model": "conquest:cobblestone_old_slit", "x": 90 },
        "axis=x,variant=bravo": { "model": "conquest:cobblestone_old_slit", "x": 90, "y": 90 },
        "axis=none,variant=bravo": { "model": "conquest:none" },

        "axis=y,variant=charlie": { "model": "conquest:cobblestone_damaged_slit" },
        "axis=z,variant=charlie": { "model": "conquest:cobblestone_damaged_slit", "x": 90 },
        "axis=x,variant=charlie": { "model": "conquest:cobblestone_damaged_slit", "x": 90, "y": 90 },
        "axis=none,variant=charlie": { "model": "conquest:none" },

        "axis=y,variant=delta": { "model": "conquest:none" },
        "axis=z,variant=delta": { "model": "conquest:none", "x": 90 },
        "axis=x,variant=delta": { "model": "conquest:none", "x": 90, "y": 90 },
        "axis=none,variant=delta": { "model": "conquest:none" }
    }
}
