{
    "variants": {
        "facing=south,variant=alpha": { "model": "conquest:quartz_normal_corner", "y": 270, "uvlock": true },
        "facing=west,variant=alpha": { "model": "conquest:quartz_normal_corner", "uvlock": true },
        "facing=north,variant=alpha": { "model": "conquest:quartz_normal_corner", "y": 90, "uvlock": true },
        "facing=east,variant=alpha": { "model": "conquest:quartz_normal_corner", "y": 180, "uvlock": true },

        "facing=south,variant=bravo": { "model": "conquest:quartz_chiseled_corner", "y": 270, "uvlock": true },
        "facing=west,variant=bravo": { "model": "conquest:quartz_chiseled_corner", "uvlock": true },
        "facing=north,variant=bravo": { "model": "conquest:quartz_chiseled_corner", "y": 90, "uvlock": true },
        "facing=east,variant=bravo": { "model": "conquest:quartz_chiseled_corner", "y": 180, "uvlock": true },

        "facing=south,variant=charlie": { "model": "conquest:quartz_pillar_corner", "y": 270, "uvlock": true },
        "facing=west,variant=charlie": { "model": "conquest:quartz_pillar_corner", "uvlock": true },
        "facing=north,variant=charlie": { "model": "conquest:quartz_pillar_corner", "y": 90, "uvlock": true },
        "facing=east,variant=charlie": { "model": "conquest:quartz_pillar_corner", "y": 180, "uvlock": true },

        "facing=south,variant=delta": { "model": "conquest:plaster_magenta_corner", "y": 270, "uvlock": true },
        "facing=west,variant=delta": { "model": "conquest:plaster_magenta_corner", "uvlock": true },
        "facing=north,variant=delta": { "model": "conquest:plaster_magenta_corner", "y": 90, "uvlock": true },
        "facing=east,variant=delta": { "model": "conquest:plaster_magenta_corner", "y": 180, "uvlock": true }
    }
}