{
    "variants": {
        "layers=1":  { "model": "conquest:stone_layerdamagelight6_1_snowlayer_height2" },
        "layers=2":  { "model": "conquest:stone_layerdamagelight6_1_snowlayer_height4" },
        "layers=3":  { "model": "conquest:stone_layerdamagelight6_1_snowlayer_height6" },
        "layers=4":  { "model": "conquest:stone_layerdamagelight6_1_snowlayer_height8" },
        "layers=5":  { "model": "conquest:stone_layerdamagelight6_1_snowlayer_height10" },
        "layers=6":  { "model": "conquest:stone_layerdamagelight6_1_snowlayer_height12" },
        "layers=7":  { "model": "conquest:stone_layerdamagelight6_1_snowlayer_height14" },
        "layers=8":  { "model": "conquest:stone_layerdamagelight6_1_snowlayer" }
    }
}
