{
    "variants": {
        "facing=south,variant=alpha": { "model": "conquest:hardclay_normal_verticalslab", "y": 270, "uvlock": true },
        "facing=west,variant=alpha": { "model": "conquest:hardclay_normal_verticalslab", "uvlock": true },
        "facing=north,variant=alpha": { "model": "conquest:hardclay_normal_verticalslab", "y": 90, "uvlock": true },
        "facing=east,variant=alpha": { "model": "conquest:hardclay_normal_verticalslab", "y": 180, "uvlock": true },

        "facing=south,variant=bravo": { "model": "conquest:pile_bones_verticalslab", "y": 270, "uvlock": true },
        "facing=west,variant=bravo": { "model": "conquest:pile_bones_verticalslab", "uvlock": true },
        "facing=north,variant=bravo": { "model": "conquest:pile_bones_verticalslab", "y": 90, "uvlock": true },
        "facing=east,variant=bravo": { "model": "conquest:pile_bones_verticalslab", "y": 180, "uvlock": true },

        "facing=south,variant=charlie": { "model": "conquest:pile_skeletons_verticalslab", "y": 270, "uvlock": true },
        "facing=west,variant=charlie": { "model": "conquest:pile_skeletons_verticalslab", "uvlock": true },
        "facing=north,variant=charlie": { "model": "conquest:pile_skeletons_verticalslab", "y": 90, "uvlock": true },
        "facing=east,variant=charlie": { "model": "conquest:pile_skeletons_verticalslab", "y": 180, "uvlock": true },

        "facing=south,variant=delta": { "model": "conquest:brick_romanvertical_verticalslab", "y": 270, "uvlock": true },
        "facing=west,variant=delta": { "model": "conquest:brick_romanvertical_verticalslab", "uvlock": true },
        "facing=north,variant=delta": { "model": "conquest:brick_romanvertical_verticalslab", "y": 90, "uvlock": true },
        "facing=east,variant=delta": { "model": "conquest:brick_romanvertical_verticalslab", "y": 180, "uvlock": true }
    }
}