{
    "variants": {
        "variant=alpha": { "model": "conquest:roman_column_sandstone_capital" },
        "variant=bravo": { "model": "conquest:roman_column_sandstone_base" },
        "variant=charlie": { "model": "conquest:roman_column_red_capital_marble" },
        "variant=delta": { "model": "conquest:roman_column_red_base_marble" },
        "variant=echo": { "model": "conquest:roman_column_red_capital_sandstone" },
        "variant=fox": { "model": "conquest:roman_column_red_base_sandstone" },
        "variant=golf": { "model": "conquest:roman_column_blue_capital_marble" },
        "variant=hotel": { "model": "conquest:roman_column_blue_base_marble" },
        "variant=india": { "model": "conquest:roman_column_blue_capital_sandstone" },
        "variant=juliet": { "model": "conquest:roman_column_blue_base_sandstone" },
        "variant=kilo": { "model": "conquest:roman_column_gold_capital_marble" },
        "variant=lima": { "model": "conquest:roman_column_gold_base_marble" },
        "variant=mike": { "model": "conquest:roman_column_gold_capital_sandstone" },
        "variant=november": { "model": "conquest:roman_column_gold_base_sandstone" },
        "variant=oscar": { "model": "conquest:roman_column_marble_capital" },
        "variant=papa": { "model": "conquest:roman_column_marble_base" }
    }
}