{
    "variants": {
        "half=bottom,variant=alpha": { "model": "conquest:half_bronzeblock_gilded" },
        "half=bottom,variant=bravo": { "model": "conquest:half_bronzeblock_fancy" },
        "half=bottom,variant=charlie": { "model": "conquest:half_goldblock_bars" },
        "half=bottom,variant=delta": { "model": "conquest:half_granite_polished" },
        "half=bottom,variant=echo": { "model": "conquest:half_diorite_polished" },
        "half=bottom,variant=fox": { "model": "conquest:half_andesite_polished" },
        "half=bottom,variant=golf": { "model": "conquest:half_iron_normal" },
        "half=bottom,variant=hotel": { "model": "conquest:half_cobblestone_mossynormal" },
        "half=top,variant=alpha": { "model": "conquest:upper_bronzeblock_gilded" },
        "half=top,variant=bravo": { "model": "conquest:upper_bronzeblock_fancy" },
        "half=top,variant=charlie": { "model": "conquest:upper_goldblock_bars" },
        "half=top,variant=delta": { "model": "conquest:upper_granite_polished" },
        "half=top,variant=echo": { "model": "conquest:upper_diorite_polished" },
        "half=top,variant=fox": { "model": "conquest:upper_andesite_polished" },
        "half=top,variant=golf": { "model": "conquest:upper_iron_normal" },
        "half=top,variant=hotel": { "model": "conquest:upper_cobblestone_mossynormal" }
    }
}