{
    "variants": {
        "facing=east,half=bottom,shape=straight,variant=alpha":  { "model": "conquest:roman_base_sandstone_stairs_normal" },
        "facing=west,half=bottom,shape=straight,variant=alpha":  { "model": "conquest:roman_base_sandstone_stairs_normal", "y": 180, "uvlock": true },
        "facing=south,half=bottom,shape=straight,variant=alpha": { "model": "conquest:roman_base_sandstone_stairs_normal", "y": 90, "uvlock": true },
        "facing=north,half=bottom,shape=straight,variant=alpha": { "model": "conquest:roman_base_sandstone_stairs_normal", "y": 270, "uvlock": true },
        "facing=east,half=bottom,shape=outer_right,variant=alpha":  { "model": "conquest:roman_base_sandstone_stairs_outer" },
        "facing=west,half=bottom,shape=outer_right,variant=alpha":  { "model": "conquest:roman_base_sandstone_stairs_outer", "y": 180, "uvlock": true },
        "facing=south,half=bottom,shape=outer_right,variant=alpha": { "model": "conquest:roman_base_sandstone_stairs_outer", "y": 90, "uvlock": true },
        "facing=north,half=bottom,shape=outer_right,variant=alpha": { "model": "conquest:roman_base_sandstone_stairs_outer", "y": 270, "uvlock": true },
        "facing=east,half=bottom,shape=outer_left,variant=alpha":  { "model": "conquest:roman_base_sandstone_stairs_outer", "y": 270, "uvlock": true },
        "facing=west,half=bottom,shape=outer_left,variant=alpha":  { "model": "conquest:roman_base_sandstone_stairs_outer", "y": 90, "uvlock": true },
        "facing=south,half=bottom,shape=outer_left,variant=alpha": { "model": "conquest:roman_base_sandstone_stairs_outer" },
        "facing=north,half=bottom,shape=outer_left,variant=alpha": { "model": "conquest:roman_base_sandstone_stairs_outer", "y": 180, "uvlock": true },
        "facing=east,half=bottom,shape=inner_right,variant=alpha":  { "model": "conquest:roman_base_sandstone_stairs_inner" },
        "facing=west,half=bottom,shape=inner_right,variant=alpha":  { "model": "conquest:roman_base_sandstone_stairs_inner", "y": 180, "uvlock": true },
        "facing=south,half=bottom,shape=inner_right,variant=alpha": { "model": "conquest:roman_base_sandstone_stairs_inner", "y": 90, "uvlock": true },
        "facing=north,half=bottom,shape=inner_right,variant=alpha": { "model": "conquest:roman_base_sandstone_stairs_inner", "y": 270, "uvlock": true },
        "facing=east,half=bottom,shape=inner_left,variant=alpha":  { "model": "conquest:roman_base_sandstone_stairs_inner", "y": 270, "uvlock": true },
        "facing=west,half=bottom,shape=inner_left,variant=alpha":  { "model": "conquest:roman_base_sandstone_stairs_inner", "y": 90, "uvlock": true },
        "facing=south,half=bottom,shape=inner_left,variant=alpha": { "model": "conquest:roman_base_sandstone_stairs_inner" },
        "facing=north,half=bottom,shape=inner_left,variant=alpha": { "model": "conquest:roman_base_sandstone_stairs_inner", "y": 180, "uvlock": true },
        "facing=east,half=top,shape=straight,variant=alpha":  { "model": "conquest:roman_base_sandstone_stairs_normal", "uvlock": true },
        "facing=west,half=top,shape=straight,variant=alpha":  { "model": "conquest:roman_base_sandstone_stairs_normal", "y": 180, "uvlock": true },
        "facing=south,half=top,shape=straight,variant=alpha": { "model": "conquest:roman_base_sandstone_stairs_normal", "y": 90, "uvlock": true },
        "facing=north,half=top,shape=straight,variant=alpha": { "model": "conquest:roman_base_sandstone_stairs_normal", "y": 270, "uvlock": true },
        "facing=east,half=top,shape=outer_right,variant=alpha":  { "model": "conquest:roman_base_sandstone_stairs_outer", "y": 90, "uvlock": true },
        "facing=west,half=top,shape=outer_right,variant=alpha":  { "model": "conquest:roman_base_sandstone_stairs_outer", "y": 270, "uvlock": true },
        "facing=south,half=top,shape=outer_right,variant=alpha": { "model": "conquest:roman_base_sandstone_stairs_outer", "y": 180, "uvlock": true },
        "facing=north,half=top,shape=outer_right,variant=alpha": { "model": "conquest:roman_base_sandstone_stairs_outer", "uvlock": true },
        "facing=east,half=top,shape=outer_left,variant=alpha":  { "model": "conquest:roman_base_sandstone_stairs_outer", "uvlock": true },
        "facing=west,half=top,shape=outer_left,variant=alpha":  { "model": "conquest:roman_base_sandstone_stairs_outer", "y": 180, "uvlock": true },
        "facing=south,half=top,shape=outer_left,variant=alpha": { "model": "conquest:roman_base_sandstone_stairs_outer", "y": 90, "uvlock": true },
        "facing=north,half=top,shape=outer_left,variant=alpha": { "model": "conquest:roman_base_sandstone_stairs_outer", "y": 270, "uvlock": true },
        "facing=east,half=top,shape=inner_right,variant=alpha":  { "model": "conquest:roman_base_sandstone_stairs_inner", "y": 90, "uvlock": true },
        "facing=west,half=top,shape=inner_right,variant=alpha":  { "model": "conquest:roman_base_sandstone_stairs_inner", "y": 270, "uvlock": true },
        "facing=south,half=top,shape=inner_right,variant=alpha": { "model": "conquest:roman_base_sandstone_stairs_inner", "y": 180, "uvlock": true },
        "facing=north,half=top,shape=inner_right,variant=alpha": { "model": "conquest:roman_base_sandstone_stairs_inner", "uvlock": true },
        "facing=east,half=top,shape=inner_left,variant=alpha":  { "model": "conquest:roman_base_sandstone_stairs_inner", "uvlock": true },
        "facing=west,half=top,shape=inner_left,variant=alpha":  { "model": "conquest:roman_base_sandstone_stairs_inner", "y": 180, "uvlock": true },
        "facing=south,half=top,shape=inner_left,variant=alpha": { "model": "conquest:roman_base_sandstone_stairs_inner", "y": 90, "uvlock": true },
        "facing=north,half=top,shape=inner_left,variant=alpha": { "model": "conquest:roman_base_sandstone_stairs_inner", "y": 270, "uvlock": true },

        "facing=east,half=bottom,shape=straight,variant=bravo":  { "model": "conquest:roman_base_marblesandstone_stairs_normal_bottom" },
        "facing=west,half=bottom,shape=straight,variant=bravo":  { "model": "conquest:roman_base_marblesandstone_stairs_normal_bottom", "y": 180, "uvlock": true },
        "facing=south,half=bottom,shape=straight,variant=bravo": { "model": "conquest:roman_base_marblesandstone_stairs_normal_bottom", "y": 90, "uvlock": true },
        "facing=north,half=bottom,shape=straight,variant=bravo": { "model": "conquest:roman_base_marblesandstone_stairs_normal_bottom", "y": 270, "uvlock": true },
        "facing=east,half=bottom,shape=outer_right,variant=bravo":  { "model": "conquest:roman_base_marblesandstone_stairs_outer_bottom" },
        "facing=west,half=bottom,shape=outer_right,variant=bravo":  { "model": "conquest:roman_base_marblesandstone_stairs_outer_bottom", "y": 180, "uvlock": true },
        "facing=south,half=bottom,shape=outer_right,variant=bravo": { "model": "conquest:roman_base_marblesandstone_stairs_outer_bottom", "y": 90, "uvlock": true },
        "facing=north,half=bottom,shape=outer_right,variant=bravo": { "model": "conquest:roman_base_marblesandstone_stairs_outer_bottom", "y": 270, "uvlock": true },
        "facing=east,half=bottom,shape=outer_left,variant=bravo":  { "model": "conquest:roman_base_marblesandstone_stairs_outer_bottom", "y": 270, "uvlock": true },
        "facing=west,half=bottom,shape=outer_left,variant=bravo":  { "model": "conquest:roman_base_marblesandstone_stairs_outer_bottom", "y": 90, "uvlock": true },
        "facing=south,half=bottom,shape=outer_left,variant=bravo": { "model": "conquest:roman_base_marblesandstone_stairs_outer_bottom" },
        "facing=north,half=bottom,shape=outer_left,variant=bravo": { "model": "conquest:roman_base_marblesandstone_stairs_outer_bottom", "y": 180, "uvlock": true },
        "facing=east,half=bottom,shape=inner_right,variant=bravo":  { "model": "conquest:roman_base_marblesandstone_stairs_inner_bottom" },
        "facing=west,half=bottom,shape=inner_right,variant=bravo":  { "model": "conquest:roman_base_marblesandstone_stairs_inner_bottom", "y": 180, "uvlock": true },
        "facing=south,half=bottom,shape=inner_right,variant=bravo": { "model": "conquest:roman_base_marblesandstone_stairs_inner_bottom", "y": 90, "uvlock": true },
        "facing=north,half=bottom,shape=inner_right,variant=bravo": { "model": "conquest:roman_base_marblesandstone_stairs_inner_bottom", "y": 270, "uvlock": true },
        "facing=east,half=bottom,shape=inner_left,variant=bravo":  { "model": "conquest:roman_base_marblesandstone_stairs_inner_bottom", "y": 270, "uvlock": true },
        "facing=west,half=bottom,shape=inner_left,variant=bravo":  { "model": "conquest:roman_base_marblesandstone_stairs_inner_bottom", "y": 90, "uvlock": true },
        "facing=south,half=bottom,shape=inner_left,variant=bravo": { "model": "conquest:roman_base_marblesandstone_stairs_inner_bottom" },
        "facing=north,half=bottom,shape=inner_left,variant=bravo": { "model": "conquest:roman_base_marblesandstone_stairs_inner_bottom", "y": 180, "uvlock": true },
        "facing=east,half=top,shape=straight,variant=bravo":  { "model": "conquest:roman_base_marblesandstone_stairs_normal_top", "uvlock": true },
        "facing=west,half=top,shape=straight,variant=bravo":  { "model": "conquest:roman_base_marblesandstone_stairs_normal_top", "y": 180, "uvlock": true },
        "facing=south,half=top,shape=straight,variant=bravo": { "model": "conquest:roman_base_marblesandstone_stairs_normal_top", "y": 90, "uvlock": true },
        "facing=north,half=top,shape=straight,variant=bravo": { "model": "conquest:roman_base_marblesandstone_stairs_normal_top", "y": 270, "uvlock": true },
        "facing=east,half=top,shape=outer_right,variant=bravo":  { "model": "conquest:roman_base_marblesandstone_stairs_outer_top", "uvlock": true },
        "facing=west,half=top,shape=outer_right,variant=bravo":  { "model": "conquest:roman_base_marblesandstone_stairs_outer_top", "y": 180, "uvlock": true },
        "facing=south,half=top,shape=outer_right,variant=bravo": { "model": "conquest:roman_base_marblesandstone_stairs_outer_top", "y": 90, "uvlock": true },
        "facing=north,half=top,shape=outer_right,variant=bravo": { "model": "conquest:roman_base_marblesandstone_stairs_outer_top", "y": 270, "uvlock": true },
        "facing=east,half=top,shape=outer_left,variant=bravo":  { "model": "conquest:roman_base_marblesandstone_stairs_outer_top", "y": 270, "uvlock": true },
        "facing=west,half=top,shape=outer_left,variant=bravo":  { "model": "conquest:roman_base_marblesandstone_stairs_outer_top", "y": 90, "uvlock": true },
        "facing=south,half=top,shape=outer_left,variant=bravo": { "model": "conquest:roman_base_marblesandstone_stairs_outer_top", "uvlock": true },
        "facing=north,half=top,shape=outer_left,variant=bravo": { "model": "conquest:roman_base_marblesandstone_stairs_outer_top", "y": 180, "uvlock": true },
        "facing=east,half=top,shape=inner_right,variant=bravo":  { "model": "conquest:roman_base_marblesandstone_stairs_inner_top", "uvlock": true },
        "facing=west,half=top,shape=inner_right,variant=bravo":  { "model": "conquest:roman_base_marblesandstone_stairs_inner_top", "y": 180, "uvlock": true },
        "facing=south,half=top,shape=inner_right,variant=bravo": { "model": "conquest:roman_base_marblesandstone_stairs_inner_top", "y": 90, "uvlock": true },
        "facing=north,half=top,shape=inner_right,variant=bravo": { "model": "conquest:roman_base_marblesandstone_stairs_inner_top", "y": 270, "uvlock": true },
        "facing=east,half=top,shape=inner_left,variant=bravo":  { "model": "conquest:roman_base_marblesandstone_stairs_inner_top", "y": 270, "uvlock": true },
        "facing=west,half=top,shape=inner_left,variant=bravo":  { "model": "conquest:roman_base_marblesandstone_stairs_inner_top", "y": 90, "uvlock": true },
        "facing=south,half=top,shape=inner_left,variant=bravo": { "model": "conquest:roman_base_marblesandstone_stairs_inner_top", "uvlock": true },
        "facing=north,half=top,shape=inner_left,variant=bravo": { "model": "conquest:roman_base_marblesandstone_stairs_inner_top", "y": 180, "uvlock": true }
    }
}