{
    "variants": {
        "variant=alpha": { "model": "conquest:prismarine_bricks_dragonegg" },
        "variant=bravo": { "model": "conquest:prismarine_dark_dragonegg" },
        "variant=charlie": { "model": "conquest:sandstone_red_dragonegg" },
        "variant=delta": { "model": "conquest:purpur_normal_dragonegg" },
        "variant=echo": { "model": "conquest:endstone_bricks_dragonegg" },
        "variant=fox": { "model": "conquest:netherbrick_wart_dragonegg" },
        "variant=golf": { "model": "conquest:brick_romanvertical_dragonegg" },
        "variant=hotel": { "model": "conquest:marble_black_dragonegg" },
        "variant=india": { "model": "conquest:marble_blue_dragonegg" },
        "variant=juliet": { "model": "conquest:marble_gray_dragonegg" },
        "variant=kilo": { "model": "conquest:marble_green_dragonegg" },
        "variant=lima": { "model": "conquest:marble_pink_dragonegg" },
        "variant=mike": { "model": "conquest:marble_red_dragonegg" },
        "variant=november": { "model": "conquest:brick_darkroman_dragonegg" },
        "variant=oscar": { "model": "conquest:cobblestone_dark_dragonegg" },
        "variant=papa": { "model": "conquest:sandstone_darkcobble_dragonegg" }
    }
}