{
    "variants": {
        "variant=alpha": { "model": "conquest:claytile" },
        "variant=bravo": { "model": "conquest:mixedtile" },
        "variant=charlie": { "model": "conquest:lighttile" },
        "variant=delta": { "model": "conquest:stonebrick_overgrown_carpet" },
        "variant=echo": { "model": "conquest:groove_portculis_carpet" },
        "variant=fox": { "model": "conquest:stone_chiseled_carpet" },
        "variant=golf": { "model": "conquest:pillar_stone_carpet" },
        "variant=hotel": { "model": "conquest:ironblock_dark_carpet" },
        "variant=india": { "model": "conquest:bigslab_marble_carpet" },
        "variant=juliet": { "model": "conquest:bigslab_sandstone_carpet" },
        "variant=kilo": { "model": "conquest:bigslab_black_carpet" },
        "variant=lima": { "model": "conquest:mosaic_roman_carpet" },
        "variant=mike": { "model": "conquest:mosaic_indian_carpet" },
        "variant=november": { "model": "conquest:mosaic_andalusian_carpet" },
        "variant=oscar": { "model": "conquest:none" },
        "variant=papa": { "model": "conquest:bronzeblock_gilded_carpet" }
    }
}