{
    "variants": {
        "half=bottom,variant=alpha": { "model": "conquest:half_stone_plastered" },
        "half=bottom,variant=bravo": { "model": "conquest:half_scaleslab" },
        "half=bottom,variant=charlie": { "model": "conquest:half_scaleslabdirt" },
        "half=bottom,variant=delta": { "model": "conquest:half_stoneslab2swampland" },
        "half=bottom,variant=echo": { "model": "conquest:half_stoneslab4birchforest" },
        "half=bottom,variant=fox": { "model": "conquest:half_stoneslab4extremehills" },
        "half=bottom,variant=golf": { "model": "conquest:half_roman_brick" },
        "half=bottom,variant=hotel": { "model": "conquest:half_roman_travertine" },
        "half=top,variant=alpha": { "model": "conquest:upper_stone_plastered" },
        "half=top,variant=bravo": { "model": "conquest:upper_scaleslab" },
        "half=top,variant=charlie": { "model": "conquest:upper_scaleslabdirt" },
        "half=top,variant=delta": { "model": "conquest:upper_stoneslab2swampland" },
        "half=top,variant=echo": { "model": "conquest:upper_stoneslab4birchforest" },
        "half=top,variant=fox": { "model": "conquest:upper_stoneslab4extremehills" },
        "half=top,variant=golf": { "model": "conquest:upper_roman_brick" },
        "half=top,variant=hotel": { "model": "conquest:upper_roman_travertine" }
    }
}