{
    "variants": {
        "facing=east,variant=alpha": { "model": "conquest:acacialogtrapdoor_open", "y": 90 },
        "facing=south,variant=alpha": { "model": "conquest:acacialogtrapdoor_open", "y": 180 },
        "facing=west,variant=alpha": { "model": "conquest:acacialogtrapdoor_open", "y": 270 },
        "facing=north,variant=alpha": { "model": "conquest:acacialogtrapdoor_open" },
        "facing=up,variant=alpha": { "model": "conquest:acacialogtrapdoor_bottom" },
        "facing=down,variant=alpha": { "model": "conquest:acacialogtrapdoor_top" },

        "facing=east,variant=bravo": { "model": "conquest:darkoaklogtrapdoor_open", "y": 90 },
        "facing=south,variant=bravo": { "model": "conquest:darkoaklogtrapdoor_open", "y": 180 },
        "facing=west,variant=bravo": { "model": "conquest:darkoaklogtrapdoor_open", "y": 270 },
        "facing=north,variant=bravo": { "model": "conquest:darkoaklogtrapdoor_open" },
        "facing=up,variant=bravo": { "model": "conquest:darkoaklogtrapdoor_bottom" },
        "facing=down,variant=bravo": { "model": "conquest:darkoaklogtrapdoor_top" }
    }
}
