{
    "variants": {
        "facing=south,open=false,variant=alpha": { "model": "spruce_fence_gate_closed", "y": 0 },
        "facing=west,open=false,variant=alpha":  { "model": "spruce_fence_gate_closed", "y": 90 },
        "facing=north,open=false,variant=alpha": { "model": "spruce_fence_gate_closed", "y": 180 },
        "facing=east,open=false,variant=alpha":  { "model": "spruce_fence_gate_closed", "y": 270 },
        "facing=south,open=true,variant=alpha": { "model": "spruce_fence_gate_open", "y": 180 },
        "facing=west,open=true,variant=alpha":  { "model": "spruce_fence_gate_open", "y": 270 },
        "facing=north,open=true,variant=alpha": { "model": "spruce_fence_gate_open", "y": 0 },
        "facing=east,open=true,variant=alpha":  { "model": "spruce_fence_gate_open", "y": 90 },
        
        "facing=south,open=false,variant=bravo": { "model": "conquest:fencegatefrozenriver_closed", "y": 0 },
        "facing=west,open=false,variant=bravo":  { "model": "conquest:fencegatefrozenriver_closed", "y": 90 },
        "facing=north,open=false,variant=bravo": { "model": "conquest:fencegatefrozenriver_closed", "y": 180 },
        "facing=east,open=false,variant=bravo":  { "model": "conquest:fencegatefrozenriver_closed", "y": 270 },
        "facing=south,open=true,variant=bravo": { "model": "conquest:fencegatefrozenriver_open", "y": 0 },
        "facing=west,open=true,variant=bravo":  { "model": "conquest:fencegatefrozenriver_open", "y": 90 },
        "facing=north,open=true,variant=bravo": { "model": "conquest:fencegatefrozenriver_open", "y": 180 },
        "facing=east,open=true,variant=bravo":  { "model": "conquest:fencegatefrozenriver_open", "y": 270 }
    }
}
