{
    "variants": {
        "axis=y,variant=alpha": { "model": "conquest:planks_darkblueweathered_slit" },
        "axis=z,variant=alpha": { "model": "conquest:planks_darkblueweathered_slit", "x": 90 },
        "axis=x,variant=alpha": { "model": "conquest:planks_darkblueweathered_slit", "x": 90, "y": 90 },
        "axis=none,variant=alpha": { "model": "conquest:none" },

        "axis=y,variant=bravo": { "model": "conquest:planks_blueweathered_slit" },
        "axis=z,variant=bravo": { "model": "conquest:planks_blueweathered_slit", "x": 90 },
        "axis=x,variant=bravo": { "model": "conquest:planks_blueweathered_slit", "x": 90, "y": 90 },
        "axis=none,variant=bravo": { "model": "conquest:none" },

        "axis=y,variant=charlie": { "model": "conquest:planks_lightblueweathered_slit" },
        "axis=z,variant=charlie": { "model": "conquest:planks_lightblueweathered_slit", "x": 90 },
        "axis=x,variant=charlie": { "model": "conquest:planks_lightblueweathered_slit", "x": 90, "y": 90 },
        "axis=none,variant=charlie": { "model": "conquest:none" },

        "axis=y,variant=delta": { "model": "conquest:planks_purplepainted_slit" },
        "axis=z,variant=delta": { "model": "conquest:planks_purplepainted_slit", "x": 90 },
        "axis=x,variant=delta": { "model": "conquest:planks_purplepainted_slit", "x": 90, "y": 90 },
        "axis=none,variant=delta": { "model": "conquest:none" }
    }
}
