{
    "variants": {
        "facing=east,half=bottom,shape=straight,variant=alpha":  { "model": "conquest:oak_stair_arch", "x": 180 },
        "facing=west,half=bottom,shape=straight,variant=alpha":  { "model": "conquest:oak_stair_arch", "y": 180, "x": 180 },
        "facing=south,half=bottom,shape=straight,variant=alpha": { "model": "conquest:oak_stair_arch", "y": 90, "x": 180 },
        "facing=north,half=bottom,shape=straight,variant=alpha": { "model": "conquest:oak_stair_arch", "y": 270, "x": 180 },
        "facing=east,half=bottom,shape=outer_right,variant=alpha":  { "model": "conquest:oak_outer_stairs" },
        "facing=west,half=bottom,shape=outer_right,variant=alpha":  { "model": "conquest:oak_outer_stairs", "y": 180 },
        "facing=south,half=bottom,shape=outer_right,variant=alpha": { "model": "conquest:oak_outer_stairs", "y": 90 },
        "facing=north,half=bottom,shape=outer_right,variant=alpha": { "model": "conquest:oak_outer_stairs", "y": 270 },
        "facing=east,half=bottom,shape=outer_left,variant=alpha":  { "model": "conquest:oak_outer_stairs", "y": 270 },
        "facing=west,half=bottom,shape=outer_left,variant=alpha":  { "model": "conquest:oak_outer_stairs", "y": 90 },
        "facing=south,half=bottom,shape=outer_left,variant=alpha": { "model": "conquest:oak_outer_stairs" },
        "facing=north,half=bottom,shape=outer_left,variant=alpha": { "model": "conquest:oak_outer_stairs", "y": 180 },
        "facing=east,half=bottom,shape=inner_right,variant=alpha":  { "model": "conquest:oak_inner_stairs" },
        "facing=west,half=bottom,shape=inner_right,variant=alpha":  { "model": "conquest:oak_inner_stairs", "y": 180 },
        "facing=south,half=bottom,shape=inner_right,variant=alpha": { "model": "conquest:oak_inner_stairs", "y": 90 },
        "facing=north,half=bottom,shape=inner_right,variant=alpha": { "model": "conquest:oak_inner_stairs", "y": 270 },
        "facing=east,half=bottom,shape=inner_left,variant=alpha":  { "model": "conquest:oak_inner_stairs", "y": 270 },
        "facing=west,half=bottom,shape=inner_left,variant=alpha":  { "model": "conquest:oak_inner_stairs", "y": 90 },
        "facing=south,half=bottom,shape=inner_left,variant=alpha": { "model": "conquest:oak_inner_stairs" },
        "facing=north,half=bottom,shape=inner_left,variant=alpha": { "model": "conquest:oak_inner_stairs", "y": 180 },
        "facing=east,half=top,shape=straight,variant=alpha":  { "model": "conquest:oak_stair_arch"},
        "facing=west,half=top,shape=straight,variant=alpha":  { "model": "conquest:oak_stair_arch", "y": 180 },
        "facing=south,half=top,shape=straight,variant=alpha": { "model": "conquest:oak_stair_arch", "y": 90 },
        "facing=north,half=top,shape=straight,variant=alpha": { "model": "conquest:oak_stair_arch", "y": 270 },
        "facing=east,half=top,shape=outer_right,variant=alpha":  { "model": "conquest:oak_outer_stair_arch", "x": 180, "y": 90 },
        "facing=west,half=top,shape=outer_right,variant=alpha":  { "model": "conquest:oak_outer_stair_arch", "x": 180, "y": 270 },
        "facing=south,half=top,shape=outer_right,variant=alpha": { "model": "conquest:oak_outer_stair_arch", "x": 180, "y": 180 },
        "facing=north,half=top,shape=outer_right,variant=alpha": { "model": "conquest:oak_outer_stair_arch", "x": 180 },
        "facing=east,half=top,shape=outer_left,variant=alpha":  { "model": "conquest:oak_outer_stair_arch", "x": 180 },
        "facing=west,half=top,shape=outer_left,variant=alpha":  { "model": "conquest:oak_outer_stair_arch", "x": 180, "y": 180 },
        "facing=south,half=top,shape=outer_left,variant=alpha": { "model": "conquest:oak_outer_stair_arch", "x": 180, "y": 90 },
        "facing=north,half=top,shape=outer_left,variant=alpha": { "model": "conquest:oak_outer_stair_arch", "x": 180, "y": 270 },
        "facing=east,half=top,shape=inner_right,variant=alpha":  { "model": "conquest:oak_inner_stair_arch", "x": 180, "y": 90 },
        "facing=west,half=top,shape=inner_right,variant=alpha":  { "model": "conquest:oak_inner_stair_arch", "x": 180, "y": 270 },
        "facing=south,half=top,shape=inner_right,variant=alpha": { "model": "conquest:oak_inner_stair_arch", "x": 180, "y": 180 },
        "facing=north,half=top,shape=inner_right,variant=alpha": { "model": "conquest:oak_inner_stair_arch", "x": 180 },
        "facing=east,half=top,shape=inner_left,variant=alpha":  { "model": "conquest:oak_inner_stair_arch", "x": 180 },
        "facing=west,half=top,shape=inner_left,variant=alpha":  { "model": "conquest:oak_inner_stair_arch", "x": 180, "y": 180 },
        "facing=south,half=top,shape=inner_left,variant=alpha": { "model": "conquest:oak_inner_stair_arch", "x": 180, "y": 90 },
        "facing=north,half=top,shape=inner_left,variant=alpha": { "model": "conquest:oak_inner_stair_arch", "x": 180, "y": 270 },

        "facing=east,half=bottom,shape=straight,variant=bravo":  { "model": "conquest:wood_stairs", "y": 90 },
        "facing=west,half=bottom,shape=straight,variant=bravo":  { "model": "conquest:wood_stairs", "y": 270 },
        "facing=south,half=bottom,shape=straight,variant=bravo": { "model": "conquest:wood_stairs", "y": 180 },
        "facing=north,half=bottom,shape=straight,variant=bravo": { "model": "conquest:wood_stairs" },
        "facing=east,half=bottom,shape=outer_right,variant=bravo":  { "model": "conquest:wood_stairs", "y":  90 },
        "facing=west,half=bottom,shape=outer_right,variant=bravo":  { "model": "conquest:wood_stairs", "y": 270 },
        "facing=south,half=bottom,shape=outer_right,variant=bravo": { "model": "conquest:wood_stairs", "y": 180 },
        "facing=north,half=bottom,shape=outer_right,variant=bravo": { "model": "conquest:wood_stairs" },
        "facing=east,half=bottom,shape=outer_left,variant=bravo":  { "model": "conquest:wood_stairs", "y":  90 },
        "facing=west,half=bottom,shape=outer_left,variant=bravo":  { "model": "conquest:wood_stairs", "y": 270 },
        "facing=south,half=bottom,shape=outer_left,variant=bravo": { "model": "conquest:wood_stairs", "y":  180 },
        "facing=north,half=bottom,shape=outer_left,variant=bravo": { "model": "conquest:wood_stairs" },
        "facing=east,half=bottom,shape=inner_right,variant=bravo":  { "model": "conquest:wood_stairs", "y":  90 },
        "facing=west,half=bottom,shape=inner_right,variant=bravo":  { "model": "conquest:wood_stairs", "y": 270 },
        "facing=south,half=bottom,shape=inner_right,variant=bravo": { "model": "conquest:wood_stairs", "y": 180 },
        "facing=north,half=bottom,shape=inner_right,variant=bravo": { "model": "conquest:wood_stairs" },
        "facing=east,half=bottom,shape=inner_left,variant=bravo":  { "model": "conquest:wood_stairs", "y":  90 },
        "facing=west,half=bottom,shape=inner_left,variant=bravo":  { "model": "conquest:wood_stairs", "y": 270 },
        "facing=south,half=bottom,shape=inner_left,variant=bravo": { "model": "conquest:wood_stairs", "y":  180 },
        "facing=north,half=bottom,shape=inner_left,variant=bravo": { "model": "conquest:wood_stairs" },

        "facing=east,half=top,shape=straight,variant=bravo":  { "model": "conquest:wood_stairs", "x": 180		, "y":  270 },
        "facing=west,half=top,shape=straight,variant=bravo":  { "model": "conquest:wood_stairs", "x": 180		, "y": 90 },
        "facing=south,half=top,shape=straight,variant=bravo": { "model": "conquest:wood_stairs", "x": 180		 },
        "facing=north,half=top,shape=straight,variant=bravo": { "model": "conquest:wood_stairs", "x": 180		, "y": 180 },
        "facing=east,half=top,shape=outer_right,variant=bravo":  { "model": "conquest:wood_stairs", "x": 180	, "y":  270 },
        "facing=west,half=top,shape=outer_right,variant=bravo":  { "model": "conquest:wood_stairs", "x": 180	, "y": 90 },
        "facing=south,half=top,shape=outer_right,variant=bravo": { "model": "conquest:wood_stairs", "x": 180	 },
        "facing=north,half=top,shape=outer_right,variant=bravo": { "model": "conquest:wood_stairs", "x": 180	, "y": 180 },
        "facing=east,half=top,shape=outer_left,variant=bravo":  { "model": "conquest:wood_stairs", "x": 180	, "y":  270 },
        "facing=west,half=top,shape=outer_left,variant=bravo":  { "model": "conquest:wood_stairs", "x": 180	, "y": 90 },
        "facing=south,half=top,shape=outer_left,variant=bravo": { "model": "conquest:wood_stairs", "x": 180	 },
        "facing=north,half=top,shape=outer_left,variant=bravo": { "model": "conquest:wood_stairs", "x": 180	, "y": 180 },
        "facing=east,half=top,shape=inner_right,variant=bravo":  { "model": "conquest:wood_stairs", "x": 180	, "y":  270 },
        "facing=west,half=top,shape=inner_right,variant=bravo":  { "model": "conquest:wood_stairs", "x": 180	, "y": 90 },
        "facing=south,half=top,shape=inner_right,variant=bravo": { "model": "conquest:wood_stairs", "x": 180	 },
        "facing=north,half=top,shape=inner_right,variant=bravo": { "model": "conquest:wood_stairs", "x": 180	, "y": 180 },
        "facing=east,half=top,shape=inner_left,variant=bravo":  { "model": "conquest:wood_stairs", "x": 180		, "y":  270 },
        "facing=west,half=top,shape=inner_left,variant=bravo":  { "model": "conquest:wood_stairs", "x": 180	, "y": 90 },
        "facing=south,half=top,shape=inner_left,variant=bravo": { "model": "conquest:wood_stairs", "x": 180	 },
        "facing=north,half=top,shape=inner_left,variant=bravo": { "model": "conquest:wood_stairs", "x": 180	, "y": 180 }
    }
}