{
    "variants": {
        "variant=alpha": { "model": "conquest:barrelfish" },
        "variant=bravo": { "model": "conquest:barrel_sack_fish" },
        "variant=charlie": { "model": "conquest:barrelcocoa" },
        "variant=delta": { "model": "conquest:barrel_sack_cocoa" },
        "variant=echo": { "model": "conquest:barrelcocoa2" },
        "variant=fox": { "model": "conquest:plank13" },
        "variant=golf": { "model": "conquest:barrel_sack_plank13" },
        "variant=hotel": { "model": "conquest:hopssack" },
        "variant=india": { "model": "conquest:turnipsack" },
        "variant=juliet": { "model": "conquest:winekeg" },
        "variant=kilo": { "model": "conquest:none" },
        "variant=lima": { "model": "conquest:ironore1" },
        "variant=mike": { "model": "conquest:diamondore1" },
        "variant=november": { "model": "conquest:emeraldore1" },
        "variant=oscar": { "model": "conquest:lapisore1" },
        "variant=papa": { "model": "conquest:clay2" }
    }
}