{
    "variants": {
        "half=bottom,variant=alpha": { "model": "conquest:half_log_rope" },
        "half=bottom,variant=bravo": { "model": "conquest:half_log_chain" },
        "half=bottom,variant=charlie": { "model": "conquest:half_woodlogs" },
        "half=bottom,variant=delta": { "model": "conquest:half_planks_whitepainted" },
        "half=bottom,variant=echo": { "model": "conquest:half_planks_whiteweathered" },
        "half=bottom,variant=fox": { "model": "conquest:half_planks_redpainted" },
        "half=bottom,variant=golf": { "model": "conquest:half_planks_redweathered" },
        "half=bottom,variant=hotel": { "model": "conquest:half_planks_lightredpainted" },
        "half=top,variant=alpha": { "model": "conquest:upper_log_rope" },
        "half=top,variant=bravo": { "model": "conquest:upper_log_chain" },
        "half=top,variant=charlie": { "model": "conquest:upper_woodlogs" },
        "half=top,variant=delta": { "model": "conquest:upper_planks_whitepainted" },
        "half=top,variant=echo": { "model": "conquest:upper_planks_whiteweathered" },
        "half=top,variant=fox": { "model": "conquest:upper_planks_redpainted" },
        "half=top,variant=golf": { "model": "conquest:upper_planks_redweathered" },
        "half=top,variant=hotel": { "model": "conquest:upper_planks_lightredpainted" }
    }
}