{
    "variants": {
        "east=false,north=false,south=false,variant=alpha,west=false": { "model": "conquest:ironbar9_nsew" },
        "east=false,north=true,south=false,variant=alpha,west=false": { "model": "conquest:ironbar9_n" },
        "east=true,north=false,south=false,variant=alpha,west=false": { "model": "conquest:ironbar9_n", "y": 90 },
        "east=false,north=false,south=true,variant=alpha,west=false": { "model": "conquest:ironbar9_n", "y": 180 },
        "east=false,north=false,south=false,variant=alpha,west=true": { "model": "conquest:ironbar9_n", "y": 270 },
        "east=true,north=true,south=false,variant=alpha,west=false": { "model": "conquest:ironbar9_ne" },
        "east=true,north=false,south=true,variant=alpha,west=false": { "model": "conquest:ironbar9_ne", "y": 90 },
        "east=false,north=false,south=true,variant=alpha,west=true": { "model": "conquest:ironbar9_ne", "y": 180 },
        "east=false,north=true,south=false,variant=alpha,west=true": { "model": "conquest:ironbar9_ne", "y": 270 },
        "east=false,north=true,south=true,variant=alpha,west=false": { "model": "conquest:ironbar9_ns" },
        "east=true,north=false,south=false,variant=alpha,west=true": { "model": "conquest:ironbar9_ns", "y": 90 },
        "east=true,north=true,south=true,variant=alpha,west=false": { "model": "conquest:ironbar9_nse" },
        "east=true,north=false,south=true,variant=alpha,west=true": { "model": "conquest:ironbar9_nse", "y": 90 },
        "east=false,north=true,south=true,variant=alpha,west=true": { "model": "conquest:ironbar9_nse", "y": 180 },
        "east=true,north=true,south=false,variant=alpha,west=true": { "model": "conquest:ironbar9_nse", "y": 270 },
        "east=true,north=true,south=true,variant=alpha,west=true": { "model": "conquest:ironbar9_nsew" },
        
        "east=false,north=false,south=false,variant=bravo,west=false": { "model": "conquest:ironbar9taiga_nsew" },
        "east=false,north=true,south=false,variant=bravo,west=false": { "model": "conquest:ironbar9taiga_n" },
        "east=true,north=false,south=false,variant=bravo,west=false": { "model": "conquest:ironbar9taiga_n", "y": 90 },
        "east=false,north=false,south=true,variant=bravo,west=false": { "model": "conquest:ironbar9taiga_n", "y": 180 },
        "east=false,north=false,south=false,variant=bravo,west=true": { "model": "conquest:ironbar9taiga_n", "y": 270 },
        "east=true,north=true,south=false,variant=bravo,west=false": { "model": "conquest:ironbar9taiga_ne" },
        "east=true,north=false,south=true,variant=bravo,west=false": { "model": "conquest:ironbar9taiga_ne", "y": 90 },
        "east=false,north=false,south=true,variant=bravo,west=true": { "model": "conquest:ironbar9taiga_ne", "y": 180 },
        "east=false,north=true,south=false,variant=bravo,west=true": { "model": "conquest:ironbar9taiga_ne", "y": 270 },
        "east=false,north=true,south=true,variant=bravo,west=false": { "model": "conquest:ironbar9taiga_ns" },
        "east=true,north=false,south=false,variant=bravo,west=true": { "model": "conquest:ironbar9taiga_ns", "y": 90 },
        "east=true,north=true,south=true,variant=bravo,west=false": { "model": "conquest:ironbar9taiga_nse" },
        "east=true,north=false,south=true,variant=bravo,west=true": { "model": "conquest:ironbar9taiga_nse", "y": 90 },
        "east=false,north=true,south=true,variant=bravo,west=true": { "model": "conquest:ironbar9taiga_nse", "y": 180 },
        "east=true,north=true,south=false,variant=bravo,west=true": { "model": "conquest:ironbar9taiga_nse", "y": 270 },
        "east=true,north=true,south=true,variant=bravo,west=true": { "model": "conquest:ironbar9taiga_nsew" },
        
        "east=false,north=false,south=false,variant=charlie,west=false": { "model": "conquest:ironbar9birchforest_nsew" },
        "east=false,north=true,south=false,variant=charlie,west=false": { "model": "conquest:ironbar9birchforest_n" },
        "east=true,north=false,south=false,variant=charlie,west=false": { "model": "conquest:ironbar9birchforest_n", "y": 90 },
        "east=false,north=false,south=true,variant=charlie,west=false": { "model": "conquest:ironbar9birchforest_n", "y": 180 },
        "east=false,north=false,south=false,variant=charlie,west=true": { "model": "conquest:ironbar9birchforest_n", "y": 270 },
        "east=true,north=true,south=false,variant=charlie,west=false": { "model": "conquest:ironbar9birchforest_ne" },
        "east=true,north=false,south=true,variant=charlie,west=false": { "model": "conquest:ironbar9birchforest_ne", "y": 90 },
        "east=false,north=false,south=true,variant=charlie,west=true": { "model": "conquest:ironbar9birchforest_ne", "y": 180 },
        "east=false,north=true,south=false,variant=charlie,west=true": { "model": "conquest:ironbar9birchforest_ne", "y": 270 },
        "east=false,north=true,south=true,variant=charlie,west=false": { "model": "conquest:ironbar9birchforest_ns" },
        "east=true,north=false,south=false,variant=charlie,west=true": { "model": "conquest:ironbar9birchforest_ns", "y": 90 },
        "east=true,north=true,south=true,variant=charlie,west=false": { "model": "conquest:ironbar9birchforest_nse" },
        "east=true,north=false,south=true,variant=charlie,west=true": { "model": "conquest:ironbar9birchforest_nse", "y": 90 },
        "east=false,north=true,south=true,variant=charlie,west=true": { "model": "conquest:ironbar9birchforest_nse", "y": 180 },
        "east=true,north=true,south=false,variant=charlie,west=true": { "model": "conquest:ironbar9birchforest_nse", "y": 270 },
        "east=true,north=true,south=true,variant=charlie,west=true": { "model": "conquest:ironbar9birchforest_nsew" },
        
        "east=false,north=false,south=false,variant=delta,west=false": { "model": "conquest:ironbar9savanna_nsew" },
        "east=false,north=true,south=false,variant=delta,west=false": { "model": "conquest:ironbar9savanna_n" },
        "east=true,north=false,south=false,variant=delta,west=false": { "model": "conquest:ironbar9savanna_n", "y": 90 },
        "east=false,north=false,south=true,variant=delta,west=false": { "model": "conquest:ironbar9savanna_n", "y": 180 },
        "east=false,north=false,south=false,variant=delta,west=true": { "model": "conquest:ironbar9savanna_n", "y": 270 },
        "east=true,north=true,south=false,variant=delta,west=false": { "model": "conquest:ironbar9savanna_ne" },
        "east=true,north=false,south=true,variant=delta,west=false": { "model": "conquest:ironbar9savanna_ne", "y": 90 },
        "east=false,north=false,south=true,variant=delta,west=true": { "model": "conquest:ironbar9savanna_ne", "y": 180 },
        "east=false,north=true,south=false,variant=delta,west=true": { "model": "conquest:ironbar9savanna_ne", "y": 270 },
        "east=false,north=true,south=true,variant=delta,west=false": { "model": "conquest:ironbar9savanna_ns" },
        "east=true,north=false,south=false,variant=delta,west=true": { "model": "conquest:ironbar9savanna_ns", "y": 90 },
        "east=true,north=true,south=true,variant=delta,west=false": { "model": "conquest:ironbar9savanna_nse" },
        "east=true,north=false,south=true,variant=delta,west=true": { "model": "conquest:ironbar9savanna_nse", "y": 90 },
        "east=false,north=true,south=true,variant=delta,west=true": { "model": "conquest:ironbar9savanna_nse", "y": 180 },
        "east=true,north=true,south=false,variant=delta,west=true": { "model": "conquest:ironbar9savanna_nse", "y": 270 },
        "east=true,north=true,south=true,variant=delta,west=true": { "model": "conquest:ironbar9savanna_nsew" },
        
        "east=false,north=false,south=false,variant=echo,west=false": { "model": "conquest:ironbar11_nsew" },
        "east=false,north=true,south=false,variant=echo,west=false": { "model": "conquest:ironbar11_ns" },
        "east=true,north=false,south=false,variant=echo,west=false": { "model": "conquest:ironbar11_ns", "y": 90 },
        "east=false,north=false,south=true,variant=echo,west=false": { "model": "conquest:ironbar11_ns" },
        "east=false,north=false,south=false,variant=echo,west=true": { "model": "conquest:ironbar11_ns", "y": 90 },
        "east=true,north=true,south=false,variant=echo,west=false": { "model": "conquest:ironbar11_ne" },
        "east=true,north=false,south=true,variant=echo,west=false": { "model": "conquest:ironbar11_ne", "y": 90 },
        "east=false,north=false,south=true,variant=echo,west=true": { "model": "conquest:ironbar11_ne", "y": 180 },
        "east=false,north=true,south=false,variant=echo,west=true": { "model": "conquest:ironbar11_ne", "y": 270 },
        "east=false,north=true,south=true,variant=echo,west=false": { "model": "conquest:ironbar11_ns" },
        "east=true,north=false,south=false,variant=echo,west=true": { "model": "conquest:ironbar11_ns", "y": 90 },
        "east=true,north=true,south=true,variant=echo,west=false": { "model": "conquest:ironbar11_nse" },
        "east=true,north=false,south=true,variant=echo,west=true": { "model": "conquest:ironbar11_nse", "y": 90 },
        "east=false,north=true,south=true,variant=echo,west=true": { "model": "conquest:ironbar11_nse", "y": 180 },
        "east=true,north=true,south=false,variant=echo,west=true": { "model": "conquest:ironbar11_nse", "y": 270 },
        "east=true,north=true,south=true,variant=echo,west=true": { "model": "conquest:ironbar11_nsew" },
        
        "east=false,north=false,south=false,variant=fox,west=false": { "model": "conquest:ironbar8iceplains_nsew" },
        "east=false,north=true,south=false,variant=fox,west=false": { "model": "conquest:ironbar8iceplains_n" },
        "east=true,north=false,south=false,variant=fox,west=false": { "model": "conquest:ironbar8iceplains_n", "y": 90 },
        "east=false,north=false,south=true,variant=fox,west=false": { "model": "conquest:ironbar8iceplains_n", "y": 180 },
        "east=false,north=false,south=false,variant=fox,west=true": { "model": "conquest:ironbar8iceplains_n", "y": 270 },
        "east=true,north=true,south=false,variant=fox,west=false": { "model": "conquest:ironbar8iceplains_ne" },
        "east=true,north=false,south=true,variant=fox,west=false": { "model": "conquest:ironbar8iceplains_ne", "y": 90 },
        "east=false,north=false,south=true,variant=fox,west=true": { "model": "conquest:ironbar8iceplains_ne", "y": 180 },
        "east=false,north=true,south=false,variant=fox,west=true": { "model": "conquest:ironbar8iceplains_ne", "y": 270 },
        "east=false,north=true,south=true,variant=fox,west=false": { "model": "conquest:ironbar8iceplains_ns" },
        "east=true,north=false,south=false,variant=fox,west=true": { "model": "conquest:ironbar8iceplains_ns", "y": 90 },
        "east=true,north=true,south=true,variant=fox,west=false": { "model": "conquest:ironbar8iceplains_nse" },
        "east=true,north=false,south=true,variant=fox,west=true": { "model": "conquest:ironbar8iceplains_nse", "y": 90 },
        "east=false,north=true,south=true,variant=fox,west=true": { "model": "conquest:ironbar8iceplains_nse", "y": 180 },
        "east=true,north=true,south=false,variant=fox,west=true": { "model": "conquest:ironbar8iceplains_nse", "y": 270 },
        "east=true,north=true,south=true,variant=fox,west=true": { "model": "conquest:ironbar8iceplains_nsew" },
        
        "east=false,north=false,south=false,variant=golf,west=false": { "model": "conquest:none" },
        "east=false,north=true,south=false,variant=golf,west=false": { "model": "conquest:none" },
        "east=true,north=false,south=false,variant=golf,west=false": { "model": "conquest:none", "y": 90 },
        "east=false,north=false,south=true,variant=golf,west=false": { "model": "conquest:none", "y": 180 },
        "east=false,north=false,south=false,variant=golf,west=true": { "model": "conquest:none", "y": 270 },
        "east=true,north=true,south=false,variant=golf,west=false": { "model": "conquest:none" },
        "east=true,north=false,south=true,variant=golf,west=false": { "model": "conquest:none", "y": 90 },
        "east=false,north=false,south=true,variant=golf,west=true": { "model": "conquest:none", "y": 180 },
        "east=false,north=true,south=false,variant=golf,west=true": { "model": "conquest:none", "y": 270 },
        "east=false,north=true,south=true,variant=golf,west=false": { "model": "conquest:none" },
        "east=true,north=false,south=false,variant=golf,west=true": { "model": "conquest:none", "y": 90 },
        "east=true,north=true,south=true,variant=golf,west=false": { "model": "conquest:none" },
        "east=true,north=false,south=true,variant=golf,west=true": { "model": "conquest:none", "y": 90 },
        "east=false,north=true,south=true,variant=golf,west=true": { "model": "conquest:none", "y": 180 },
        "east=true,north=true,south=false,variant=golf,west=true": { "model": "conquest:none", "y": 270 },
        "east=true,north=true,south=true,variant=golf,west=true": { "model": "conquest:none" },

        "east=false,north=false,south=false,variant=hotel,west=false": { "model": "conquest:none" },
        "east=false,north=true,south=false,variant=hotel,west=false": { "model": "conquest:none" },
        "east=true,north=false,south=false,variant=hotel,west=false": { "model": "conquest:none", "y": 90 },
        "east=false,north=false,south=true,variant=hotel,west=false": { "model": "conquest:none", "y": 180 },
        "east=false,north=false,south=false,variant=hotel,west=true": { "model": "conquest:none", "y": 270 },
        "east=true,north=true,south=false,variant=hotel,west=false": { "model": "conquest:none" },
        "east=true,north=false,south=true,variant=hotel,west=false": { "model": "conquest:none", "y": 90 },
        "east=false,north=false,south=true,variant=hotel,west=true": { "model": "conquest:none", "y": 180 },
        "east=false,north=true,south=false,variant=hotel,west=true": { "model": "conquest:none", "y": 270 },
        "east=false,north=true,south=true,variant=hotel,west=false": { "model": "conquest:none" },
        "east=true,north=false,south=false,variant=hotel,west=true": { "model": "conquest:none", "y": 90 },
        "east=true,north=true,south=true,variant=hotel,west=false": { "model": "conquest:none" },
        "east=true,north=false,south=true,variant=hotel,west=true": { "model": "conquest:none", "y": 90 },
        "east=false,north=true,south=true,variant=hotel,west=true": { "model": "conquest:none", "y": 180 },
        "east=true,north=true,south=false,variant=hotel,west=true": { "model": "conquest:none", "y": 270 },
        "east=true,north=true,south=true,variant=hotel,west=true": { "model": "conquest:none" },
        
        "east=false,north=false,south=false,variant=india,west=false": { "model": "conquest:none" },
        "east=false,north=true,south=false,variant=india,west=false": { "model": "conquest:none" },
        "east=true,north=false,south=false,variant=india,west=false": { "model": "conquest:none", "y": 90 },
        "east=false,north=false,south=true,variant=india,west=false": { "model": "conquest:none", "y": 180 },
        "east=false,north=false,south=false,variant=india,west=true": { "model": "conquest:none", "y": 270 },
        "east=true,north=true,south=false,variant=india,west=false": { "model": "conquest:none" },
        "east=true,north=false,south=true,variant=india,west=false": { "model": "conquest:none", "y": 90 },
        "east=false,north=false,south=true,variant=india,west=true": { "model": "conquest:none", "y": 180 },
        "east=false,north=true,south=false,variant=india,west=true": { "model": "conquest:none", "y": 270 },
        "east=false,north=true,south=true,variant=india,west=false": { "model": "conquest:none" },
        "east=true,north=false,south=false,variant=india,west=true": { "model": "conquest:none", "y": 90 },
        "east=true,north=true,south=true,variant=india,west=false": { "model": "conquest:none" },
        "east=true,north=false,south=true,variant=india,west=true": { "model": "conquest:none", "y": 90 },
        "east=false,north=true,south=true,variant=india,west=true": { "model": "conquest:none", "y": 180 },
        "east=true,north=true,south=false,variant=india,west=true": { "model": "conquest:none", "y": 270 },
        "east=true,north=true,south=true,variant=india,west=true": { "model": "conquest:none" },
        
        "east=false,north=false,south=false,variant=juliet,west=false": { "model": "conquest:none" },
        "east=false,north=true,south=false,variant=juliet,west=false": { "model": "conquest:none" },
        "east=true,north=false,south=false,variant=juliet,west=false": { "model": "conquest:none", "y": 90 },
        "east=false,north=false,south=true,variant=juliet,west=false": { "model": "conquest:none", "y": 180 },
        "east=false,north=false,south=false,variant=juliet,west=true": { "model": "conquest:none", "y": 270 },
        "east=true,north=true,south=false,variant=juliet,west=false": { "model": "conquest:none" },
        "east=true,north=false,south=true,variant=juliet,west=false": { "model": "conquest:none", "y": 90 },
        "east=false,north=false,south=true,variant=juliet,west=true": { "model": "conquest:none", "y": 180 },
        "east=false,north=true,south=false,variant=juliet,west=true": { "model": "conquest:none", "y": 270 },
        "east=false,north=true,south=true,variant=juliet,west=false": { "model": "conquest:none" },
        "east=true,north=false,south=false,variant=juliet,west=true": { "model": "conquest:none", "y": 90 },
        "east=true,north=true,south=true,variant=juliet,west=false": { "model": "conquest:none" },
        "east=true,north=false,south=true,variant=juliet,west=true": { "model": "conquest:none", "y": 90 },
        "east=false,north=true,south=true,variant=juliet,west=true": { "model": "conquest:none", "y": 180 },
        "east=true,north=true,south=false,variant=juliet,west=true": { "model": "conquest:none", "y": 270 },
        "east=true,north=true,south=true,variant=juliet,west=true": { "model": "conquest:none" },

        "east=false,north=false,south=false,variant=kilo,west=false": { "model": "conquest:none" },
        "east=false,north=true,south=false,variant=kilo,west=false": { "model": "conquest:none" },
        "east=true,north=false,south=false,variant=kilo,west=false": { "model": "conquest:none", "y": 90 },
        "east=false,north=false,south=true,variant=kilo,west=false": { "model": "conquest:none", "y": 180 },
        "east=false,north=false,south=false,variant=kilo,west=true": { "model": "conquest:none", "y": 270 },
        "east=true,north=true,south=false,variant=kilo,west=false": { "model": "conquest:none" },
        "east=true,north=false,south=true,variant=kilo,west=false": { "model": "conquest:none", "y": 90 },
        "east=false,north=false,south=true,variant=kilo,west=true": { "model": "conquest:none", "y": 180 },
        "east=false,north=true,south=false,variant=kilo,west=true": { "model": "conquest:none", "y": 270 },
        "east=false,north=true,south=true,variant=kilo,west=false": { "model": "conquest:none" },
        "east=true,north=false,south=false,variant=kilo,west=true": { "model": "conquest:none", "y": 90 },
        "east=true,north=true,south=true,variant=kilo,west=false": { "model": "conquest:none" },
        "east=true,north=false,south=true,variant=kilo,west=true": { "model": "conquest:none", "y": 90 },
        "east=false,north=true,south=true,variant=kilo,west=true": { "model": "conquest:none", "y": 180 },
        "east=true,north=true,south=false,variant=kilo,west=true": { "model": "conquest:none", "y": 270 },
        "east=true,north=true,south=true,variant=kilo,west=true": { "model": "conquest:none" },
        
        "east=false,north=false,south=false,variant=lima,west=false": { "model": "conquest:none" },
        "east=false,north=true,south=false,variant=lima,west=false": { "model": "conquest:none" },
        "east=true,north=false,south=false,variant=lima,west=false": { "model": "conquest:none", "y": 90 },
        "east=false,north=false,south=true,variant=lima,west=false": { "model": "conquest:none", "y": 180 },
        "east=false,north=false,south=false,variant=lima,west=true": { "model": "conquest:none", "y": 270 },
        "east=true,north=true,south=false,variant=lima,west=false": { "model": "conquest:none" },
        "east=true,north=false,south=true,variant=lima,west=false": { "model": "conquest:none", "y": 90 },
        "east=false,north=false,south=true,variant=lima,west=true": { "model": "conquest:none", "y": 180 },
        "east=false,north=true,south=false,variant=lima,west=true": { "model": "conquest:none", "y": 270 },
        "east=false,north=true,south=true,variant=lima,west=false": { "model": "conquest:none" },
        "east=true,north=false,south=false,variant=lima,west=true": { "model": "conquest:none", "y": 90 },
        "east=true,north=true,south=true,variant=lima,west=false": { "model": "conquest:none" },
        "east=true,north=false,south=true,variant=lima,west=true": { "model": "conquest:none", "y": 90 },
        "east=false,north=true,south=true,variant=lima,west=true": { "model": "conquest:none", "y": 180 },
        "east=true,north=true,south=false,variant=lima,west=true": { "model": "conquest:none", "y": 270 },
        "east=true,north=true,south=true,variant=lima,west=true": { "model": "conquest:none" },

        "east=false,north=false,south=false,variant=mike,west=false": { "model": "conquest:none" },
        "east=false,north=true,south=false,variant=mike,west=false": { "model": "conquest:none" },
        "east=true,north=false,south=false,variant=mike,west=false": { "model": "conquest:none", "y": 90 },
        "east=false,north=false,south=true,variant=mike,west=false": { "model": "conquest:none", "y": 180 },
        "east=false,north=false,south=false,variant=mike,west=true": { "model": "conquest:none", "y": 270 },
        "east=true,north=true,south=false,variant=mike,west=false": { "model": "conquest:none" },
        "east=true,north=false,south=true,variant=mike,west=false": { "model": "conquest:none", "y": 90 },
        "east=false,north=false,south=true,variant=mike,west=true": { "model": "conquest:none", "y": 180 },
        "east=false,north=true,south=false,variant=mike,west=true": { "model": "conquest:none", "y": 270 },
        "east=false,north=true,south=true,variant=mike,west=false": { "model": "conquest:none" },
        "east=true,north=false,south=false,variant=mike,west=true": { "model": "conquest:none", "y": 90 },
        "east=true,north=true,south=true,variant=mike,west=false": { "model": "conquest:none" },
        "east=true,north=false,south=true,variant=mike,west=true": { "model": "conquest:none", "y": 90 },
        "east=false,north=true,south=true,variant=mike,west=true": { "model": "conquest:none", "y": 180 },
        "east=true,north=true,south=false,variant=mike,west=true": { "model": "conquest:none", "y": 270 },
        "east=true,north=true,south=true,variant=mike,west=true": { "model": "conquest:none" },

        "east=false,north=false,south=false,variant=november,west=false": { "model": "conquest:none" },
        "east=false,north=true,south=false,variant=november,west=false": { "model": "conquest:none" },
        "east=true,north=false,south=false,variant=november,west=false": { "model": "conquest:none", "y": 90 },
        "east=false,north=false,south=true,variant=november,west=false": { "model": "conquest:none", "y": 180 },
        "east=false,north=false,south=false,variant=november,west=true": { "model": "conquest:none", "y": 270 },
        "east=true,north=true,south=false,variant=november,west=false": { "model": "conquest:none" },
        "east=true,north=false,south=true,variant=november,west=false": { "model": "conquest:none", "y": 90 },
        "east=false,north=false,south=true,variant=november,west=true": { "model": "conquest:none", "y": 180 },
        "east=false,north=true,south=false,variant=november,west=true": { "model": "conquest:none", "y": 270 },
        "east=false,north=true,south=true,variant=november,west=false": { "model": "conquest:none" },
        "east=true,north=false,south=false,variant=november,west=true": { "model": "conquest:none", "y": 90 },
        "east=true,north=true,south=true,variant=november,west=false": { "model": "conquest:none" },
        "east=true,north=false,south=true,variant=november,west=true": { "model": "conquest:none", "y": 90 },
        "east=false,north=true,south=true,variant=november,west=true": { "model": "conquest:none", "y": 180 },
        "east=true,north=true,south=false,variant=november,west=true": { "model": "conquest:none", "y": 270 },
        "east=true,north=true,south=true,variant=november,west=true": { "model": "conquest:none" },

        "east=false,north=false,south=false,variant=oscar,west=false": { "model": "conquest:none" },
        "east=false,north=true,south=false,variant=oscar,west=false": { "model": "conquest:none" },
        "east=true,north=false,south=false,variant=oscar,west=false": { "model": "conquest:none", "y": 90 },
        "east=false,north=false,south=true,variant=oscar,west=false": { "model": "conquest:none", "y": 180 },
        "east=false,north=false,south=false,variant=oscar,west=true": { "model": "conquest:none", "y": 270 },
        "east=true,north=true,south=false,variant=oscar,west=false": { "model": "conquest:none" },
        "east=true,north=false,south=true,variant=oscar,west=false": { "model": "conquest:none", "y": 90 },
        "east=false,north=false,south=true,variant=oscar,west=true": { "model": "conquest:none", "y": 180 },
        "east=false,north=true,south=false,variant=oscar,west=true": { "model": "conquest:none", "y": 270 },
        "east=false,north=true,south=true,variant=oscar,west=false": { "model": "conquest:none" },
        "east=true,north=false,south=false,variant=oscar,west=true": { "model": "conquest:none", "y": 90 },
        "east=true,north=true,south=true,variant=oscar,west=false": { "model": "conquest:none" },
        "east=true,north=false,south=true,variant=oscar,west=true": { "model": "conquest:none", "y": 90 },
        "east=false,north=true,south=true,variant=oscar,west=true": { "model": "conquest:none", "y": 180 },
        "east=true,north=true,south=false,variant=oscar,west=true": { "model": "conquest:none", "y": 270 },
        "east=true,north=true,south=true,variant=oscar,west=true": { "model": "conquest:none" },

        "east=false,north=false,south=false,variant=papa,west=false": { "model": "conquest:none" },
        "east=false,north=true,south=false,variant=papa,west=false": { "model": "conquest:none" },
        "east=true,north=false,south=false,variant=papa,west=false": { "model": "conquest:none", "y": 90 },
        "east=false,north=false,south=true,variant=papa,west=false": { "model": "conquest:none", "y": 180 },
        "east=false,north=false,south=false,variant=papa,west=true": { "model": "conquest:none", "y": 270 },
        "east=true,north=true,south=false,variant=papa,west=false": { "model": "conquest:none" },
        "east=true,north=false,south=true,variant=papa,west=false": { "model": "conquest:none", "y": 90 },
        "east=false,north=false,south=true,variant=papa,west=true": { "model": "conquest:none", "y": 180 },
        "east=false,north=true,south=false,variant=papa,west=true": { "model": "conquest:none", "y": 270 },
        "east=false,north=true,south=true,variant=papa,west=false": { "model": "conquest:none" },
        "east=true,north=false,south=false,variant=papa,west=true": { "model": "conquest:none", "y": 90 },
        "east=true,north=true,south=true,variant=papa,west=false": { "model": "conquest:none" },
        "east=true,north=false,south=true,variant=papa,west=true": { "model": "conquest:none", "y": 90 },
        "east=false,north=true,south=true,variant=papa,west=true": { "model": "conquest:none", "y": 180 },
        "east=true,north=true,south=false,variant=papa,west=true": { "model": "conquest:none", "y": 270 },
        "east=true,north=true,south=true,variant=papa,west=true": { "model": "conquest:none" }
    }
}