{
    "variants": {
        "variant=alpha": { "model": "conquest:wood_asian_wall_post" },
        "variant=bravo": { "model": "conquest:wood_carvedacacia_wall_post" },
        "variant=charlie": { "model": "conquest:wood_acacia_wall_post" },
        "variant=delta": { "model": "conquest:wood_carveddarkoak_wall_post" },
        "variant=echo": { "model": "conquest:wood_darkoak_wall_post" },
        "variant=fox": { "model": "conquest:oak_mossylog_wall_post" },
        "variant=golf": { "model": "conquest:spruce_mossylog_wall_post" },
        "variant=hotel": { "model": "conquest:birch_mossylog_wall_post" },
        "variant=india": { "model": "conquest:jungle_mossylog_wall_post" },
        "variant=juliet": { "model": "conquest:acacia_mossylog_wall_post" },
        "variant=kilo": { "model": "conquest:oak_mossydark_wall_post" },
        "variant=lima": { "model": "conquest:ash_burntlog_wall_post" },
        "variant=mike": { "model": "conquest:planks_whiteweathered_wall_post" },
        "variant=november": { "model": "conquest:planks_redweathered_wall_post" },
        "variant=oscar": { "model": "conquest:planks_lightredweathered_wall_post" },
        "variant=papa": { "model": "conquest:planks_orangepainted_wall_post" }
    }
}