{
    "variants": {
        "half=bottom,variant=alpha": { "model": "conquest:half_woodslab4birchforest" },
        "half=bottom,variant=bravo": { "model": "conquest:half_woodslab4ocean" },
        "half=bottom,variant=charlie": { "model": "conquest:half_woodslab4roofedforest" },
        "half=bottom,variant=delta": { "model": "conquest:half_woodslab14" },
        "half=bottom,variant=echo": { "model": "conquest:half_oak_mossylog" },
        "half=bottom,variant=fox": { "model": "conquest:half_spruce_mossylog" },
        "half=bottom,variant=golf": { "model": "conquest:half_birch_mossylog" },
        "half=bottom,variant=hotel": { "model": "conquest:half_jungle_mossylog" },
        "half=top,variant=alpha": { "model": "conquest:upper_woodslab4birchforest" },
        "half=top,variant=bravo": { "model": "conquest:upper_woodslab4ocean" },
        "half=top,variant=charlie": { "model": "conquest:upper_woodslab4roofedforest" },
        "half=top,variant=delta": { "model": "conquest:upper_woodslab14" },
        "half=top,variant=echo": { "model": "conquest:upper_oak_mossylog" },
        "half=top,variant=fox": { "model": "conquest:upper_spruce_mossylog" },
        "half=top,variant=golf": { "model": "conquest:upper_birch_mossylog" },
        "half=top,variant=hotel": { "model": "conquest:upper_jungle_mossylog" }
    }
}