{
    "variants": {
        "variant=alpha": { "model": "conquest:pressureplate2" },
        "variant=bravo": { "model": "conquest:pressureplate3" },
        "variant=charlie": { "model": "conquest:pressureplate4" },
        "variant=delta": { "model": "conquest:web5birchforest" },
        "variant=echo": { "model": "conquest:none" },
        "variant=fox": { "model": "conquest:none" },
        "variant=golf": { "model": "conquest:none" },
        "variant=hotel": { "model": "conquest:none" },
        "variant=india": { "model": "conquest:none" },
        "variant=juliet": { "model": "conquest:none" },
        "variant=kilo": { "model": "conquest:none" },
        "variant=lima": { "model": "conquest:none" },
        "variant=mike": { "model": "conquest:none" },
        "variant=november": { "model": "conquest:none" },
        "variant=oscar": { "model": "conquest:none" },
        "variant=papa": { "model": "conquest:none" }
    }
}