{
    "variants": {
        "facing=south,variant=alpha": { "model": "conquest:log_birchnormal_corner", "y": 270, "uvlock": true },
        "facing=west,variant=alpha": { "model": "conquest:log_birchnormal_corner", "uvlock": true },
        "facing=north,variant=alpha": { "model": "conquest:log_birchnormal_corner", "y": 90, "uvlock": true },
        "facing=east,variant=alpha": { "model": "conquest:log_birchnormal_corner", "y": 180, "uvlock": true },

        "facing=south,variant=bravo": { "model": "conquest:log_junglenormal_corner", "y": 270, "uvlock": true },
        "facing=west,variant=bravo": { "model": "conquest:log_junglenormal_corner", "uvlock": true },
        "facing=north,variant=bravo": { "model": "conquest:log_junglenormal_corner", "y": 90, "uvlock": true },
        "facing=east,variant=bravo": { "model": "conquest:log_junglenormal_corner", "y": 180, "uvlock": true },

        "facing=south,variant=charlie": { "model": "conquest:log_acacianormal_corner", "y": 270, "uvlock": true },
        "facing=west,variant=charlie": { "model": "conquest:log_acacianormal_corner", "uvlock": true },
        "facing=north,variant=charlie": { "model": "conquest:log_acacianormal_corner", "y": 90, "uvlock": true },
        "facing=east,variant=charlie": { "model": "conquest:log_acacianormal_corner", "y": 180, "uvlock": true },

        "facing=south,variant=delta": { "model": "conquest:log_darkoaknormal_corner", "y": 270, "uvlock": true },
        "facing=west,variant=delta": { "model": "conquest:log_darkoaknormal_corner", "uvlock": true },
        "facing=north,variant=delta": { "model": "conquest:log_darkoaknormal_corner", "y": 90, "uvlock": true },
        "facing=east,variant=delta": { "model": "conquest:log_darkoaknormal_corner", "y": 180, "uvlock": true }
    }
}