{
    "variants": {
        "facing=south,open=false,variant=alpha": { "model": "conquest:planks_yellowweathered_fencegate_closed", "y": 0 },
        "facing=west,open=false,variant=alpha":  { "model": "conquest:planks_yellowweathered_fencegate_closed", "y": 90 },
        "facing=north,open=false,variant=alpha": { "model": "conquest:planks_yellowweathered_fencegate_closed", "y": 180 },
        "facing=east,open=false,variant=alpha":  { "model": "conquest:planks_yellowweathered_fencegate_closed", "y": 270 },
        "facing=south,open=true,variant=alpha": { "model": "conquest:planks_yellowweathered_fencegate_open", "y": 180 },
        "facing=west,open=true,variant=alpha":  { "model": "conquest:planks_yellowweathered_fencegate_open", "y": 270 },
        "facing=north,open=true,variant=alpha": { "model": "conquest:planks_yellowweathered_fencegate_open", "y": 0 },
        "facing=east,open=true,variant=alpha":  { "model": "conquest:planks_yellowweathered_fencegate_open", "y": 90 },

        "facing=south,open=false,variant=bravo": { "model": "conquest:planks_greenweathered_fencegate_closed", "y": 90 },
        "facing=west,open=false,variant=bravo":  { "model": "conquest:planks_greenweathered_fencegate_closed", "y": 180 },
        "facing=north,open=false,variant=bravo": { "model": "conquest:planks_greenweathered_fencegate_closed", "y": 270 },
        "facing=east,open=false,variant=bravo":  { "model": "conquest:planks_greenweathered_fencegate_closed", "y": 0 },
        "facing=south,open=true,variant=bravo": { "model": "conquest:planks_greenweathered_fencegate_open", "y": 90 },
        "facing=west,open=true,variant=bravo":  { "model": "conquest:planks_greenweathered_fencegate_open", "y": 180 },
        "facing=north,open=true,variant=bravo": { "model": "conquest:planks_greenweathered_fencegate_open", "y": 270 },
        "facing=east,open=true,variant=bravo":  { "model": "conquest:planks_greenweathered_fencegate_open", "y": 0 }
    }
}