{
    "variants": {
        "facing=south,variant=alpha": { "model": "conquest:rack_scrolls_corner", "y": 270, "uvlock": true },
        "facing=west,variant=alpha": { "model": "conquest:rack_scrolls_corner", "uvlock": true },
        "facing=north,variant=alpha": { "model": "conquest:rack_scrolls_corner", "y": 90, "uvlock": true },
        "facing=east,variant=alpha": { "model": "conquest:rack_scrolls_corner", "y": 180, "uvlock": true },

        "facing=south,variant=bravo": { "model": "conquest:cupboards_wooden_corner", "y": 270, "uvlock": true },
        "facing=west,variant=bravo": { "model": "conquest:cupboards_wooden_corner", "uvlock": true },
        "facing=north,variant=bravo": { "model": "conquest:cupboards_wooden_corner", "y": 90, "uvlock": true },
        "facing=east,variant=bravo": { "model": "conquest:cupboards_wooden_corner", "y": 180, "uvlock": true },

        "facing=south,variant=charlie": { "model": "conquest:wood_panel_corner", "y": 270, "uvlock": true },
        "facing=west,variant=charlie": { "model": "conquest:wood_panel_corner", "uvlock": true },
        "facing=north,variant=charlie": { "model": "conquest:wood_panel_corner", "y": 90, "uvlock": true },
        "facing=east,variant=charlie": { "model": "conquest:wood_panel_corner", "y": 180, "uvlock": true },

        "facing=south,variant=delta": { "model": "conquest:none", "y": 270, "uvlock": true },
        "facing=west,variant=delta": { "model": "conquest:none", "uvlock": true },
        "facing=north,variant=delta": { "model": "conquest:none", "y": 90, "uvlock": true },
        "facing=east,variant=delta": { "model": "conquest:none", "y": 180, "uvlock": true }
    }
}