{
	"textures": {
		"particle": "#all"
	},
	"elements": [
		{
			"from": [ 5, 12, 0 ],
			"to": [ 11, 16, 16 ],
			"faces": {
				"down": { "uv": [ 5, 0, 11, 16 ], "texture": "#all" },
				"up": { "uv": [ 5, 0, 11, 16 ], "texture": "#all" },
				"north": { "uv": [ 5, 0, 11, 4 ], "texture": "#all" },
				"south": { "uv": [ 5, 12, 11, 16 ], "texture": "#all" },
				"west": { "uv": [ 6, 0, 10, 16 ], "texture": "#all", "rotation": 90 },
				"east": { "uv": [ 6, 0, 10, 16 ], "texture": "#all", "rotation": 90 }
			}
		},
		{
			"from": [ 11, 12, 5 ],
			"to": [ 16, 16, 11 ],
			"faces": {
				"down": { "uv": [ 5, 0, 11, 4 ], "texture": "#all", "rotation": 90 },
				"up": { "uv": [ 5, 0, 11, 4 ], "texture": "#all", "rotation": 90 },
				"north": { "uv": [ 6, 11, 10.5, 16 ], "texture": "#all", "rotation": 90 },
				"south": { "uv": [ 6, 11, 10.5, 16 ], "texture": "#all", "rotation": 90 },
				"west": { "uv": [ 5, 0, 11, 4 ], "texture": "#all" },
				"east": { "uv": [ 5, 0, 11, 4 ], "texture": "#all" }
			}
		}
	]
}