{
"__comment": "Designed by Jugbot with BDcraft Cubik PRO 0.96 Beta - http://bdcraft.net",
"parent": "conquest:block/cauldronfrozenocean/planeS",
"textures": {
    "particle": "conquest:blocks/cauldronfrozenocean_top",
    "texture": "conquest:blocks/table_curtain_2"
}
}