{
"__comment": "Designed by Jugbot with BDcraft Cubik PRO 0.96 Beta - http://bdcraft.net",
"parent": "conquest:block/cauldronfrozenocean/legSE",
"textures": {
    "particle": "conquest:blocks/cauldronfrozenocean_top",
    "4": "conquest:blocks/table_curtain_4"
}
}