{
    "parent": "block/outer_stairs",
    "textures": {
        "bottom": "conquest:blocks/acacialog2desert",
        "top": "conquest:blocks/acacialog2desert",
        "side": "conquest:blocks/acacialog2desert"
    }
}
