
{
    "parent": "block/inner_stairs",
    "textures": {
        "bottom": "conquest:blocks/acaciaplankbirchforest",
        "top": "conquest:blocks/acaciastairsbirchforest",
        "side": "conquest:blocks/acaciastairsbirchforest"
    }
}