{
"parent": "block/parent_arch",
"textures": {
    "texture": "blocks/stone_andesite_smooth",
    "edge": "blocks/stone_andesite_smooth",
    "side": "blocks/stone_andesite_smooth",
    "side_alt": "blocks/stone_andesite_smooth"
}
}