{
    "parent": "block/anvil",
    "textures": {
        "particle": "blocks/stone_andesite_smooth",
        "body": "blocks/stone_andesite_smooth",
        "top": "blocks/stone_andesite_smooth"
    }
}
