{
    "parent": "block/anvil",
    "textures": {
        "particle": "conquest:blocks/anvildesert_base",
        "body": "conquest:blocks/anvildesert_base",
        "top": "conquest:blocks/anvildesert_top"
    }
}
