{   "parent": "block/block",
    "display": {
        "fixed": {
            "rotation": [ 0, 90, 0 ],
            "translation": [ 0, 0, 0 ],
            "scale": [ 0.5, 0.5, 0.5 ]
        }
    },
    "elements": [
        {   "__comment": "Center",
            "from": [ 4, 0, 4 ],
            "to": [ 12, 16, 12 ],
            "faces": {
                "down":  { "uv": [ 0, 0, 8, 8 ], "texture": "#body" },
                "up":    { "uv": [ 0, 0, 8, 8 ], "texture": "#top" },
                "north": { "uv": [ 0, 0, 8, 16 ], "texture": "#body" },
                "south": { "uv": [ 0, 0, 8, 16 ], "texture": "#body" },
                "west":  { "uv": [ 0, 0, 8, 16 ], "texture": "#body" },
                "east":  { "uv": [ 0, 0, 8, 16 ], "texture": "#body" }
            }
        },
        {   "__comment": "North",
            "from": [ 5, 0, 3 ],
            "to": [ 11, 16, 4 ],
            "faces": {
                "down":  { "uv": [ 0, 0, 6, 1 ], "texture": "#body" },
                "up":    { "uv": [ 0, 0, 6, 1 ], "texture": "#top" },
                "north": { "uv": [ 0, 0, 6, 16 ], "texture": "#body" },
                "south": { "uv": [ 0, 0, 6, 16 ], "texture": "#body" },
                "west":  { "uv": [ 0, 0, 1, 16 ], "texture": "#body" },
                "east":  { "uv": [ 0, 0, 1, 16 ], "texture": "#body" }
            }
        },
        {   "__comment": "South",
            "from": [ 5, 0, 12 ],
            "to": [ 11, 16, 13 ],
            "faces": {
                "down":  { "uv": [ 0, 0, 6, 1 ], "texture": "#body" },
                "up":    { "uv": [ 0, 0, 6, 1 ], "texture": "#top" },
                "north": { "uv": [ 0, 0, 6, 16 ], "texture": "#body" },
                "south": { "uv": [ 0, 0, 6, 16 ], "texture": "#body" },
                "west":  { "uv": [ 0, 0, 1, 16 ], "texture": "#body" },
                "east":  { "uv": [ 0, 0, 1, 16 ], "texture": "#body" }
            }
        },
        {   "__comment": "West",
            "from": [ 3, 0, 5 ],
            "to": [ 4, 16, 11 ],
            "faces": {
                "down":  { "uv": [ 0, 0, 1, 6 ], "texture": "#body" },
                "up":    { "uv": [ 0, 0, 1, 6 ], "texture": "#top" },
                "north": { "uv": [ 0, 0, 1, 16 ], "texture": "#body" },
                "south": { "uv": [ 0, 0, 1, 16 ], "texture": "#body" },
                "west":  { "uv": [ 0, 0, 6, 16 ], "texture": "#body" },
                "east":  { "uv": [ 0, 0, 6, 16 ], "texture": "#body" }
            }
        },
        {   "__comment": "East",
            "from": [ 12, 0, 5 ],
            "to": [ 13, 16, 11 ],
            "faces": {
                "down":  { "uv": [ 0, 0, 1, 6 ], "texture": "#body" },
                "up":    { "uv": [ 0, 0, 1, 6 ], "texture": "#top" },
                "north": { "uv": [ 0, 0, 1, 16 ], "texture": "#body" },
                "south": { "uv": [ 0, 0, 1, 16 ], "texture": "#body" },
                "west":  { "uv": [ 0, 0, 6, 16 ], "texture": "#body" },
                "east":  { "uv": [ 0, 0, 6, 16 ], "texture": "#body" }
            }
        }
    ]
}
