{
    "parent": "block/anvil",
    "textures": {
        "particle": "blocks/planks_spruce",
        "body": "conquest:blocks/anviltaiga_base",
        "top": "conquest:blocks/anviltaiga_top"
    }
}
