{
    "parent": "conquest:block/anvil_body",
    "textures": {
        "particle": "conquest:blocks/anvilsky_base",
        "body": "conquest:blocks/anvilsky_base",
        "top": "conquest:blocks/anvilsky_top"
    }
}