{
"textures": {
    "particle": "conquest:blocks/arrowslit",
    "side": "conquest:blocks/arrowslit"
},
"elements": [ 
{
    "from": [ 8, 0, 0 ],
    "to": [ 8.0625, 16, 7 ],
    "faces": {
        "west":  { "uv": [ 16, 0, 9, 16 ], "texture": "#side" },
        "east":  { "uv": [ 9, 0, 16, 16 ], "texture": "#side" }
    }
}
]
}