{
    "textures": {
        "particle": "conquest:blocks/bamboo",
        "top": "conquest:blocks/bamboo_top",
        "texture": "conquest:blocks/bamboo"
    },
    "elements": [
        {   "from": [ 6, 0, 6 ],
            "to": [ 10, 16, 10 ],
            "faces": {
                "down":  { "uv": [ 6, 6, 10, 10 ], "texture": "#top", "cullface": "down" },
                "up":    { "uv": [ 6, 6, 10, 10 ], "texture": "#top", "cullface": "up"   },
                "north": { "uv": [ 6, 0, 10, 16 ], "texture": "#texture" },
                "south": { "uv": [ 6, 0, 10, 16 ], "texture": "#texture" },
                "west":  { "uv": [ 6, 0, 10, 16 ], "texture": "#texture" },
                "east":  { "uv": [ 6, 0, 10, 16 ], "texture": "#texture" }
            },
            "__comment": "Center post"
        },
        {
            "__comment": "top bar",
            "from": [ 7, 12, 0 ],
            "to": [ 9, 15, 9 ],
            "faces": {
                "down":  { "uv": [ 6.5, 0, 9.5, 6 ], "texture": "#top" },
                "up":    { "uv": [ 6.5, 0, 9.5, 6 ], "texture": "#top" },
                "north": { "uv": [ 7, 9, 9, 12 ], "texture": "#texture", "cullface": "north" },
                "west":  { "uv": [ 0, 1, 6, 4 ], "texture": "#texture" },
                "east":  { "uv": [ 0, 1, 6, 4 ], "texture": "#texture" }
            }
        },
        {
            "__comment": "lower bar",
            "from": [ 7, 6.5, 0 ],
            "to": [ 9, 9.5, 9 ],
            "faces": {
                "down":  { "uv": [ 7, 0, 9, 9 ], "texture": "#top" },
                "up":    { "uv": [ 7, 0, 9, 9 ], "texture": "#top" },
                "north": { "uv": [ 7, 7, 9, 10 ], "texture": "#texture", "cullface": "north" },
                "west":  { "uv": [ 0, 6.5, 6, 9.5 ], "texture": "#texture" },
                "east":  { "uv": [ 0, 6.5, 5.5, 9.5 ], "texture": "#texture" }
            }
        },
        {
            "__comment": "top bar",
            "from": [ 7, 12, 7 ],
            "to": [ 9, 15, 16 ],
            "faces": {
                "down":  { "uv": [ 6.5, 0, 9.5, 6 ], "rotation": 180, "texture": "#top" },
                "up":    { "uv": [ 6.5, 0, 9.5, 6 ], "rotation": 180, "texture": "#top" },
                "south": { "uv": [ 7, 9, 9, 12 ], "texture": "#texture" },
                "west":  { "uv": [ 0, 1, 6, 4 ], "texture": "#texture" },
                "east":  { "uv": [ 0, 1, 6, 4 ], "texture": "#texture" }
            }
        },
        {
            "__comment": "lower bar",
            "from": [ 7, 6.5, 7 ],
            "to": [ 9, 9.5, 16 ],
            "faces": {
                "down":  { "uv": [ 7, 0, 9, 9 ], "rotation": 180, "texture": "#top" },
                "up":    { "uv": [ 7, 0, 9, 9 ], "rotation": 180, "texture": "#top" },
                "south": { "uv": [ 7, 7, 9, 10 ], "texture": "#texture" },
                "west":  { "uv": [ 0, 6.5, 5.5, 9.5 ], "texture": "#texture" },
                "east":  { "uv": [ 0, 6.5, 6, 9.5 ], "texture": "#texture" }
            }
        },
        {
            "__comment": "top bar",
            "from": [ 7, 12, 7 ],
            "to": [ 16, 15, 9 ],
            "faces": {
                "down":  { "uv": [ 6.5, 0, 9.5, 6 ], "rotation": 270, "texture": "#top" },
                "up":    { "uv": [ 6.5, 0, 9.5, 6 ], "rotation": 90, "texture": "#top" },
                "north": { "uv": [ 0, 1, 6, 4 ], "texture": "#texture", "cullface": "north" },
                "south": { "uv": [ 0, 1, 6, 4 ], "texture": "#texture" },
                "east":  { "uv": [ 7, 9, 9, 12 ], "texture": "#texture" }
            }
        },
        {
            "__comment": "lower bar",
            "from": [ 7, 6.5, 7 ],
            "to": [ 16, 9.5, 9 ],
            "faces": {
                "down":  { "uv": [ 7, 0, 9, 9 ], "rotation": 270, "texture": "#top" },
                "up":    { "uv": [ 7, 0, 9, 9 ], "rotation": 90, "texture": "#top" },
                "north": { "uv": [ 0, 6.5, 6, 9.5 ], "texture": "#texture", "cullface": "north" },
                "south": { "uv": [ 0, 6.5, 5.5, 9.5 ], "texture": "#texture" },
                "east":  { "uv": [ 7, 7, 9, 10 ], "texture": "#texture" }
            }
        }
    ]
}
