
{
    "parent": "block/cube_bottom_top",
    "textures": {
        "bottom": "conquest:blocks/goldore2_bottom",
        "top": "conquest:blocks/plank13_top",
        "side": "conquest:blocks/goldore2_side"
    }
}