{
"parent": "block/parent_verticalslab",
"textures": {
    "texture": "conquest:blocks/roman_column_blue_base_marble",
	"top": "conquest:blocks/roman_column_blue_top",
	"bottom": "conquest:blocks/roman_capital_marble_top"
	}
}	