{
    "parent": "block/wall_ns_above_topbottom",
    "textures": {
        "wall": "conquest:blocks/quartzblock5",
        "top": "blocks/quartz_block_lines_top",
        "bottom": "blocks/quartz_block_lines_top"
    }
}
