{
    "parent": "block/wall_n_topbottom",
    "textures": {
        "wall": "conquest:blocks/roman_column_red_base_sandstone",
        "top": "conquest:blocks/roman_column_red_top",
        "bottom": "conquest:blocks/roman_capital_sandstone_top"
    }
}
