{
    "parent": "block/anvil_base_topbottom",
    "textures": {
        "particle": "conquest:blocks/roman_base_marble",
        "body": "conquest:blocks/roman_base_marble",
        "top": "conquest:blocks/roman_capital_marble_top",
        "bottom": "conquest:blocks/roman_capital_marble_top"
    }
}