{
"parent": "block/parent_corner",
"textures": {
    "texture": "conquest:blocks/roman_column_red_base_marble",
	"top": "conquest:blocks/roman_column_red_top",
	"bottom": "conquest:blocks/roman_capital_marble_top"
}
}