{
"parent": "block/parent_verticalslab",
"textures": {
    "texture": "conquest:blocks/roman_column_marble_base",
	"top": "conquest:blocks/roman_column_marble_top",
	"bottom": "conquest:blocks/roman_capital_marble_top"
	}
}	