{
    "parent": "block/wall_nsew_topbottom",
    "textures": {
        "wall": "conquest:blocks/roman_column_blue_base_marble",
        "top": "conquest:blocks/roman_column_blue_top",
        "bottom": "conquest:blocks/roman_capital_marble_top"
    }
}
