{
    "parent": "block/wall_nse_topbottom",
    "textures": {
        "wall": "conquest:blocks/roman_column_red_base_marble",
        "top": "conquest:blocks/roman_column_red_top",
        "bottom": "conquest:blocks/roman_capital_marble_top"
    }
}
