{
    "parent": "block/wall_inventory_topbottom",
    "textures": {
        "wall": "conquest:blocks/roman_column_sandstone_base",
        "top": "conquest:blocks/roman_column_sandstone_top",
        "bottom": "conquest:blocks/roman_capital_sandstone_top"
    }
}
