{
"parent": "block/parent_windowslit",
"textures": {
    "texture": "conquest:blocks/roman_sandstone_block1",
    "top": "conquest:blocks/roman_sandstone_block1",
	"bottom": "conquest:blocks/roman_sandstone_block1"
	}
}