{
"parent": "block/parent_verticalslab",
"textures": {
    "texture": "conquest:blocks/roman_black_block1",
	"top": "conquest:blocks/roman_black_block1",
	"bottom": "conquest:blocks/roman_black_block1"
	}
}	