{
"parent": "block/parent_verticalslab",
"textures": {
    "texture": "conquest:blocks/roman_sandstone_block",
	"top": "conquest:blocks/roman_sandstone_block",
	"bottom": "conquest:blocks/roman_sandstone_block"
	}
}	