{
    "parent": "conquest:block/anvil_base",
    "textures": {
        "particle": "conquest:blocks/roman_base_sandstone",
        "body": "conquest:blocks/roman_base_sandstone",
        "top": "conquest:blocks/roman_base_sandstone"
    }
}