{
"parent": "block/parent_windowslit",
"textures": {
    "texture": "conquest:blocks/brickbirchforest_sides",
    "top": "conquest:blocks/brickbirchforest",
	"bottom": "conquest:blocks/brickbirchforest"
	}
}