{
    "parent": "conquest:block/anvil_body",
    "textures": {
        "particle": "conquest:blocks/sandstone11",
        "body": "conquest:blocks/sandstone11",
        "top": "conquest:blocks/sandstone11"
    }
}