
{
    "parent": "block/cube_bottom_top",
    "textures": {
        "bottom": "conquest:blocks/brick1birchforest",
        "top": "conquest:blocks/brick1birchforest",
        "side": "conquest:blocks/brick1birchforest_sides"
    }
}