{
    "parent": "conquest:block/anvil_base",
    "textures": {
        "particle": "conquest:blocks/roman_travertine",
        "body": "conquest:blocks/roman_travertine",
        "top": "conquest:blocks/roman_travertine"
    }
}