{
    "parent": "block/stairs",
    "textures": {
        "bottom": "conquest:blocks/diorite_brick",
        "top": "conquest:blocks/diorite_brick",
        "side": "conquest:blocks/diorite_brick"
    }
}
