{
"parent": "block/parent_slit",
"textures": {
        "bottom": "conquest:blocks/brickextremehills",
        "side": "conquest:blocks/brickextremehills_sides",
		"top": "conquest:blocks/brickextremehills"
    }
}