{
"parent": "block/parent_verticalslab",
"textures": {
    "texture": "conquest:blocks/brickbirchforest_sides",
	"top": "conquest:blocks/brickbirchforest",
	"bottom": "conquest:blocks/brickbirchforest"
	}
}	