{
"parent": "block/parent_windowslit",
"textures": {
    "texture": "conquest:blocks/brickextremehills_sides",
    "top": "conquest:blocks/brickextremehills",
	"bottom": "conquest:blocks/brickextremehills"
	}
}