
{
    "parent": "block/cube_bottom_top",
    "textures": {
        "bottom": "conquest:blocks/brickextremehills",
        "top": "conquest:blocks/brickextremehills",
        "side": "conquest:blocks/brickextremehills_sides"
    }
}