{
    "parent": "conquest:block/anvil_body",
    "textures": {
        "particle": "conquest:blocks/brickbirchforest_sides",
        "body": "conquest:blocks/brickbirchforest_sides",
        "top": "conquest:blocks/brickbirchforest_sides"
    }
}