{
    "parent": "conquest:block/anvil_base",
    "textures": {
        "particle": "conquest:blocks/brick1extremehills_sides",
        "body": "conquest:blocks/brick1extremehills_sides",
        "top": "conquest:blocks/brick1extremehills"
    }
}