{
"parent": "block/parent_arch",
"textures": {
    "texture": "conquest:blocks/diorite_brick",
    "edge": "conquest:blocks/diorite_brick",
    "side": "conquest:blocks/diorite_brick",
    "side_alt": "conquest:blocks/diorite_brick"
}
}