
{
    "parent": "block/stairs",
    "textures": {
        "bottom": "conquest:blocks/brickstairs8",
        "top": "conquest:blocks/brickstairs8",
        "side": "conquest:blocks/brickstairs8"
    }
}