{
    "parent": "block/anvil",
    "textures": {
        "particle": "conquest:blocks/brick1birchforest_sides",
        "body": "conquest:blocks/brick1birchforest_sides",
        "top": "conquest:blocks/brick1birchforest"
    }
}
