{
    "parent": "conquest:block/anvil_body",
    "textures": {
        "particle": "conquest:blocks/brick1_sides",
        "body": "conquest:blocks/brick1_sides",
        "top": "conquest:blocks/brick1"
    }
}