{
"parent": "block/parent_slit",
"textures": {
        "bottom": "conquest:blocks/roman_brick_dark",
        "side": "conquest:blocks/roman_brick_dark",
		"top": "conquest:blocks/roman_brick_dark"
    }
}