{
    "parent": "block/anvil",
    "textures": {
        "particle": "conquest:blocks/brickextremehills_sides",
        "body": "conquest:blocks/brickextremehills_sides",
        "top": "conquest:blocks/brickextremehills"
    }
}
