{
    "parent": "block/stairs",
    "textures": {
        "bottom": "conquest:blocks/roman_brick_vertical",
        "top": "conquest:blocks/roman_brick_vertical",
        "side": "conquest:blocks/roman_brick_vertical"
    }
}
