{
    "parent": "conquest:block/anvil_base",
    "textures": {
        "particle": "conquest:blocks/diorite_brick",
        "body": "conquest:blocks/diorite_brick",
        "top": "conquest:blocks/diorite_brick"
    }
}