
{
    "parent": "block/outer_stairs",
    "textures": {
        "bottom": "conquest:blocks/brickstairsextremehills",
        "top": "conquest:blocks/brickstairsextremehills",
        "side": "conquest:blocks/brickstairsextremehills_sides"
    }
}