{
"parent": "block/parent_corner",
"textures": {
    "texture": "conquest:blocks/brick1birchforest_sides",
	"top": "conquest:blocks/brick1birchforest",
	"bottom": "conquest:blocks/brick1birchforest"
}
}