{
"parent": "block/parent_slit",
"textures": {
        "bottom": "conquest:blocks/brick1extremehills",
        "side": "conquest:blocks/brick1extremehills_sides",
		"top": "conquest:blocks/brick1extremehills"
    }
}