{
"parent": "block/parent_verticalslab",
"textures": {
    "texture": "conquest:blocks/brick1extremehills_sides",
	"top": "conquest:blocks/brick1extremehills",
	"bottom": "conquest:blocks/brick1extremehills"
	}
}	