{
"parent": "block/parent_arch",
"textures": {
    "texture": "conquest:blocks/goldblock2",
    "edge": "conquest:blocks/goldblock2",
    "side": "conquest:blocks/goldblock2",
    "side_alt": "conquest:blocks/goldblock2"
}
}