{
    "parent": "block/wall_ns_above_topbottom",
    "textures": {
        "wall": "conquest:blocks/roman_column_blue_capital_marble",
        "top": "conquest:blocks/roman_capital_marble_top",
        "bottom": "conquest:blocks/roman_column_blue_top"
    }
}
