{
    "parent": "block/wall_ns_topbottom",
    "textures": {
        "wall": "conquest:blocks/roman_column_gold_capital_sandstone",
        "top": "conquest:blocks/roman_capital_sandstone_top",
        "bottom": "conquest:blocks/roman_column_gold_top"
    }
}
