{
    "parent": "block/wall_nse_topbottom",
    "textures": {
        "wall": "conquest:blocks/roman_column_red_capital_sandstone",
      "top": "conquest:blocks/roman_capital_sandstone_top",
      "bottom": "conquest:blocks/roman_column_red_top"
    }
}
