{
"parent": "block/parent_corner",
"textures": {
    "texture": "conquest:blocks/roman_corinthian_capital",
	"top": "conquest:blocks/roman_capital_marble_top",
	"bottom": "conquest:blocks/roman_capital_marble_top"
}
}