{
"parent": "block/parent_verticalslab",
"textures": {
    "texture": "conquest:blocks/roman_column_red_capital_marble",
	"top": "conquest:blocks/roman_capital_marble_top",
	"bottom": "conquest:blocks/roman_column_red_top"
	}
}	