{
    "parent": "block/wall_ns_topbottom",
    "textures": {
        "wall": "conquest:blocks/roman_column_marble_capital",
      "top": "conquest:blocks/roman_capital_marble_top",
      "bottom": "conquest:blocks/roman_column_marble_top"
    }
}
