{
    "parent": "block/outer_stairs",
    "textures": {
        "bottom": "conquest:blocks/mossystone3",
        "top": "conquest:blocks/mossystone3",
        "side": "conquest:blocks/mossystone3"
    }
}
