
{
    "parent": "block/stairs",
    "textures": {
        "bottom": "blocks/hardened_clay_stained_lime",
        "top": "blocks/hardened_clay_stained_lime",
        "side": "blocks/hardened_clay_stained_lime"
    }
}