{
    "parent": "block/anvil",
    "textures": {
        "particle": "conquest:blocks/cobblestone_dark",
        "body": "conquest:blocks/cobblestone_dark",
        "top": "conquest:blocks/cobblestone_dark"
    }
}
