{
"parent": "block/parent_verticalslab",
"textures": {
    "texture": "conquest:blocks/mossystone4_sides",
	"top": "conquest:blocks/mossystone4_sides",
	"bottom": "conquest:blocks/mossystone4_sides"
	}
}	