{
"parent": "block/parent_arch",
"textures": {
    "texture": "conquest:blocks/cobble2",
    "edge": "conquest:blocks/cobble2",
    "side": "conquest:blocks/cobble2",
    "side_alt": "conquest:blocks/cobble2"
}
}