{
    "parent": "conquest:block/anvil_body",
    "textures": {
        "particle": "conquest:blocks/cobblestone_dark",
        "body": "conquest:blocks/cobblestone_dark",
        "top": "conquest:blocks/cobblestone_dark"
    }
}