{
    "parent": "block/outer_stairs",
    "textures": {
        "bottom": "conquest:blocks/cobble8_sides",
        "top": "conquest:blocks/cobble8_sides",
        "side": "conquest:blocks/cobble8_sides"
    }
}
