
{
    "parent": "block/inner_stairs",
    "textures": {
        "bottom": "blocks/hardened_clay_stained_green",
        "top": "blocks/hardened_clay_stained_green",
        "side": "blocks/hardened_clay_stained_green"
    }
}