{
    "parent": "conquest:block/anvil_base",
    "textures": {
        "particle": "conquest:blocks/cobble8_sides",
        "body": "conquest:blocks/cobble8_sides",
        "top": "conquest:blocks/cobble8_sides"
    }
}