{
    "parent": "block/anvil",
    "textures": {
        "particle": "conquest:blocks/mossystone1",
        "body": "conquest:blocks/mossystone1",
        "top": "conquest:blocks/mossystone1"
    }
}
