{
    "parent": "conquest:block/anvil_base",
    "textures": {
        "particle": "conquest:blocks/mossystone3",
        "body": "conquest:blocks/mossystone3",
        "top": "conquest:blocks/mossystone3"
    }
}