{
    "parent": "block/wall_post_topbottom",
    "textures": {
        "wall": "conquest:blocks/roman_column_blue",
      "top": "conquest:blocks/roman_column_blue_top",
      "bottom": "conquest:blocks/roman_column_blue_top"
    }
}
