{
"parent": "block/parent_verticalslab",
"textures": {
    "texture": "conquest:blocks/roman_column_blue",
	"top": "conquest:blocks/roman_column_blue_top",
	"bottom": "conquest:blocks/roman_column_blue_top"
	}
}	