{
"parent": "block/parent_corner",
"textures": {
    "texture": "conquest:blocks/roman_cornice_sandstone",
	"top": "conquest:blocks/roman_capital_sandstone_top",
	"bottom": "conquest:blocks/roman_capital_sandstone_top"
}
}