{
    "parent": "block/wall_nse_topbottom",
    "textures": {
        "wall": "conquest:blocks/roman_cornice",
        "top": "conquest:blocks/roman_capital_marble_top",
        "bottom": "conquest:blocks/roman_capital_marble_top"
    }
}
