{
    "parent": "block/parent_hopper_down_topbottom",
    "textures": {
        "side": "conquest:blocks/roman_cornice",
        "top": "conquest:blocks/roman_capital_marble_top",
        "bottom": "conquest:blocks/roman_capital_marble_top"
    }
}
