{
    "parent": "block/anvil_body",
    "textures": {
        "particle": "blocks/stone_diorite_smooth",
        "body": "blocks/stone_diorite_smooth",
        "top": "blocks/stone_diorite_smooth"
    }
}