{
    "parent": "block/orientable",
    "textures": {
        "top": "conquest:blocks/dispenserriver_top",
        "front": "conquest:blocks/dispenserriver_front_horizontal",
        "side": "conquest:blocks/dispenserriver_side"
    }
}
