{
    "parent": "block/block",
    "ambientocclusion": false,
    "textures": {
        "particle": "conquest:blocks/endportal12_side",
        "bottom": "conquest:blocks/endportal12_stone",
        "top": "conquest:blocks/endportal12_top",
        "side": "conquest:blocks/endportal12_side",
        "side2": "conquest:blocks/endportal12_side2"
    },
    "elements": [
        {   "from": [ 0, 0, 0 ],
            "to": [ 16, 13, 16 ],
            "faces": {
                "down":  { "uv": [ 0, 0, 16, 16 ], "texture": "#bottom" },
                "up":    { "uv": [ 0, 0, 16, 16 ], "texture": "#top" },
                "north": { "uv": [ 0, 3, 16, 16 ], "texture": "#side" },
                "south": { "uv": [ 0, 3, 16, 16 ], "texture": "#side" },
                "west":  { "uv": [ 0, 3, 16, 16 ], "texture": "#side2" },
                "east":  { "uv": [ 0, 3, 16, 16 ], "texture": "#side2" }
            }
        }
    ]
}
