
{
    "parent": "block/cube_bottom_top",
    "textures": {
        "bottom": "conquest:blocks/endstone8_top",
        "top": "conquest:blocks/endstone8_top",
        "side": "conquest:blocks/endstone8"
    }
}