{
"__comment": "3D Mesh designed with BDcraft Cubik - Version PRO 0.65 Beta",
"parent": "block/block",
"ambientocclusion": true,
"textures": {
    "particle": "blocks/dirt",
    "down": "blocks/dirt",
    "up": "conquest:blocks/farmland_diagonal",
    "north": "blocks/dirt",
    "south": "blocks/dirt",
    "west": "blocks/dirt",
    "east": "blocks/dirt"
},
"elements": [ 
{
    "__comment": "Center*",
    "from": [ 0, 0, 0 ],
    "to": [ 16, 14.5, 16 ],
    "faces": {
        "down":  { "uv": [ 16, 16, 0, 0 ], "texture": "#down" },
        "up":    { "uv": [ 0, 0, 16, 16 ], "texture": "#up" },
        "north": { "uv": [ 0, 1.5, 16, 16 ], "texture": "#north" },
        "south": { "uv": [ 0, 1.5, 16, 16 ], "texture": "#south" },
        "west":  { "uv": [ 0, 1.5, 16, 16 ], "texture": "#west" },
        "east":  { "uv": [ 0, 1.5, 16, 16 ], "texture": "#east" }
    }
},
{
    "__comment": "Layer1",
    "from": [ 0, 14.5, 0 ],
    "to": [ 2.5, 15, 4 ],
    "shade": false,
    "faces": {
        "up":    { "uv": [ 0, 0, 2.5, 4 ], "texture": "#up" },
        "north": { "uv": [ 13.5, 1, 16, 1.5 ], "texture": "#north" },
        "south": { "uv": [ 0, 1, 2.5, 1.5 ], "texture": "#south" },
        "west":  { "uv": [ 0, 1, 4, 1.5 ], "texture": "#west" },
        "east":  { "uv": [ 12, 1, 16, 1.5 ], "texture": "#east" }
    }
},
{
    "__comment": "Layer1",
    "from": [ 1.5, 14.5, 1.5 ],
    "to": [ 5, 15, 5 ],
    "shade": false,
    "faces": {
        "up":    { "uv": [ 1.5, 1.5, 5, 5 ], "texture": "#up" },
        "north": { "uv": [ 11, 1, 14.5, 1.5 ], "texture": "#north" },
        "south": { "uv": [ 1.5, 1, 5, 1.5 ], "texture": "#south" },
        "west":  { "uv": [ 1.5, 1, 5, 1.5 ], "texture": "#west" },
        "east":  { "uv": [ 11, 1, 14.5, 1.5 ], "texture": "#east" }
    }
},
{
    "__comment": "Layer1",
    "from": [ 3, 14.5, 4 ],
    "to": [ 6.5, 15, 6.5 ],
    "shade": false,
    "faces": {
        "up":    { "uv": [ 3, 4, 6.5, 6.5 ], "texture": "#up" },
        "north": { "uv": [ 9.5, 1, 13, 1.5 ], "texture": "#north" },
        "south": { "uv": [ 3, 1, 6.5, 1.5 ], "texture": "#south" },
        "west":  { "uv": [ 4, 1, 6.5, 1.5 ], "texture": "#west" },
        "east":  { "uv": [ 9.5, 1, 12, 1.5 ], "texture": "#east" }
    }
},
{
    "__comment": "Layer1",
    "from": [ 4.5, 14.5, 5 ],
    "to": [ 8, 15, 7.5 ],
    "shade": false,
    "faces": {
        "up":    { "uv": [ 4.5, 5, 8, 7.5 ], "texture": "#up" },
        "north": { "uv": [ 8, 1, 11.5, 1.5 ], "texture": "#north" },
        "south": { "uv": [ 4.5, 1, 8, 1.5 ], "texture": "#south" },
        "west":  { "uv": [ 5, 1, 7.5, 1.5 ], "texture": "#west" },
        "east":  { "uv": [ 8.5, 1, 11, 1.5 ], "texture": "#east" }
    }
},
{
    "__comment": "Layer1",
    "from": [ 6, 14.5, 6.5 ],
    "to": [ 9, 15, 9 ],
    "shade": false,
    "faces": {
        "up":    { "uv": [ 6, 6.5, 9, 9 ], "texture": "#up" },
        "north": { "uv": [ 7, 1, 10, 1.5 ], "texture": "#north" },
        "south": { "uv": [ 6, 1, 9, 1.5 ], "texture": "#south" },
        "west":  { "uv": [ 6.5, 1, 9, 1.5 ], "texture": "#west" },
        "east":  { "uv": [ 7, 1, 9.5, 1.5 ], "texture": "#east" }
    }
},
{
    "__comment": "Layer1",
    "from": [ 7.5, 14.5, 7.5 ],
    "to": [ 10.5, 15, 10 ],
    "shade": false,
    "faces": {
        "up":    { "uv": [ 7.5, 7.5, 10.5, 10 ], "texture": "#up" },
        "north": { "uv": [ 5.5, 1, 8.5, 1.5 ], "texture": "#north" },
        "south": { "uv": [ 7.5, 1, 10.5, 1.5 ], "texture": "#south" },
        "west":  { "uv": [ 7.5, 1, 10, 1.5 ], "texture": "#west" },
        "east":  { "uv": [ 6, 1, 8.5, 1.5 ], "texture": "#east" }
    }
},
{
    "__comment": "Layer1",
    "from": [ 8.5, 14.5, 9 ],
    "to": [ 11.5, 15, 11.5 ],
    "shade": false,
    "faces": {
        "up":    { "uv": [ 8.5, 9, 11.5, 11.5 ], "texture": "#up" },
        "north": { "uv": [ 4.5, 1, 7.5, 1.5 ], "texture": "#north" },
        "south": { "uv": [ 8.5, 1, 11.5, 1.5 ], "texture": "#south" },
        "west":  { "uv": [ 9, 1, 11.5, 1.5 ], "texture": "#west" },
        "east":  { "uv": [ 4.5, 1, 7, 1.5 ], "texture": "#east" }
    }
},
{
    "__comment": "Layer1",
    "from": [ 10, 14.5, 10.5 ],
    "to": [ 13, 15, 13.5 ],
    "shade": false,
    "faces": {
        "up":    { "uv": [ 10, 10.5, 13, 13.5 ], "texture": "#up" },
        "north": { "uv": [ 3, 1, 6, 1.5 ], "texture": "#north" },
        "south": { "uv": [ 10, 1, 13, 1.5 ], "texture": "#south" },
        "west":  { "uv": [ 10.5, 1, 13.5, 1.5 ], "texture": "#west" },
        "east":  { "uv": [ 2.5, 1, 5.5, 1.5 ], "texture": "#east" }
    }
},
{
    "__comment": "Layer1",
    "from": [ 12.5, 14.5, 12 ],
    "to": [ 14.5, 15, 15 ],
    "shade": false,
    "faces": {
        "up":    { "uv": [ 12.5, 12, 14.5, 15 ], "texture": "#up" },
        "north": { "uv": [ 1.5, 1, 3.5, 1.5 ], "texture": "#north" },
        "south": { "uv": [ 12.5, 1, 14.5, 1.5 ], "texture": "#south" },
        "west":  { "uv": [ 12, 1, 15, 1.5 ], "texture": "#west" },
        "east":  { "uv": [ 1, 1, 4, 1.5 ], "texture": "#east" }
    }
},
{
    "__comment": "Layer1",
    "from": [ 13, 14.5, 13 ],
    "to": [ 16, 15, 16 ],
    "shade": false,
    "faces": {
        "up":    { "uv": [ 13, 13, 16, 16 ], "texture": "#up" },
        "north": { "uv": [ 0, 1, 3, 1.5 ], "texture": "#north" },
        "south": { "uv": [ 13, 1, 16, 1.5 ], "texture": "#south" },
        "west":  { "uv": [ 13, 1, 16, 1.5 ], "texture": "#west" },
        "east":  { "uv": [ 0, 1, 3, 1.5 ], "texture": "#east" }
    }
},
{
    "__comment": "Layer1",
    "from": [ 2.5, 14.5, 0.5 ],
    "to": [ 3.5, 15, 1.5 ],
    "shade": false,
    "faces": {
        "up":    { "uv": [ 2.5, 0.5, 3.5, 1.5 ], "texture": "#up" },
        "north": { "uv": [ 12.5, 1, 13.5, 1.5 ], "texture": "#north" },
        "east":  { "uv": [ 14.5, 1, 15.5, 1.5 ], "texture": "#east" }
    }
},
{
    "__comment": "Layer1",
    "from": [ 13, 14.5, 0 ],
    "to": [ 16, 15, 1 ],
    "shade": false,
    "faces": {
        "up":    { "uv": [ 13, 0, 16, 1 ], "texture": "#up" },
        "north": { "uv": [ 0, 1, 3, 1.5 ], "texture": "#north" },
        "south": { "uv": [ 13, 1, 16, 1.5 ], "texture": "#south" },
        "west":  { "uv": [ 0, 1, 1, 1.5 ], "texture": "#west" },
        "east":  { "uv": [ 15, 1, 16, 1.5 ], "texture": "#east" }
    }
},
{
    "__comment": "Layer1",
    "from": [ 14.5, 14.5, 1 ],
    "to": [ 16, 15, 2.5 ],
    "shade": false,
    "faces": {
        "up":    { "uv": [ 14.5, 1, 16, 2.5 ], "texture": "#up" },
        "south": { "uv": [ 14.5, 1, 16, 1.5 ], "texture": "#south" },
        "west":  { "uv": [ 1, 1, 2.5, 1.5 ], "texture": "#west" },
        "east":  { "uv": [ 13.5, 1, 15, 1.5 ], "texture": "#east" }
    }
},
{
    "__comment": "Layer1",
    "from": [ 15, 14.5, 2.5 ],
    "to": [ 16, 15, 3.5 ],
    "shade": false,
    "faces": {
        "up":    { "uv": [ 15, 2.5, 16, 3.5 ], "texture": "#up" },
        "south": { "uv": [ 15, 1, 16, 1.5 ], "texture": "#south" },
        "west":  { "uv": [ 2.5, 1, 3.5, 1.5 ], "texture": "#west" },
        "east":  { "uv": [ 12.5, 1, 13.5, 1.5 ], "texture": "#east" }
    }
},
{
    "__comment": "Layer1",
    "from": [ 0, 14.5, 14.5 ],
    "to": [ 2.5, 15, 16 ],
    "shade": false,
    "faces": {
        "up":    { "uv": [ 0, 14.5, 2.5, 16 ], "texture": "#up" },
        "north": { "uv": [ 13.5, 1, 16, 1.5 ], "texture": "#north" },
        "south": { "uv": [ 0, 1, 2.5, 1.5 ], "texture": "#south" },
        "west":  { "uv": [ 14.5, 1, 16, 1.5 ], "texture": "#west" },
        "east":  { "uv": [ 0, 1, 1.5, 1.5 ], "texture": "#east" }
    }
},
{
    "__comment": "Layer1",
    "from": [ 0, 14.5, 13.5 ],
    "to": [ 1, 15, 14.5 ],
    "shade": false,
    "faces": {
        "up":    { "uv": [ 0, 13.5, 1, 14.5 ], "texture": "#up" },
        "north": { "uv": [ 15, 1, 16, 1.5 ], "texture": "#north" },
        "west":  { "uv": [ 13.5, 1, 14.5, 1.5 ], "texture": "#west" },
        "east":  { "uv": [ 1.5, 1, 2.5, 1.5 ], "texture": "#east" }
    }
},
{
    "__comment": "Layer1",
    "from": [ 4.5, 14.5, 15 ],
    "to": [ 9.5, 15, 16 ],
    "shade": false,
    "faces": {
        "up":    { "uv": [ 4.5, 15, 9.5, 16 ], "texture": "#up" },
        "north": { "uv": [ 6.5, 1, 11.5, 1.5 ], "texture": "#north" },
        "south": { "uv": [ 4.5, 1, 9.5, 1.5 ], "texture": "#south" },
        "west":  { "uv": [ 15, 1, 16, 1.5 ], "texture": "#west" },
        "east":  { "uv": [ 0, 1, 1, 1.5 ], "texture": "#east" }
    }
},
{
    "__comment": "Layer1",
    "from": [ 4, 14.5, 14 ],
    "to": [ 8.5, 15, 15 ],
    "shade": false,
    "faces": {
        "up":    { "uv": [ 4, 14, 8.5, 15 ], "texture": "#up" },
        "north": { "uv": [ 7.5, 1, 12, 1.5 ], "texture": "#north" },
        "south": { "uv": [ 4, 1, 8.5, 1.5 ], "texture": "#south" },
        "west":  { "uv": [ 14, 1, 15, 1.5 ], "texture": "#west" },
        "east":  { "uv": [ 1, 1, 2, 1.5 ], "texture": "#east" }
    }
},
{
    "__comment": "Layer1",
    "from": [ 1, 14.5, 8.5 ],
    "to": [ 3.5, 15, 11.5 ],
    "shade": false,
    "faces": {
        "up":    { "uv": [ 1, 8.5, 3.5, 11.5 ], "texture": "#up" },
        "north": { "uv": [ 12.5, 1, 15, 1.5 ], "texture": "#north" },
        "south": { "uv": [ 1, 1, 3.5, 1.5 ], "texture": "#south" },
        "west":  { "uv": [ 8.5, 1, 11.5, 1.5 ], "texture": "#west" },
        "east":  { "uv": [ 4.5, 1, 7.5, 1.5 ], "texture": "#east" }
    }
},
{
    "__comment": "Layer1",
    "from": [ 0, 14.5, 6.5 ],
    "to": [ 1, 15, 10 ],
    "shade": false,
    "faces": {
        "up":    { "uv": [ 0, 6.5, 1, 10 ], "texture": "#up" },
        "north": { "uv": [ 15, 1, 16, 1.5 ], "texture": "#north" },
        "south": { "uv": [ 0, 1, 1, 1.5 ], "texture": "#south" },
        "west":  { "uv": [ 6.5, 1, 10, 1.5 ], "texture": "#west" },
        "east":  { "uv": [ 6, 1, 9.5, 1.5 ], "texture": "#east" }
    }
},
{
    "__comment": "Layer1",
    "from": [ 2.5, 14.5, 9.5 ],
    "to": [ 5, 15, 13 ],
    "shade": false,
    "faces": {
        "up":    { "uv": [ 2.5, 9.5, 5, 13 ], "texture": "#up" },
        "north": { "uv": [ 11, 1, 13.5, 1.5 ], "texture": "#north" },
        "south": { "uv": [ 2.5, 1, 5, 1.5 ], "texture": "#south" },
        "west":  { "uv": [ 9.5, 1, 13, 1.5 ], "texture": "#west" },
        "east":  { "uv": [ 3, 1, 6.5, 1.5 ], "texture": "#east" }
    }
},
{
    "__comment": "Layer1",
    "from": [ 4, 14.5, 12.5 ],
    "to": [ 7, 15, 14 ],
    "shade": false,
    "faces": {
        "up":    { "uv": [ 4, 12.5, 7, 14 ], "texture": "#up" },
        "north": { "uv": [ 9, 1, 12, 1.5 ], "texture": "#north" },
        "west":  { "uv": [ 12.5, 1, 14, 1.5 ], "texture": "#west" },
        "east":  { "uv": [ 2, 1, 3.5, 1.5 ], "texture": "#east" }
    }
},
{
    "__comment": "Layer1",
    "from": [ 5, 14.5, 11 ],
    "to": [ 6, 15, 12.5 ],
    "shade": false,
    "faces": {
        "up":    { "uv": [ 5, 11, 6, 12.5 ], "texture": "#up" },
        "north": { "uv": [ 10, 1, 11, 1.5 ], "texture": "#north" },
        "east":  { "uv": [ 3.5, 1, 5, 1.5 ], "texture": "#east" }
    }
},
{
    "__comment": "Layer1",
    "from": [ 1, 14.5, 7.5 ],
    "to": [ 2, 15, 8.5 ],
    "shade": false,
    "faces": {
        "up":    { "uv": [ 1, 7.5, 2, 8.5 ], "texture": "#up" },
        "north": { "uv": [ 14, 1, 15, 1.5 ], "texture": "#north" },
        "east":  { "uv": [ 7.5, 1, 8.5, 1.5 ], "texture": "#east" }
    }
},
{
    "__comment": "Layer1",
    "from": [ 15, 14.5, 6 ],
    "to": [ 16, 15, 9 ],
    "shade": false,
    "faces": {
        "up":    { "uv": [ 15, 6, 16, 9 ], "texture": "#up" },
        "north": { "uv": [ 0, 1, 1, 1.5 ], "texture": "#north" },
        "south": { "uv": [ 15, 1, 16, 1.5 ], "texture": "#south" },
        "west":  { "uv": [ 6, 1, 9, 1.5 ], "texture": "#west" },
        "east":  { "uv": [ 7, 1, 10, 1.5 ], "texture": "#east" }
    }
},
{
    "__comment": "Layer1",
    "from": [ 13.5, 14.5, 4.5 ],
    "to": [ 15, 15, 8 ],
    "shade": false,
    "faces": {
        "up":    { "uv": [ 13.5, 4.5, 15, 8 ], "texture": "#up" },
        "north": { "uv": [ 1, 1, 2.5, 1.5 ], "texture": "#north" },
        "south": { "uv": [ 13.5, 1, 15, 1.5 ], "texture": "#south" },
        "west":  { "uv": [ 4.5, 1, 8, 1.5 ], "texture": "#west" },
        "east":  { "uv": [ 8, 1, 11.5, 1.5 ], "texture": "#east" }
    }
},
{
    "__comment": "Layer1",
    "from": [ 11.5, 14.5, 3 ],
    "to": [ 13.5, 15, 6.5 ],
    "shade": false,
    "faces": {
        "up":    { "uv": [ 11.5, 3, 13.5, 6.5 ], "texture": "#up" },
        "north": { "uv": [ 2.5, 1, 4.5, 1.5 ], "texture": "#north" },
        "south": { "uv": [ 11.5, 1, 13.5, 1.5 ], "texture": "#south" },
        "west":  { "uv": [ 3, 1, 6.5, 1.5 ], "texture": "#west" },
        "east":  { "uv": [ 9.5, 1, 13, 1.5 ], "texture": "#east" }
    }
},
{
    "__comment": "Layer1",
    "from": [ 10, 14.5, 1 ],
    "to": [ 12, 15, 5.5 ],
    "shade": false,
    "faces": {
        "up":    { "uv": [ 10, 1, 12, 5.5 ], "texture": "#up" },
        "north": { "uv": [ 4, 1, 6, 1.5 ], "texture": "#north" },
        "south": { "uv": [ 10, 1, 12, 1.5 ], "texture": "#south" },
        "west":  { "uv": [ 1, 1, 5.5, 1.5 ], "texture": "#west" },
        "east":  { "uv": [ 10.5, 1, 15, 1.5 ], "texture": "#east" }
    }
},
{
    "__comment": "Layer1",
    "from": [ 8.5, 14.5, 1 ],
    "to": [ 11.5, 15, 4 ],
    "shade": false,
    "faces": {
        "up":    { "uv": [ 8.5, 1, 11.5, 4 ], "texture": "#up" },
        "north": { "uv": [ 4.5, 1, 7.5, 1.5 ], "texture": "#north" },
        "south": { "uv": [ 8.5, 1, 11.5, 1.5 ], "texture": "#south" },
        "west":  { "uv": [ 1, 1, 4, 1.5 ], "texture": "#west" },
        "east":  { "uv": [ 12, 1, 15, 1.5 ], "texture": "#east" }
    }
},
{
    "__comment": "Layer1",
    "from": [ 6, 14.5, 0 ],
    "to": [ 11, 15, 1 ],
    "shade": false,
    "faces": {
        "up":    { "uv": [ 6, 0, 11, 1 ], "texture": "#up" },
        "north": { "uv": [ 5, 1, 10, 1.5 ], "texture": "#north" },
        "south": { "uv": [ 6, 1, 11, 1.5 ], "texture": "#south" },
        "west":  { "uv": [ 0, 1, 1, 1.5 ], "texture": "#west" },
        "east":  { "uv": [ 15, 1, 16, 1.5 ], "texture": "#east" }
    }
},
{
    "__comment": "Layer1",
    "from": [ 7.5, 14.5, 1 ],
    "to": [ 8.5, 15, 2 ],
    "shade": false,
    "faces": {
        "up":    { "uv": [ 7.5, 1, 8.5, 2 ], "texture": "#up" },
        "south": { "uv": [ 7.5, 1, 8.5, 1.5 ], "texture": "#south" },
        "west":  { "uv": [ 1, 1, 2, 1.5 ], "texture": "#west" }
    }
},
{
    "from": [ 0, 15, 0 ],
    "to": [ 2, 15.5, 2 ],
    "shade": false,
    "faces": {
        "up":    { "uv": [ 0, 0, 2, 2 ], "texture": "#up" },
        "north": { "uv": [ 14, 0.5, 16, 1 ], "texture": "#north" },
        "south": { "uv": [ 0, 0.5, 2, 1 ], "texture": "#south" },
        "west":  { "uv": [ 0, 0.5, 2, 1 ], "texture": "#west" },
        "east":  { "uv": [ 14, 0.5, 16, 1 ], "texture": "#east" }
    }
},
{
    "from": [ 1, 15, 2 ],
    "to": [ 3.5, 15.5, 3.5 ],
    "shade": false,
    "faces": {
        "down":  { "uv": [ 15, 3.5, 12.5, 2 ], "texture": "#down" },
        "up":    { "uv": [ 1, 2, 3.5, 3.5 ], "texture": "#up" },
        "north": { "uv": [ 12.5, 0.5, 15, 1 ], "texture": "#north" },
        "south": { "uv": [ 1, 0.5, 3.5, 1 ], "texture": "#south" },
        "west":  { "uv": [ 2, 0.5, 3.5, 1 ], "texture": "#west" },
        "east":  { "uv": [ 12.5, 0.5, 14, 1 ], "texture": "#east" }
    }
},
{
    "from": [ 5, 15, 5 ],
    "to": [ 6, 15.5, 6 ],
    "shade": false,
    "faces": {
        "up":    { "uv": [ 5, 5, 6, 6 ], "texture": "#up" },
        "north": { "uv": [ 10, 0.5, 11, 1 ], "texture": "#north" },
        "south": { "uv": [ 5, 0.5, 6, 1 ], "texture": "#south" },
        "west":  { "uv": [ 5, 0.5, 6, 1 ], "texture": "#west" },
        "east":  { "uv": [ 10, 0.5, 11, 1 ], "texture": "#east" }
    }
},
{
    "from": [ 6, 15, 5.5 ],
    "to": [ 7, 15.5, 7.5 ],
    "shade": false,
    "faces": {
        "up":    { "uv": [ 6, 5.5, 7, 7.5 ], "texture": "#up" },
        "north": { "uv": [ 9, 0.5, 10, 1 ], "texture": "#north" },
        "south": { "uv": [ 6, 0.5, 7, 1 ], "texture": "#south" },
        "west":  { "uv": [ 5.5, 0.5, 7.5, 1 ], "texture": "#west" },
        "east":  { "uv": [ 8.5, 0.5, 10.5, 1 ], "texture": "#east" }
    }
},
{
    "from": [ 14.5, 15, 14.5 ],
    "to": [ 16, 15.5, 16 ],
    "shade": false,
    "faces": {
        "up":    { "uv": [ 14.5, 14.5, 16, 16 ], "texture": "#up" },
        "north": { "uv": [ 0, 0.5, 1.5, 1 ], "texture": "#north" },
        "south": { "uv": [ 14.5, 0.5, 16, 1 ], "texture": "#south" },
        "west":  { "uv": [ 14.5, 0.5, 16, 1 ], "texture": "#west" },
        "east":  { "uv": [ 0, 0.5, 1.5, 1 ], "texture": "#east" }
    }
},
{
    "from": [ 13, 15, 13 ],
    "to": [ 14, 15.5, 14 ],
    "shade": false,
    "faces": {
        "up":    { "uv": [ 13, 13, 14, 14 ], "texture": "#up" },
        "north": { "uv": [ 2, 0.5, 3, 1 ], "texture": "#north" },
        "south": { "uv": [ 13, 0.5, 14, 1 ], "texture": "#south" },
        "west":  { "uv": [ 13, 0.5, 14, 1 ], "texture": "#west" },
        "east":  { "uv": [ 2, 0.5, 3, 1 ], "texture": "#east" }
    }
},
{
    "from": [ 11.5, 15, 11.5 ],
    "to": [ 13, 15.5, 13 ],
    "shade": false,
    "faces": {
        "up":    { "uv": [ 11.5, 11.5, 13, 13 ], "texture": "#up" },
        "north": { "uv": [ 3, 0.5, 4.5, 1 ], "texture": "#north" },
        "south": { "uv": [ 11.5, 0.5, 13, 1 ], "texture": "#south" },
        "west":  { "uv": [ 11.5, 0.5, 13, 1 ], "texture": "#west" },
        "east":  { "uv": [ 3, 0.5, 4.5, 1 ], "texture": "#east" }
    }
},
{
    "from": [ 10.5, 15, 10.5 ],
    "to": [ 11.5, 15.5, 12 ],
    "shade": false,
    "faces": {
        "up":    { "uv": [ 10.5, 10.5, 11.5, 12 ], "texture": "#up" },
        "north": { "uv": [ 4.5, 0.5, 5.5, 1 ], "texture": "#north" },
        "south": { "uv": [ 10.5, 0.5, 11.5, 1 ], "texture": "#south" },
        "west":  { "uv": [ 10.5, 0.5, 12, 1 ], "texture": "#west" },
        "east":  { "uv": [ 4, 0.5, 5.5, 1 ], "texture": "#east" }
    }
},
{
    "from": [ 8, 15, 8 ],
    "to": [ 9.5, 15.5, 9.5 ],
    "shade": false,
    "faces": {
        "up":    { "uv": [ 8, 8, 9.5, 9.5 ], "texture": "#up" },
        "north": { "uv": [ 6.5, 0.5, 8, 1 ], "texture": "#north" },
        "south": { "uv": [ 8, 0.5, 9.5, 1 ], "texture": "#south" },
        "west":  { "uv": [ 8, 0.5, 9.5, 1 ], "texture": "#west" },
        "east":  { "uv": [ 6.5, 0.5, 8, 1 ], "texture": "#east" }
    }
},
{
    "from": [ 7, 15, 7 ],
    "to": [ 8, 15.5, 8.5 ],
    "shade": false,
    "faces": {
        "up":    { "uv": [ 7, 7, 8, 8.5 ], "texture": "#up" },
        "north": { "uv": [ 8, 0.5, 9, 1 ], "texture": "#north" },
        "south": { "uv": [ 7, 0.5, 8, 1 ], "texture": "#south" },
        "west":  { "uv": [ 7, 0.5, 8.5, 1 ], "texture": "#west" },
        "east":  { "uv": [ 7.5, 0.5, 9, 1 ], "texture": "#east" }
    }
},
{
    "from": [ 0, 15, 7.5 ],
    "to": [ 1, 15.5, 9.5 ],
    "shade": false,
    "faces": {
        "up":    { "uv": [ 0, 7.5, 1, 9.5 ], "texture": "#up" },
        "north": { "uv": [ 15, 0.5, 16, 1 ], "texture": "#north" },
        "south": { "uv": [ 0, 0.5, 1, 1 ], "texture": "#south" },
        "west":  { "uv": [ 7.5, 0.5, 9.5, 1 ], "texture": "#west" },
        "east":  { "uv": [ 6.5, 0.5, 8.5, 1 ], "texture": "#east" }
    }
},
{
    "from": [ 1, 15, 8.5 ],
    "to": [ 2.5, 15.5, 10 ],
    "shade": false,
    "faces": {
        "up":    { "uv": [ 1, 8.5, 2.5, 10 ], "texture": "#up" },
        "north": { "uv": [ 13.5, 0.5, 15, 1 ], "texture": "#north" },
        "south": { "uv": [ 1, 0.5, 2.5, 1 ], "texture": "#south" },
        "west":  { "uv": [ 8.5, 0.5, 10, 1 ], "texture": "#west" },
        "east":  { "uv": [ 6, 0.5, 7.5, 1 ], "texture": "#east" }
    }
},
{
    "from": [ 2.5, 15, 10 ],
    "to": [ 4, 15.5, 11.5 ],
    "shade": false,
    "faces": {
        "up":    { "uv": [ 2.5, 10, 4, 11.5 ], "texture": "#up" },
        "north": { "uv": [ 12, 0.5, 13.5, 1 ], "texture": "#north" },
        "south": { "uv": [ 2.5, 0.5, 4, 1 ], "texture": "#south" },
        "west":  { "uv": [ 10, 0.5, 11.5, 1 ], "texture": "#west" },
        "east":  { "uv": [ 4.5, 0.5, 6, 1 ], "texture": "#east" }
    }
},
{
    "from": [ 3.5, 15, 11.5 ],
    "to": [ 5, 15.5, 12.5 ],
    "shade": false,
    "faces": {
        "up":    { "uv": [ 3.5, 11.5, 5, 12.5 ], "texture": "#up" },
        "north": { "uv": [ 11, 0.5, 12.5, 1 ], "texture": "#north" },
        "south": { "uv": [ 3.5, 0.5, 5, 1 ], "texture": "#south" },
        "west":  { "uv": [ 11.5, 0.5, 12.5, 1 ], "texture": "#west" },
        "east":  { "uv": [ 3.5, 0.5, 4.5, 1 ], "texture": "#east" }
    }
},
{
    "from": [ 7, 15, 14.5 ],
    "to": [ 8.5, 15.5, 16 ],
    "shade": false,
    "faces": {
        "down":  { "uv": [ 9, 16, 7.5, 14.5 ], "texture": "#down" },
        "up":    { "uv": [ 7, 14.5, 8.5, 16 ], "texture": "#up" },
        "north": { "uv": [ 7.5, 0.5, 9, 1 ], "texture": "#north" },
        "south": { "uv": [ 7, 0.5, 8.5, 1 ], "texture": "#south" },
        "west":  { "uv": [ 14.5, 0.5, 16, 1 ], "texture": "#west" },
        "east":  { "uv": [ 0, 0.5, 1.5, 1 ], "texture": "#east" }
    }
},
{
    "from": [ 15, 15, 0 ],
    "to": [ 16, 15.5, 1 ],
    "shade": false,
    "faces": {
        "up":    { "uv": [ 15, 0, 16, 1 ], "texture": "#up" },
        "north": { "uv": [ 0, 0.5, 1, 1 ], "texture": "#north" },
        "south": { "uv": [ 15, 0.5, 16, 1 ], "texture": "#south" },
        "west":  { "uv": [ 0, 0.5, 1, 1 ], "texture": "#west" },
        "east":  { "uv": [ 15, 0.5, 16, 1 ], "texture": "#east" }
    }
},
{
    "from": [ 0, 15, 15 ],
    "to": [ 0.5, 15.5, 16 ],
    "shade": false,
    "faces": {
        "up":    { "uv": [ 0, 15, 0.5, 16 ], "texture": "#up" },
        "north": { "uv": [ 15.5, 0.5, 16, 1 ], "texture": "#north" },
        "south": { "uv": [ 0, 0.5, 0.5, 1 ], "texture": "#south" },
        "west":  { "uv": [ 15, 0.5, 16, 1 ], "texture": "#west" },
        "east":  { "uv": [ 0, 0.5, 1, 1 ], "texture": "#east" }
    }
},
{
    "from": [ 7.5, 15, 0 ],
    "to": [ 9.5, 15.5, 1 ],
    "shade": false,
    "faces": {
        "up":    { "uv": [ 7.5, 0, 9.5, 1 ], "texture": "#up" },
        "north": { "uv": [ 6.5, 0.5, 8.5, 1 ], "texture": "#north" },
        "south": { "uv": [ 7.5, 0.5, 9.5, 1 ], "texture": "#south" },
        "west":  { "uv": [ 0, 0.5, 1, 1 ], "texture": "#west" },
        "east":  { "uv": [ 15, 0.5, 16, 1 ], "texture": "#east" }
    }
},
{
    "from": [ 8.5, 15, 1 ],
    "to": [ 10, 15.5, 2 ],
    "shade": false,
    "faces": {
        "up":    { "uv": [ 8.5, 1, 10, 2 ], "texture": "#up" },
        "north": { "uv": [ 6, 0.5, 7.5, 1 ], "texture": "#north" },
        "south": { "uv": [ 8.5, 0.5, 10, 1 ], "texture": "#south" },
        "west":  { "uv": [ 1, 0.5, 2, 1 ], "texture": "#west" },
        "east":  { "uv": [ 14, 0.5, 15, 1 ], "texture": "#east" }
    }
},
{
    "from": [ 10, 15, 2 ],
    "to": [ 11, 15.5, 3 ],
    "shade": false,
    "faces": {
        "up":    { "uv": [ 10, 2, 11, 3 ], "texture": "#up" },
        "north": { "uv": [ 5, 0.5, 6, 1 ], "texture": "#north" },
        "south": { "uv": [ 10, 0.5, 11, 1 ], "texture": "#south" },
        "west":  { "uv": [ 2, 0.5, 3, 1 ], "texture": "#west" },
        "east":  { "uv": [ 13, 0.5, 14, 1 ], "texture": "#east" }
    }
},
{
    "from": [ 11.5, 15, 4 ],
    "to": [ 13, 15.5, 5 ],
    "shade": false,
    "faces": {
        "up":    { "uv": [ 11.5, 4, 13, 5 ], "texture": "#up" },
        "north": { "uv": [ 3, 0.5, 4.5, 1 ], "texture": "#north" },
        "south": { "uv": [ 11.5, 0.5, 13, 1 ], "texture": "#south" },
        "west":  { "uv": [ 4, 0.5, 5, 1 ], "texture": "#west" },
        "east":  { "uv": [ 11, 0.5, 12, 1 ], "texture": "#east" }
    }
},
{
    "from": [ 13, 15, 5 ],
    "to": [ 14, 15.5, 6 ],
    "shade": false,
    "faces": {
        "down":  { "uv": [ 3, 6, 2, 5 ], "texture": "#down" },
        "up":    { "uv": [ 13, 5, 14, 6 ], "texture": "#up" },
        "north": { "uv": [ 2, 0.5, 3, 1 ], "texture": "#north" },
        "south": { "uv": [ 13, 0.5, 14, 1 ], "texture": "#south" },
        "west":  { "uv": [ 5, 0.5, 6, 1 ], "texture": "#west" },
        "east":  { "uv": [ 10, 0.5, 11, 1 ], "texture": "#east" }
    }
},
{
    "from": [ 14, 15, 6.5 ],
    "to": [ 15.5, 15.5, 8 ],
    "shade": false,
    "faces": {
        "down":  { "uv": [ 2, 8, 0.5, 6.5 ], "texture": "#down" },
        "up":    { "uv": [ 14, 6.5, 15.5, 8 ], "texture": "#up" },
        "north": { "uv": [ 0.5, 0.5, 2, 1 ], "texture": "#north" },
        "south": { "uv": [ 14, 0.5, 15.5, 1 ], "texture": "#south" },
        "west":  { "uv": [ 6.5, 0.5, 8, 1 ], "texture": "#west" },
        "east":  { "uv": [ 8, 0.5, 9.5, 1 ], "texture": "#east" }
    }
},
{
    "from": [ 15, 15, 7 ],
    "to": [ 16, 15.5, 8.5 ],
    "shade": false,
    "faces": {
        "up":    { "uv": [ 15, 7, 16, 8.5 ], "texture": "#up" },
        "north": { "uv": [ 0, 0.5, 1, 1 ], "texture": "#north" },
        "south": { "uv": [ 15, 0.5, 16, 1 ], "texture": "#south" },
        "west":  { "uv": [ 7, 0.5, 8.5, 1 ], "texture": "#west" },
        "east":  { "uv": [ 7.5, 0.5, 9, 1 ], "texture": "#east" }
    }
}
]
}