{
"__comment": "3D Mesh designed with BDcraft Cubik - Version PRO 0.65 Beta",
"parent": "block/block",
"ambientocclusion": true,
"textures": {
    "down": "blocks/dirt",
    "up": "blocks/farmland_dry",
    "north": "blocks/dirt",
    "south": "blocks/dirt",
    "west": "blocks/dirt",
    "east": "blocks/dirt",
    "particle": "blocks/dirt"
},
"elements": [ 
{
    "from": [ 0, 0, 0 ],
    "to": [ 16, 14.5, 16 ],
    "__comment": "Center",
    "faces": {
        "down":  { "uv": [ 0, 0, 16, 16 ], "texture": "#down" },
        "up":    { "uv": [ 0, 0, 16, 16 ], "texture": "#up" },
        "north": { "uv": [ 16, 1.5, 0, 16 ], "texture": "#north" },
        "south": { "uv": [ 0, 1.5, 16, 16 ], "texture": "#south" },
        "west":  { "uv": [ 0, 1.5, 16, 16 ], "texture": "#west" },
        "east":  { "uv": [ 16, 1.5, 0, 16 ], "texture": "#east" }
    }
},
{
    "from": [ 14.5, 15, 0 ],
    "to": [ 16, 15.5, 3.5 ],
    "__comment": "Till",
    "faces": {
        "up":    { "uv": [ 14.5, 0, 16, 3.5 ], "texture": "#up" },
        "north": { "uv": [ 16, 0.5, 14.5, 1 ], "texture": "#north" },
        "west":  { "uv": [ 0, 0.5, 3.5, 1 ], "texture": "#west" },
        "east":  { "uv": [ 3.5, 0.5, 0, 1 ], "texture": "#east" }
    }
},
{
    "from": [ 14, 15, 3.5 ],
    "to": [ 16, 15.5, 10.5 ],
    "__comment": "Till",
    "faces": {
        "up":    { "uv": [ 14, 3.5, 16, 10.5 ], "texture": "#up" },
        "north": { "uv": [ 16, 0.5, 14, 1 ], "texture": "#north" },
        "south": { "uv": [ 14, 0.5, 16, 1 ], "texture": "#south" },
        "west":  { "uv": [ 3.5, 0.5, 10.5, 1 ], "texture": "#west" },
        "east":  { "uv": [ 10.5, 0.5, 3.5, 1 ], "texture": "#east" }
    }
},
{
    "from": [ 14.5, 15, 10.5 ],
    "to": [ 16, 15.5, 14 ],
    "__comment": "Till",
    "faces": {
        "up":    { "uv": [ 14.5, 10.5, 16, 14 ], "texture": "#up" },
        "west":  { "uv": [ 10.5, 0.5, 14, 1 ], "texture": "#west" },
        "east":  { "uv": [ 14, 0.5, 10.5, 1 ], "texture": "#east" }
    }
},
{
    "from": [ 14, 15, 14 ],
    "to": [ 16, 15.5, 16 ],
    "__comment": "Till",
    "faces": {
        "up":    { "uv": [ 14, 14, 16, 16 ], "texture": "#up" },
        "north": { "uv": [ 16, 0.5, 14, 1 ], "texture": "#north" },
        "south": { "uv": [ 14, 0.5, 16, 1 ], "texture": "#south" },
        "west":  { "uv": [ 14, 0.5, 16, 1 ], "texture": "#west" },
        "east":  { "uv": [ 16, 0.5, 14, 1 ], "texture": "#east" }
    }
},
{
    "from": [ 0, 15, 10.5 ],
    "to": [ 1, 15.5, 16 ],
    "__comment": "Till",
    "faces": {
        "up":    { "uv": [ 0, 10.5, 1, 16 ], "texture": "#up" },
        "south": { "uv": [ 0, 0.5, 1, 1 ], "texture": "#south" },
        "west":  { "uv": [ 10.5, 0.5, 16, 1 ], "texture": "#west" },
        "east":  { "uv": [ 16, 0.5, 10.5, 1 ], "texture": "#east" }
    }
},
{
    "from": [ 0, 15, 6.5 ],
    "to": [ 1.5, 15.5, 10.5 ],
    "__comment": "Till",
    "faces": {
        "up":    { "uv": [ 0, 6.5, 1.5, 10.5 ], "texture": "#up" },
        "north": { "uv": [ 1.5, 0.5, 0, 1 ], "texture": "#north" },
        "south": { "uv": [ 0, 0.5, 1.5, 1 ], "texture": "#south" },
        "west":  { "uv": [ 6.5, 0.5, 10.5, 1 ], "texture": "#west" },
        "east":  { "uv": [ 10.5, 0.5, 6.5, 1 ], "texture": "#east" }
    }
},
{
    "from": [ 0, 15, 3.5 ],
    "to": [ 1, 15.5, 6.5 ],
    "__comment": "Till",
    "faces": {
        "up":    { "uv": [ 0, 3.5, 1, 6.5 ], "texture": "#up" },
        "north": { "uv": [ 1, 0.5, 0, 1 ], "texture": "#north" },
        "west":  { "uv": [ 3.5, 0.5, 6.5, 1 ], "texture": "#west" },
        "east":  { "uv": [ 6.5, 0.5, 3.5, 1 ], "texture": "#east" }
    }
},
{
    "from": [ 0, 15, 0 ],
    "to": [ 0.5, 15.5, 3.5 ],
    "__comment": "Till",
    "faces": {
        "up":    { "uv": [ 0, 0, 0.5, 3.5 ], "texture": "#up" },
        "north": { "uv": [ 0.5, 0.5, 0, 1 ], "texture": "#north" },
        "west":  { "uv": [ 0, 0.5, 3.5, 1 ], "texture": "#west" },
        "east":  { "uv": [ 3.5, 0.5, 0, 1 ], "texture": "#east" }
    }
},
{
    "from": [ 5, 14.5, 11.5 ],
    "to": [ 11, 15, 16 ],
    "__comment": "Till",
    "faces": {
        "up":    { "uv": [ 5, 11.5, 11, 16 ], "texture": "#up" },
        "south": { "uv": [ 5, 1, 11, 1.5 ], "texture": "#south" },
        "west":  { "uv": [ 11.5, 1, 16, 1.5 ], "texture": "#west" },
        "east":  { "uv": [ 16, 1, 11.5, 1.5 ], "texture": "#east" }
    }
},
{
    "from": [ 4, 14.5, 7 ],
    "to": [ 11, 15, 11.5 ],
    "__comment": "Till",
    "faces": {
        "up":    { "uv": [ 4, 7, 11, 11.5 ], "texture": "#up" },
        "north": { "uv": [ 11, 1, 4, 1.5 ], "texture": "#north" },
        "south": { "uv": [ 4, 1, 11, 1.5 ], "texture": "#south" },
        "west":  { "uv": [ 7, 1, 11.5, 1.5 ], "texture": "#west" },
        "east":  { "uv": [ 11.5, 1, 7, 1.5 ], "texture": "#east" }
    }
},
{
    "from": [ 5, 14.5, 4 ],
    "to": [ 10, 15, 7 ],
    "__comment": "Till",
    "faces": {
        "up":    { "uv": [ 5, 4, 10, 7 ], "texture": "#up" },
        "west":  { "uv": [ 4, 1, 7, 1.5 ], "texture": "#west" },
        "east":  { "uv": [ 7, 1, 4, 1.5 ], "texture": "#east" }
    }
},
{
    "from": [ 5.5, 15, 14 ],
    "to": [ 8.5, 15.5, 16 ],
    "__comment": "Till",
    "faces": {
        "up":    { "uv": [ 5.5, 14, 8.5, 16 ], "texture": "#up" },
        "north": { "uv": [ 8.5, 0.5, 5.5, 1 ], "texture": "#north" },
        "south": { "uv": [ 5.5, 0.5, 8.5, 1 ], "texture": "#south" },
        "west":  { "uv": [ 14, 0.5, 16, 1 ], "texture": "#west" },
        "east":  { "uv": [ 16, 0.5, 14, 1 ], "texture": "#east" }
    }
},
{
    "from": [ 6, 15, 10.5 ],
    "to": [ 9, 15.5, 14 ],
    "__comment": "Till",
    "faces": {
        "down":  { "uv": [ 6, 10.5, 9, 14 ], "texture": "#down" },
        "up":    { "uv": [ 6, 10.5, 9, 14 ], "texture": "#up" },
        "north": { "uv": [ 9, 0.5, 6, 1 ], "texture": "#north" },
        "south": { "uv": [ 6, 0.5, 9, 1 ], "texture": "#south" },
        "west":  { "uv": [ 10.5, 0.5, 14, 1 ], "texture": "#west" },
        "east":  { "uv": [ 14, 0.5, 10.5, 1 ], "texture": "#east" }
    }
},
{
    "from": [ 6, 15, 7 ],
    "to": [ 8.5, 15.5, 10.5 ],
    "__comment": "Till",
    "faces": {
        "up":    { "uv": [ 6, 7, 8.5, 10.5 ], "texture": "#up" },
        "north": { "uv": [ 8.5, 0.5, 6, 1 ], "texture": "#north" },
        "west":  { "uv": [ 7, 0.5, 10.5, 1 ], "texture": "#west" },
        "east":  { "uv": [ 10.5, 0.5, 7, 1 ], "texture": "#east" }
    }
},
{
    "from": [ 6.5, 15, 3 ],
    "to": [ 9.5, 15.5, 7 ],
    "__comment": "Till",
    "faces": {
        "down":  { "uv": [ 6.5, 3, 9.5, 7 ], "texture": "#down" },
        "up":    { "uv": [ 6.5, 3, 9.5, 7 ], "texture": "#up" },
        "north": { "uv": [ 9.5, 0.5, 6.5, 1 ], "texture": "#north" },
        "south": { "uv": [ 6.5, 0.5, 9.5, 1 ], "texture": "#south" },
        "west":  { "uv": [ 3, 0.5, 7, 1 ], "texture": "#west" },
        "east":  { "uv": [ 7, 0.5, 3, 1 ], "texture": "#east" }
    }
},
{
    "from": [ 5.5, 15, 0 ],
    "to": [ 9, 15.5, 3 ],
    "__comment": "Till",
    "faces": {
        "up":    { "uv": [ 5.5, 0, 9, 3 ], "texture": "#up" },
        "north": { "uv": [ 9, 0.5, 5.5, 1 ], "texture": "#north" },
        "south": { "uv": [ 5.5, 0.5, 9, 1 ], "texture": "#south" },
        "west":  { "uv": [ 0, 0.5, 3, 1 ], "texture": "#west" },
        "east":  { "uv": [ 3, 0.5, 0, 1 ], "texture": "#east" }
    }
},
{
    "from": [ 13, 14.5, 0 ],
    "to": [ 16, 15, 16 ],
    "__comment": "Till",
    "faces": {
        "up":    { "uv": [ 13, 0, 16, 16 ], "texture": "#up" },
        "north": { "uv": [ 16, 1, 13, 1.5 ], "texture": "#north" },
        "south": { "uv": [ 13, 1, 16, 1.5 ], "texture": "#south" },
        "west":  { "uv": [ 0, 1, 16, 1.5 ], "texture": "#west" },
        "east":  { "uv": [ 16, 1, 0, 1.5 ], "texture": "#east" }
    }
},
{
    "from": [ 0, 14.5, 0 ],
    "to": [ 2.5, 15, 16 ],
    "__comment": "Till",
    "faces": {
        "up":    { "uv": [ 0, 0, 2.5, 16 ], "texture": "#up" },
        "north": { "uv": [ 2.5, 1, 0, 1.5 ], "texture": "#north" },
        "south": { "uv": [ 0, 1, 2.5, 1.5 ], "texture": "#south" },
        "west":  { "uv": [ 0, 1, 16, 1.5 ], "texture": "#west" },
        "east":  { "uv": [ 16, 1, 0, 1.5 ], "texture": "#east" }
    }
},
{
    "from": [ 4.5, 14.5, 0 ],
    "to": [ 10.5, 15, 4 ],
    "__comment": "Till",
    "faces": {
        "up":    { "uv": [ 4.5, 0, 10.5, 4 ], "texture": "#up" },
        "north": { "uv": [ 10.5, 1, 4.5, 1.5 ], "texture": "#north" },
        "south": { "uv": [ 4.5, 1, 10.5, 1.5 ], "texture": "#south" },
        "west":  { "uv": [ 0, 1, 4, 1.5 ], "texture": "#west" },
        "east":  { "uv": [ 4, 1, 0, 1.5 ], "texture": "#east" }
    }
}
]
}