{
"textures": {
    "particle": "conquest:blocks/flag_cool",
    "bars": "conquest:blocks/flag_cool",
    "edge": "conquest:blocks/flag_cool"
},
"elements": [ 
{
    "from": [ 8, 0, 0 ],
    "to": [ 8.0625, 16, 16 ],
    "faces": {
        "west":  { "uv": [ 0, 0, 16, 16 ], "texture": "#bars" },
        "east":  { "uv": [ 0, 0, 16, 16 ], "texture": "#bars" }
    }
}
]
}