{
    "parent": "block/anvil",
    "textures": {
        "particle": "conquest:blocks/sandstone4",
        "body": "conquest:blocks/sandstone4_sides",
        "top": "conquest:blocks/sandstone4"
    }
}
