{
"__comment": "Designed by Monsterfish with BDcraft Cubik PRO 0.96 Beta - http://bdcraft.net",
"ambientocclusion": false,
"parent": "block/block",
"textures": {
    "particle": "conquest:blocks/gargoyle_stone1",
    "1": "conquest:blocks/gargoyle_stone1",
    "2": "conquest:blocks/gargoyle_stone2",
    "3": "conquest:blocks/gargoyle_stone3",
    "4": "conquest:blocks/gargoyle_stone4",
    "5": "conquest:blocks/gargoyle_stone5",
    "6": "conquest:blocks/gargoyle_stone6",
    "7": "conquest:blocks/gargoyle_stone7",
    "8": "conquest:blocks/gargoyle_stone8",
    "9": "conquest:blocks/gargoyle_stone9",
    "10": "conquest:blocks/gargoyle_stone10",
    "11": "conquest:blocks/gargoyle_stone11",
    "12": "conquest:blocks/gargoyle_stone12",
    "13": "conquest:blocks/gargoyle_stone13",
    "14": "conquest:blocks/gargoyle_stone14",
    "15": "conquest:blocks/gargoyle_stone15"
},
"elements": [ 
{
    "from": [ 2, 0, 16 ],
    "to": [ 2.0625, 3.5, 30 ],
    "shade": false,
    "rotation": { "origin": [ 2, 3.5, 16 ], "axis": "x", "angle": 22.5 },
    "faces": {
        "west":  { "uv": [ 0, 0, 16, 4 ], "texture": "#12" },
        "east":  { "uv": [ 0, 0, 16, 4 ], "texture": "#14" }
    }
},
{
    "from": [ 3, 16, -1 ],
    "to": [ 6, 18, 6 ],
    "shade": false,
    "rotation": { "origin": [ 3, 16, -1 ], "axis": "y", "angle": -22.5 },
    "faces": {
        "down":  { "uv": [ 2.5, 0, 5.5, 7 ], "texture": "#2" },
        "up":    { "uv": [ 1.5, 0, 4.5, 7 ], "texture": "#1" },
        "north": { "uv": [ 3, 0, 6, 2 ], "texture": "#3" },
        "south": { "uv": [ 3, 0, 6, 2 ], "texture": "#5" },
        "west":  { "uv": [ 0, 0, 7, 2 ], "texture": "#4" },
        "east":  { "uv": [ 0, 0, 7, 2 ], "texture": "#6" }
    }
},
{
    "from": [ 3, 9, 24.5 ],
    "to": [ 5, 10.5, 29 ],
    "shade": false,
    "rotation": { "origin": [ 3, 10.5, 24.5 ], "axis": "x", "angle": 22.5 },
    "faces": {
        "up":    { "uv": [ 3, 4, 5, 5.5 ], "texture": "#3" },
        "north": { "uv": [ 3, 4, 5, 5.5 ], "texture": "#3" },
        "south": { "uv": [ 3, 4, 5, 5.5 ], "texture": "#3" },
        "west":  { "uv": [ 3, 4, 5, 5.5 ], "texture": "#3" },
        "east":  { "uv": [ 3, 4, 5, 5.5 ], "texture": "#3" }
    }
},
{
    "from": [ 10, 9, 24.5 ],
    "to": [ 12, 10.5, 29 ],
    "shade": false,
    "rotation": { "origin": [ 10, 10.5, 24.5 ], "axis": "x", "angle": 22.5 },
    "faces": {
        "up":    { "uv": [ 3, 4, 5, 5.5 ], "texture": "#3" },
        "north": { "uv": [ 3, 4, 5, 5.5 ], "texture": "#3" },
        "south": { "uv": [ 3, 4, 5, 5.5 ], "texture": "#3" },
        "west":  { "uv": [ 3, 4, 5, 5.5 ], "texture": "#3" },
        "east":  { "uv": [ 3, 4, 5, 5.5 ], "texture": "#3" }
    }
},
{
    "from": [ 10, 16, 0 ],
    "to": [ 13, 18, 7 ],
    "shade": false,
    "rotation": { "origin": [ 10, 16, 0 ], "axis": "y", "angle": 22.5 },
    "faces": {
        "up":    { "uv": [ 12, 0, 15, 7 ], "texture": "#1" },
        "north": { "uv": [ 10, 0, 13, 2 ], "texture": "#3" },
        "south": { "uv": [ 10, 0, 13, 2 ], "texture": "#5" },
        "west":  { "uv": [ 0, 0, 7, 2 ], "texture": "#4" },
        "east":  { "uv": [ 0, 0, 7, 2 ], "texture": "#6" }
    }
},
{
    "from": [ 0.5, 16, 6 ],
    "to": [ 3.5, 18, 13 ],
    "shade": false,
    "rotation": { "origin": [ 0.5, 18, 6 ], "axis": "x", "angle": 22.5 },
    "faces": {
        "up":    { "uv": [ 0.5, 6, 3.5, 13 ], "texture": "#1" },
        "north": { "uv": [ 0.5, 0, 3.5, 2 ], "texture": "#3" },
        "south": { "uv": [ 0.5, 0, 3.5, 2 ], "texture": "#5" },
        "west":  { "uv": [ 6, 0, 13, 2 ], "texture": "#4" },
        "east":  { "uv": [ 6, 0, 13, 2 ], "texture": "#6" }
    }
},
{
    "from": [ 12, 16, 6 ],
    "to": [ 15, 18, 13 ],
    "shade": false,
    "rotation": { "origin": [ 12, 18, 6 ], "axis": "x", "angle": 22.5 },
    "faces": {
        "up":    { "uv": [ 12, 6, 15, 13 ], "texture": "#1" },
        "north": { "uv": [ 12, 0, 15, 2 ], "texture": "#3" },
        "south": { "uv": [ 12, 0, 15, 2 ], "texture": "#5" },
        "west":  { "uv": [ 6, 0, 13, 2 ], "texture": "#4" },
        "east":  { "uv": [ 6, 0, 13, 2 ], "texture": "#6" }
    }
},
{
    "from": [ 4.5, 9.5, 13.9606 ],
    "to": [ 12, 12.5, 23.9606 ],
    "shade": false,
    "rotation": { "origin": [ 4.5, 12.5, 13.9606 ], "axis": "x", "angle": 22.5 },
    "faces": {
        "up":    { "uv": [ 4.5, 6, 12, 16 ], "texture": "#3" },
        "west":  { "uv": [ 0, 0, 10, 3 ], "texture": "#8" },
        "east":  { "uv": [ 6, 0, 16, 3 ], "texture": "#10" }
    }
},
{
    "from": [ 4.5, -3.0625, 13.5 ],
    "to": [ 11.8125, -1.5, 22.5 ],
    "shade": false,
    "faces": {
        "down":  { "uv": [ 4.5, 6, 12, 16 ], "texture": "#11" },
        "west":  { "uv": [ 2.5, 4, 12.5, 7 ], "texture": "#11" },
        "east":  { "uv": [ 2, 3.5, 12, 6.5 ], "texture": "#11" }
    }
},
{
    "from": [ 4.375, 0.5, 5.5 ],
    "to": [ 11.875, 3.5, 15.5 ],
    "shade": false,
    "rotation": { "origin": [ 4.375, 3.5, 5.5 ], "axis": "x", "angle": 22.5 },
    "faces": {
        "down":  { "uv": [ 4.5, 5.5, 12, 15.5 ], "texture": "#11" },
        "west":  { "uv": [ 2.5, 12.5, 12.5, 15.5 ], "texture": "#11" },
        "east":  { "uv": [ 3.5, 12, 13.5, 15 ], "texture": "#11" }
    }
},
{
    "from": [ 4.625, -1.5, 10 ],
    "to": [ 11.8125, 0, 19 ],
    "shade": false,
    "faces": {
        "down":  { "uv": [ 4.5, 14, 12, 24 ], "texture": "#11" },
        "west":  { "uv": [ 6, 3.5, 16, 6.5 ], "texture": "#11" },
        "east":  { "uv": [ 6, 3.5, 16, 6.5 ], "texture": "#11" }
    }
},
{
    "from": [ 0, 0, 0 ],
    "to": [ 16, 16, 16 ],
    "shade": false,
    "faces": {
        "down":  { "uv": [ 16, 16, 0, 0 ], "texture": "#2" },
        "up":    { "uv": [ 0, 0, 16, 16 ], "texture": "#1" },
        "north": { "uv": [ 0, 0, 16, 16 ], "texture": "#2" },
        "south": { "uv": [ 0, 0, 16, 16 ], "texture": "#5" },
        "west":  { "uv": [ 0, 0, 16, 16 ], "texture": "#4" },
        "east":  { "uv": [ 0, 0, 16, 16 ], "texture": "#6" }
    }
},
{
    "from": [ 14, 0, 16 ],
    "to": [ 14.0625, 3.5, 30 ],
    "shade": false,
    "rotation": { "origin": [ 14, 3.5, 16 ], "axis": "x", "angle": 22.5 },
    "faces": {
        "west":  { "uv": [ 0, 0, 16, 4 ], "texture": "#12" },
        "east":  { "uv": [ 0, 0, 16, 4 ], "texture": "#14" }
    }
},
{
    "from": [ 2, 0.9375, 12.9375 ],
    "to": [ 14, 1, 28.9375 ],
    "shade": false,
    "rotation": { "origin": [ 2, 1, 12.9375 ], "axis": "x", "angle": 22.5 },
    "faces": {
        "down":  { "uv": [ 2, 0, 14, 16 ], "texture": "#11" },
        "up":    { "uv": [ 2, 0, 14, 16 ], "texture": "#11" }
    }
},
{
    "from": [ 2, -5.4375, 28.8125 ],
    "to": [ 14, -1.9375, 28.875 ],
    "shade": false,
    "rotation": { "origin": [ 2, -1.9375, 28.8125 ], "axis": "x", "angle": 22.5 },
    "faces": {
        "north": { "uv": [ 0, 0, 16, 5.5 ], "texture": "#13" },
        "south": { "uv": [ 0, 0, 16, 5.5 ], "texture": "#13" }
    }
},
{
    "from": [ 2, 6.5, 16 ],
    "to": [ 14, 9, 30 ],
    "shade": false,
    "faces": {
        "down":  { "uv": [ 2, 0, 14, 16 ], "texture": "#11" },
        "up":    { "uv": [ 2, 0, 14, 16 ], "texture": "#3" }
    }
},
{
    "from": [ 14, 2.5, 16 ],
    "to": [ 14.0625, 9, 30 ],
    "shade": false,
    "faces": {
        "west":  { "uv": [ 3, 0, 16, 7 ], "texture": "#8" },
        "east":  { "uv": [ 0, 0, 13, 7 ], "texture": "#10" }
    }
},
{
    "from": [ 2, 2.5, 16 ],
    "to": [ 2.0625, 9, 30 ],
    "shade": false,
    "faces": {
        "west":  { "uv": [ 3, 0, 16, 7 ], "texture": "#8" },
        "east":  { "uv": [ 0, 0, 13, 7 ], "texture": "#10" }
    }
},
{
    "from": [ 2, 2.5, 30 ],
    "to": [ 14, 9, 30.0625 ],
    "shade": false,
    "faces": {
        "north": { "uv": [ 2, 1, 14.5, 7.5 ], "texture": "#9" },
        "south": { "uv": [ 2, 1, 15, 8 ], "texture": "#9" }
    }
}
],
"display": {
    "gui": {
        "rotation": [ 30, 45, 0 ],
        "translation": [ 0, 0, 0 ],
        "scale": [ 0.625, 0.625, 0.625 ]
    }
}
}