{
"textures": {
    "pane": "conquest:blocks/glasspane3",
    "particle": "conquest:blocks/glasspane3"
},
"elements": [ 
{
    "from": [ 8, 0, 7 ],
    "to": [ 8.0625, 16, 16 ],
    "shade": false,
    "faces": {
        "west":  { "uv": [ 9, 0, 0, 16 ], "texture": "#pane" },
        "east":  { "uv": [ 0, 0, 9, 16 ], "texture": "#pane" }
    }
}
]
}