{
"textures": {
    "pane": "conquest:blocks/glasspane3",
    "particle": "conquest:blocks/glasspane3"
},
"elements": [ 
{
    "from": [ 8, 0, 0 ],
    "to": [ 8.0625, 16, 16 ],
    "shade": false,
    "faces": {
        "west":  { "uv": [ 0, 0, 16, 16 ], "texture": "#pane" },
        "east":  { "uv": [ 0, 0, 16, 16 ], "texture": "#pane" }
    }
},
{
    "from": [ 0, 0, 8 ],
    "to": [ 16, 16, 8.0625 ],
    "shade": false,
    "faces": {
        "north": { "uv": [ 0, 0, 16, 16 ], "texture": "#pane" },
        "south": { "uv": [ 0, 0, 16, 16 ], "texture": "#pane" }
    }
}
]
}