
{
    "parent": "block/cube_bottom_top",
    "textures": {
        "bottom": "conquest:blocks/goldblock2",
        "top": "conquest:blocks/goldblock2",
        "side": "conquest:blocks/goldblock2"
    }
}