{
    "parent": "block/inner_stairs",
    "textures": {
        "bottom": "conquest:blocks/stonebrick5_top",
        "top": "conquest:blocks/stonebrick5_top",
        "side": "conquest:blocks/stonebrick5"
    }
}
