{
    "parent": "block/half_slab",
    "textures": {
        "bottom": "conquest:blocks/roman_hardclay_black",
        "top": "conquest:blocks/roman_hardclay_black",
        "side": "conquest:blocks/roman_hardclay_black"
    }
}