{
    "parent": "block/half_slab",
    "textures": {
        "bottom": "conquest:blocks/cobblestone_dark",
        "top": "conquest:blocks/cobblestone_dark",
        "side": "conquest:blocks/cobblestone_dark"
    }
}