{
    "parent": "block/half_slab",
    "textures": {
        "bottom": "conquest:blocks/roman_hardclay_orange",
        "top": "conquest:blocks/roman_hardclay_orange",
        "side": "conquest:blocks/roman_hardclay_orange"
    }
}