{
    "parent": "block/half_slab",
    "textures": {
        "bottom": "conquest:blocks/roman_clay_brown",
        "top": "conquest:blocks/roman_clay_brown",
        "side": "conquest:blocks/roman_clay_brown"
    }
}