{
    "parent": "block/half_slab",
    "textures": {
        "bottom": "conquest:blocks/acacialog2jungle",
        "top": "conquest:blocks/acacialog2jungle",
        "side": "conquest:blocks/acacialog2jungle"
    }
}