{
    "parent": "block/half_slab",
    "textures": {
        "bottom": "conquest:blocks/cobble9_top",
        "top": "conquest:blocks/cobble9_top",
        "side": "conquest:blocks/cobble9_top"
    }
}
