{
    "parent": "block/half_slab",
    "textures": {
        "bottom": "conquest:blocks/acacialog3taiga",
        "top": "conquest:blocks/acacialog3taiga",
        "side": "conquest:blocks/acacialog3taiga"
    }
}