{
    "parent": "block/half_slab",
    "textures": {
        "bottom": "conquest:blocks/roman_marble_block",
        "top": "conquest:blocks/roman_marble_block",
        "side": "conquest:blocks/roman_marble_block"
    }
}