{
    "parent": "block/half_slab",
    "textures": {
        "bottom": "conquest:blocks/clayorangemesa",
        "top": "conquest:blocks/clayorangemesa",
        "side": "conquest:blocks/clayorangemesa"
    }
}