{
    "parent": "block/half_slab",
    "textures": {
        "bottom": "conquest:blocks/sandstone5",
        "top": "conquest:blocks/sandstone5",
        "side": "conquest:blocks/sandstone5_sides"
    }
}