{
    "parent": "block/half_slab",
    "textures": {
        "bottom": "conquest:blocks/painted_planks_orange",
        "top": "conquest:blocks/painted_planks_orange",
        "side": "conquest:blocks/painted_planks_orange"
    }
}