{
    "parent": "block/half_slab",
    "textures": {
        "bottom": "conquest:blocks/mossystone1",
        "top": "conquest:blocks/mossystone1",
        "side": "conquest:blocks/mossystone1"
    }
}