{
    "parent": "block/half_slab",
    "textures": {
        "bottom": "conquest:blocks/roman_black_block1",
        "top": "conquest:blocks/roman_black_block1",
        "side": "conquest:blocks/roman_black_block1"
    }
}