{
    "parent": "block/half_slab",
    "textures": {
        "bottom": "conquest:blocks/clayorangesavanna",
        "top": "conquest:blocks/clayorangesavanna",
        "side": "conquest:blocks/clayorangesavanna"
    }
}