{
    "parent": "block/half_slab",
    "textures": {
        "bottom": "conquest:blocks/roman_wool_cyan",
        "top": "conquest:blocks/roman_wool_cyan",
        "side": "conquest:blocks/roman_wool_cyan"
    }
}