{
    "parent": "block/half_slab",
    "textures": {
        "bottom": "conquest:blocks/plank15ocean",
        "top": "conquest:blocks/plank15ocean",
        "side": "conquest:blocks/plank15ocean"
    }
}