{
    "parent": "block/half_slab",
    "textures": {
        "bottom": "conquest:blocks/roman_sandstone",
        "top": "conquest:blocks/roman_sandstone",
        "side": "conquest:blocks/roman_sandstone"
    }
}
