{
    "parent": "block/half_slab",
    "textures": {
        "bottom": "conquest:blocks/stoneslab2plains_top",
        "top": "conquest:blocks/stoneslab2plains_top",
        "side": "conquest:blocks/stoneslab2plains_side"
    }
}
