{
    "parent": "block/half_slab",
    "textures": {
        "bottom": "conquest:blocks/roman_hardclay_purple",
        "top": "conquest:blocks/roman_hardclay_purple",
        "side": "conquest:blocks/roman_hardclay_purple"
    }
}