
{
    "parent": "block/outer_stairs",
    "textures": {
        "particle": "conquest:blocks/haybale1",
        "bottom": "conquest:blocks/haystairs",
        "top": "conquest:blocks/haystairs",
        "side": "conquest:blocks/haystairs"
    }
}