{
"textures": {
    "particle": "blocks/iron_bars",
    "bars": "conquest:blocks/ironbar3"
},
"elements": [ 
{
    "from": [ 8, 0, 6 ],
    "to": [ 8.0625, 16, 10 ],
    "faces": {
        "west":  { "uv": [ 6, 0, 10, 16 ], "texture": "#bars" },
        "east":  { "uv": [ 6, 0, 10, 16 ], "texture": "#bars" }
    }
},
{
    "from": [ 6, 0, 8 ],
    "to": [ 10, 16, 8.0625 ],
    "faces": {
        "north": { "uv": [ 6, 0, 10, 16 ], "texture": "#bars" },
        "south": { "uv": [ 6, 0, 10, 16 ], "texture": "#bars" }
    }
}
]
}