{
    "parent": "conquest:block/anvil_base",
    "textures": {
        "particle": "conquest:blocks/ironblock5",
        "body": "conquest:blocks/ironblock5",
        "top": "conquest:blocks/ironblock5"
    }
}