{
    "parent": "conquest:block/anvil_base",
    "textures": {
        "particle": "conquest:blocks/ironblock7",
        "body": "conquest:blocks/ironblock7",
        "top": "conquest:blocks/ironblock7"
    }
}