{
    "__comment": "Designed by Jugbot with BDcraft Cubik PRO 0.96 Beta - http://bdcraft.net",
    "textures": {
        "particle": "conquest:blocks/ironblock5_straight",
        "cap": "conquest:blocks/iron_grate",
        "side": "conquest:blocks/ironblock5_straight"
    },
    "elements": [
        {
            "__comment": "iron_plate9",
            "from": [ 0.5, 0, 0 ],
            "to": [ 7.5, 0.001, 16 ],
            "faces": {
                "down": { "uv": [ 0.5, 16, 7.5, 0 ], "texture": "#cap" },
                "up": { "uv": [ 8.5, 0, 15.5, 16 ], "texture": "#cap" }
            }
        },
        {
            "__comment": "iron_plate",
            "from": [ 7.5, 0, 0 ],
            "to": [ 8.5, 1, 16 ],
            "faces": {
                "down": { "uv": [ 7.5, 16, 8.5, 0 ], "texture": "#cap" },
                "up": { "uv": [ 7.5, 0, 8.5, 16 ], "texture": "#cap" },
                "north": { "uv": [ 0, 15, 1, 16 ], "texture": "#side", "rotation": 90 },
                "south": { "uv": [ 0, 7, 1, 8 ], "texture": "#side", "rotation": 90 },
                "west": { "uv": [ 1, 0, 0, 16 ], "texture": "#side", "rotation": 270 },
                "east": { "uv": [ 0, 0, 1, 16 ], "texture": "#side", "rotation": 90 }
            }
        },
        {
            "__comment": "iron_plate1",
            "from": [ 8.5, 0, 0 ],
            "to": [ 15.5, 0.001, 16 ],
            "faces": {
                "down": { "uv": [ 0.5, 16, 7.5, 0 ], "texture": "#cap" },
                "up": { "uv": [ 8.5, 0, 15.5, 16 ], "texture": "#cap" }
            }
        },
        {
            "__comment": "iron_plate2",
            "from": [ 15.5, 0, 0 ],
            "to": [ 16, 1, 16 ],
            "faces": {
                "down": { "uv": [ 15.5, 16, 16, 0 ], "texture": "#cap" },
                "up": { "uv": [ 15.5, 0, 16, 16 ], "texture": "#cap" },
                "north": { "uv": [ 15, 15, 16, 15.5 ], "texture": "#side", "rotation": 90 },
                "south": { "uv": [ 0, 15, 1, 15.5 ], "texture": "#side", "rotation": 90 },
                "west": { "uv": [ 1, 0, 0, 16 ], "texture": "#side", "rotation": 270 },
                "east": { "uv": [ 0, 0, 1, 16 ], "texture": "#side", "rotation": 90 }
            }
        },
        {
            "__comment": "iron_plate3",
            "from": [ 0, 0, 0 ],
            "to": [ 0.5, 1, 16 ],
            "faces": {
                "down": { "uv": [ 0, 16, 0.5, 0 ], "texture": "#cap" },
                "up": { "uv": [ 0, 0, 0.5, 16 ], "texture": "#cap" },
                "north": { "uv": [ 15, 15, 16, 15.5 ], "texture": "#side", "rotation": 90 },
                "south": { "uv": [ 0, 15, 1, 15.5 ], "texture": "#side", "rotation": 90 },
                "west": { "uv": [ 1, 0, 0, 16 ], "texture": "#side", "rotation": 270 },
                "east": { "uv": [ 0, 0, 1, 16 ], "texture": "#side", "rotation": 90 }
            }
        },
        {
            "__comment": "iron_plate4",
            "from": [ 8.5, 1, 0.5 ],
            "to": [ 15.5, 1.001, 16 ],
            "faces": {
                "down": { "uv": [ 8.5, 16, 15.5, 0.5 ], "texture": "#cap" },
                "up": { "uv": [ 0.5, 0.5, 7.5, 16 ], "texture": "#cap" }
            }
        },
        {
            "__comment": "iron_plate5",
            "from": [ 0.5, 1, 0.5 ],
            "to": [ 7.5, 1.001, 16 ],
            "faces": {
                "down": { "uv": [ 8.5, 16, 15.5, 0.5 ], "texture": "#cap" },
                "up": { "uv": [ 0.5, 0.5, 7.5, 16 ], "texture": "#cap" }
            }
        },
        {
            "__comment": "iron_plate6",
            "from": [ 8.5, 0, 15.5 ],
            "to": [ 15.5, 1, 16 ],
            "faces": {
                "down": { "uv": [ 1, 7, 1.5, 14 ], "texture": "#side", "rotation": 90 },
                "up": { "uv": [ 2, 0, 2.5, 7 ], "texture": "#side", "rotation": 90 },
                "north": { "uv": [ 0, 0, 1, 7 ], "texture": "#side", "rotation": 90 },
                "south": { "uv": [ 0, 4.5, 1, 11.5 ], "texture": "#side", "rotation": 90 },
                "west": { "uv": [ 15, 15, 16, 15.5 ], "texture": "#side", "rotation": 90 },
                "east": { "uv": [ 0, 15, 1, 15.5 ], "texture": "#side", "rotation": 90 }
            }
        },
        {
            "__comment": "iron_plate7",
            "from": [ 0.5, 0, 15.5 ],
            "to": [ 7.5, 1, 16 ],
            "faces": {
                "down": { "uv": [ 0.5, 0, 7.5, 0.5 ], "texture": "#side" },
                "up": { "uv": [ 0.5, 15.5, 7.5, 16 ], "texture": "#side" },
                "north": { "uv": [ 8.5, 15, 15.5, 16 ], "texture": "#side" },
                "south": { "uv": [ 0.5, 15, 7.5, 16 ], "texture": "#side" },
                "west": { "uv": [ 15.5, 15, 16, 16 ], "texture": "#side" },
                "east": { "uv": [ 0, 15, 0.5, 16 ], "texture": "#side" }
            }
        },
        {
            "__comment": "iron_plate8",
            "from": [ 0.5, 0, 0 ],
            "to": [ 7.5, 1, 0.5 ],
            "faces": {
                "down": { "uv": [ 0.5, 0, 7.5, 0.5 ], "texture": "#cap", "rotation": 180 },
                "up": { "uv": [ 0.5, 9, 7.5, 9.5 ], "texture": "#cap", "rotation": 180 },
                "north": { "uv": [ 0, 0, 1, 7 ], "texture": "#side", "rotation": 90 },
                "south": { "uv": [ 0, 4.5, 1, 11.5 ], "texture": "#side", "rotation": 90 },
                "west": { "uv": [ 15, 15, 16, 15.5 ], "texture": "#side", "rotation": 90 },
                "east": { "uv": [ 0, 15, 1, 15.5 ], "texture": "#side", "rotation": 90 }
            }
        },
        {
            "__comment": "iron_plate10",
            "from": [ 8.5, 0, 0 ],
            "to": [ 15.5, 1, 0.5 ],
            "faces": {
                "down": { "uv": [ 0.5, 0, 7.5, 0.5 ], "texture": "#cap", "rotation": 180 },
                "up": { "uv": [ 0.5, 9, 7.5, 9.5 ], "texture": "#cap", "rotation": 180 },
                "north": { "uv": [ 0, 0, 1, 7 ], "texture": "#side", "rotation": 90 },
                "south": { "uv": [ 0, 4.5, 1, 11.5 ], "texture": "#side", "rotation": 90 },
                "west": { "uv": [ 15, 15, 16, 15.5 ], "texture": "#side", "rotation": 90 },
                "east": { "uv": [ 0, 15, 1, 15.5 ], "texture": "#side", "rotation": 90 }
            }
        }
    ]
}