{
    "parent": "block/outer_stairs",
    "textures": {
        "bottom": "conquest:blocks/ironblock7",
        "top": "conquest:blocks/ironblock7",
        "side": "conquest:blocks/ironblock7"
    }
}
