
{
    "parent": "block/stairs",
    "textures": {
        "bottom": "conquest:blocks/junglewoodocean",
        "top": "conquest:blocks/junglewoodocean",
        "side": "conquest:blocks/junglewoodocean"
    }
}