{
    "parent": "block/inner_stairs",
    "textures": {
        "bottom": "conquest:blocks/acacialog2coldbeach",
        "top": "conquest:blocks/acacialog2coldbeach",
        "side": "conquest:blocks/acacialog2coldbeach"
    }
}
