{
    "parent": "block/stairs",
    "textures": {
        "bottom": "conquest:blocks/acacialog2normal",
        "top": "conquest:blocks/acacialog2normal",
        "side": "conquest:blocks/acacialog2normal"
    }
}
