{
"parent": "block/parent_windowslit",
"textures": {
    "texture": "conquest:blocks/roman_marble_pink",
    "top": "conquest:blocks/roman_marble_pink",
	"bottom": "conquest:blocks/roman_marble_pink"
	}
}