{
"parent": "block/parent_verticalslab",
"textures": {
    "texture": "conquest:blocks/roman_marble_design1",
	"top": "conquest:blocks/roman_marble_design1",
	"bottom": "conquest:blocks/roman_marble_design1"
	}
}	