{
"parent": "block/parent_arch",
"textures": {
    "texture": "conquest:blocks/roman_marble_design5",
    "edge": "conquest:blocks/roman_marble_design5",
    "side": "conquest:blocks/roman_marble_design5",
    "side_alt": "conquest:blocks/roman_marble_design5"
}
}