{
"parent": "block/parent_windowslit",
"textures": {
    "texture": "conquest:blocks/roman_marble_black",
    "top": "conquest:blocks/roman_marble_black",
	"bottom": "conquest:blocks/roman_marble_black"
	}
}