{
"parent": "block/parent_corner",
"textures": {
    "texture": "conquest:blocks/roman_marble_design5",
	"top": "conquest:blocks/roman_marble_design5",
	"bottom": "conquest:blocks/roman_marble_design5"
}
}