{
"parent": "block/parent_slit",
"textures": {
        "bottom": "conquest:blocks/roman_marble_red",
        "side": "conquest:blocks/roman_marble_red",
		"top": "conquest:blocks/roman_marble_red"
    }
}