{
"parent": "block/parent_slit",
"textures": {
        "bottom": "conquest:blocks/roman_marble_black",
        "side": "conquest:blocks/roman_marble_black",
		"top": "conquest:blocks/roman_marble_black"
    }
}