{
    "parent": "block/stairs",
    "textures": {
        "bottom": "conquest:blocks/roman_marble_pink",
        "top": "conquest:blocks/roman_marble_pink",
        "side": "conquest:blocks/roman_marble_pink"
    }
}
