{
    "parent": "block/outer_stairs",
    "textures": {
        "bottom": "conquest:blocks/roman_marble_design6",
        "top": "conquest:blocks/roman_marble_design6",
        "side": "conquest:blocks/roman_marble_design6"
    }
}
