{
    "parent": "block/outer_stairs",
    "textures": {
        "bottom": "conquest:blocks/stonebrick6",
        "top": "conquest:blocks/stonebrick6",
        "side": "conquest:blocks/stonebrick6"
    }
}
