{
"parent": "block/parent_slit",
"textures": {
        "bottom": "conquest:blocks/roman_marble_blue",
        "side": "conquest:blocks/roman_marble_blue",
		"top": "conquest:blocks/roman_marble_blue"
    }
}