{
    "parent": "block/stairs",
    "textures": {
        "bottom": "conquest:blocks/mosaic_indikoi",
        "top": "conquest:blocks/mosaic_indikoi",
        "side": "conquest:blocks/mosaic_indikoi"
    }
}
