{
    "parent": "block/inner_stairs",
    "textures": {
        "bottom": "conquest:blocks/mosaic_ibericus",
        "top": "conquest:blocks/mosaic_ibericus",
        "side": "conquest:blocks/mosaic_ibericus"
    }
}
