{
    "parent": "block/inner_stairs",
    "textures": {
        "bottom": "conquest:blocks/mosaic_romani",
        "top": "conquest:blocks/mosaic_romani",
        "side": "conquest:blocks/mosaic_romani"
    }
}
