
{
    "parent": "block/cube_bottom_top",
    "textures": {
        "bottom": "conquest:blocks/mossycobble6_top",
        "top": "conquest:blocks/mossycobble6_top",
        "side": "conquest:blocks/mossycobble6"
    }
}