
{
    "parent": "block/cube_bottom_top",
    "textures": {
        "bottom": "conquest:blocks/mossystone2_sides",
        "top": "conquest:blocks/mossystone2_sides",
        "side": "conquest:blocks/mossystone2_sides"
    }
}