{
    "parent": "conquest:block/anvil_body",
    "textures": {
        "particle": "conquest:blocks/carved_netherbrick",
        "body": "conquest:blocks/carved_netherbrick",
        "top": "conquest:blocks/carved_netherbrick"
    }
}