{
    "parent": "conquest:block/anvil_body",
    "textures": {
        "particle": "conquest:blocks/netherbrick2",
        "body": "conquest:blocks/netherbrick2",
        "top": "conquest:blocks/netherbrick2"
    }
}