
{
    "parent": "block/inner_stairs",
    "textures": {
        "particle": "conquest:blocks/ironblock5",
        "bottom": "conquest:blocks/netherbrickstairsextremehills",
        "top": "conquest:blocks/netherbrickstairsextremehills",
        "side": "conquest:blocks/netherbrickstairsextremehills"
    }
}