{
    "parent": "block/anvil",
    "textures": {
        "particle": "conquest:blocks/netherbrick2",
        "body": "conquest:blocks/netherbrick2",
        "top": "conquest:blocks/netherbrick2"
    }
}
