{
"parent": "block/parent_verticalslab",
"textures": {
    "texture": "conquest:blocks/acacialog2roofedforest",
	"top": "conquest:blocks/acacialog2roofedforest",
	"bottom": "conquest:blocks/acacialog2roofedforest"
	}
}	