{
"parent": "block/parent_corner",
"textures": {
    "texture": "conquest:blocks/painted_planks_cyan",
	"top": "conquest:blocks/painted_planks_cyan",
	"bottom": "conquest:blocks/painted_planks_cyan"
}
}