{
    "parent": "conquest:block/anvil_base",
    "textures": {
        "particle": "conquest:blocks/acaciaplankbirchforest",
        "body": "conquest:blocks/acaciaplankbirchforest",
        "top": "conquest:blocks/acaciaplankbirchforest"
    }
}