{
"parent": "block/parent_slit",
"textures": {
        "bottom": "conquest:blocks/painted_planks_purple",
        "side": "conquest:blocks/painted_planks_purple",
		"top": "conquest:blocks/painted_planks_purple"
    }
}