{
    "parent": "conquest:block/anvil_body",
    "textures": {
        "particle": "conquest:blocks/plank9_sides",
        "body": "conquest:blocks/plank9",
        "top": "conquest:blocks/plank9"
    }
}