{
"parent": "block/parent_corner",
"textures": {
    "texture": "conquest:blocks/acaciaplankbirchforest",
	"top": "conquest:blocks/acaciaplankbirchforest",
	"bottom": "conquest:blocks/acaciaplankbirchforest"
}
}