{
    "parent": "conquest:block/anvil_base",
    "textures": {
        "particle": "conquest:blocks/plank12",
        "body": "conquest:blocks/plank12",
        "top": "conquest:blocks/plank12"
    }
}