{
"parent": "block/parent_windowslit",
"textures": {
    "texture": "conquest:blocks/painted_planks_dark_blue",
    "top": "conquest:blocks/painted_planks_dark_blue",
	"bottom": "conquest:blocks/painted_planks_dark_blue"
	}
}