{
    "parent": "block/inner_stairs",
    "textures": {
        "bottom": "conquest:blocks/painted_planks_yellow",
        "top": "conquest:blocks/painted_planks_yellow",
        "side": "conquest:blocks/painted_planks_yellow"
    }
}
