{
"parent": "block/parent_windowslit",
"textures": {
    "texture": "conquest:blocks/painted_planks_light_red",
    "top": "conquest:blocks/painted_planks_light_red",
	"bottom": "conquest:blocks/painted_planks_light_red"
	}
}