{
    "textures": {
        "particle": "conquest:blocks/painted_planks_light_red_old",       
        "bottom": "conquest:blocks/painted_planks_light_red_old",
        "top": "conquest:blocks/painted_planks_light_red_old"
    },
    "elements": [ 
{
    "from": [ 0, 0, 0 ],
    "to": [ 3, 16, 16 ],
    "faces": {
        "up":    { "uv": [ 0, 0, 3, 16 ], "texture": "#bottom", "cullface": "up" },
        "north": { "uv": [ 16, 0, 13, 16 ], "texture": "#top", "cullface": "north" },
        "south": { "uv": [ 0, 0, 3, 16 ], "texture": "#top", "cullface": "south" },
        "west":  { "uv": [ 16, 0, 0, 16 ], "texture": "#top", "cullface": "west" },
        "east":  { "uv": [ 0, 0, 16, 16 ], "texture": "#top" }
    }
}
]
}
