{
"parent": "block/parent_windowslit",
"textures": {
    "texture": "conquest:blocks/painted_planks_cyan_old",
    "top": "conquest:blocks/painted_planks_cyan_old",
	"bottom": "conquest:blocks/painted_planks_cyan_old"
	}
}