{
    "parent": "conquest:block/anvil_body",
    "textures": {
        "particle": "conquest:blocks/junglewoodjungle",
        "body": "conquest:blocks/junglewoodjungle",
        "top": "conquest:blocks/junglewoodjungle"
    }
}