{
"parent": "block/parent_corner",
"textures": {
    "texture": "conquest:blocks/painted_planks_white",
	"top": "conquest:blocks/painted_planks_white",
	"bottom": "conquest:blocks/painted_planks_white"
}
}