{
    "parent": "block/outer_stairs",
    "textures": {
        "bottom": "conquest:blocks/painted_planks_dark_blue_old",
        "top": "conquest:blocks/painted_planks_dark_blue_old",
        "side": "conquest:blocks/painted_planks_dark_blue_old"
    }
}
