
{
    "parent": "block/cube_bottom_top",
    "textures": {
        "bottom": "conquest:blocks/acacia_top",
        "top": "conquest:blocks/acacia_top",
        "side": "conquest:blocks/plank6desert"
    }
}