{
"parent": "block/parent_slit",
"textures": {
        "bottom": "conquest:blocks/painted_planks_light_blue_old",
        "side": "conquest:blocks/painted_planks_light_blue_old",
		"top": "conquest:blocks/painted_planks_light_blue_old"
    }
}