{
    "parent": "block/stairs",
    "textures": {
        "bottom": "conquest:blocks/clayyellowclean",
        "top": "conquest:blocks/clayyellowclean",
        "side": "conquest:blocks/clayyellowclean"
    }
}
