{
"parent": "block/parent_verticalslab",
"textures": {
    "texture": "blocks/hardened_clay_stained_magenta",
	"top": "blocks/hardened_clay_stained_magenta",
	"bottom": "blocks/hardened_clay_stained_magenta"
	}
}	