{
"parent": "block/parent_arch",
"textures": {
    "texture": "blocks/hardened_clay_stained_magenta",
    "edge": "blocks/hardened_clay_stained_magenta",
    "side": "blocks/hardened_clay_stained_magenta",
    "side_alt": "blocks/hardened_clay_stained_magenta"
}
}