{
"parent": "block/parent_arch",
"textures": {
    "texture": "blocks/hardened_clay_stained_purple",
    "edge": "blocks/hardened_clay_stained_purple",
    "side": "blocks/hardened_clay_stained_purple",
    "side_alt": "blocks/hardened_clay_stained_purple"
}
}