{
    "parent": "block/anvil",
    "textures": {
        "particle": "conquest:blocks/claymagentaclean",
        "body": "conquest:blocks/claymagentaclean",
        "top": "conquest:blocks/claymagentaclean"
    }
}
