{
"parent": "block/parent_corner",
"textures": {
    "texture": "blocks/hardened_clay_stained_silver",
	"top": "blocks/hardened_clay_stained_silver",
	"bottom": "blocks/hardened_clay_stained_silver"
}
}