{
    "parent": "conquest:block/anvil_body",
    "textures": {
        "particle": "conquest:blocks/claypurpleclean",
        "body": "conquest:blocks/claypurpleclean",
        "top": "conquest:blocks/claypurpleclean"
    }
}