{
    "parent": "conquest:block/anvil_base",
    "textures": {
        "particle": "conquest:blocks/claylightdarkclean",
        "body": "conquest:blocks/claylightdarkclean",
        "top": "conquest:blocks/claylightdarkclean"
    }
}