{
"parent": "block/parent_slit",
"textures": {
        "bottom": "conquest:blocks/claymagentaclean",
        "side": "conquest:blocks/claymagentaclean",
		"top": "conquest:blocks/claymagentaclean"
    }
}