{
    "parent": "block/anvil",
    "textures": {
        "particle": "blocks/hardened_clay_stained_magenta",
        "body": "blocks/hardened_clay_stained_magenta",
        "top": "blocks/hardened_clay_stained_magenta"
    }
}
