{
    "parent": "conquest:block/anvil_base",
    "textures": {
        "particle": "conquest:blocks/claywhitemesa",
        "body": "conquest:blocks/claywhitemesa",
        "top": "conquest:blocks/claywhitemesa"
    }
}