{
"parent": "block/parent_slit",
"textures": {
        "bottom": "blocks/hardened_clay_stained_purple",
        "side": "blocks/hardened_clay_stained_purple",
		"top": "blocks/hardened_clay_stained_purple"
    }
}