{
"parent": "block/parent_arch",
"textures": {
    "texture": "blocks/hardened_clay_stained_silver",
    "edge": "blocks/hardened_clay_stained_silver",
    "side": "blocks/hardened_clay_stained_silver",
    "side_alt": "blocks/hardened_clay_stained_silver"
}
}