{
    "parent": "block/anvil_base_topbottom",
    "textures": {
        "particle": "conquest:blocks/roman_base_sandstone",
        "body": "conquest:blocks/roman_base_sandstone",
        "top": "conquest:blocks/roman_capital_sandstone_top",
        "bottom": "conquest:blocks/roman_capital_sandstone_top"
    }
}