{
"parent": "block/parent_arch",
"textures": {
    "texture": "blocks/prismarine_bricks",
    "edge": "blocks/prismarine_bricks",
    "side": "blocks/prismarine_bricks",
    "side_alt": "blocks/prismarine_bricks"
}
}