{
"parent": "block/parent_arch",
"textures": {
    "texture": "blocks/prismarine_dark",
    "edge": "blocks/prismarine_dark",
    "side": "blocks/prismarine_dark",
    "side_alt": "blocks/prismarine_dark"
}
}