{
"parent": "block/parent_arch",
"textures": {
    "texture": "blocks/quartz_block_side",
    "edge": "blocks/quartz_block_side",
    "side": "blocks/quartz_block_side",
    "side_alt": "blocks/quartz_block_side"
}
}