
{
    "parent": "block/stairs",
    "textures": {
        "bottom": "blocks/hardened_clay_stained_light_blue",
        "top": "blocks/hardened_clay_stained_light_blue",
        "side": "blocks/hardened_clay_stained_light_blue"
    }
}