
{
    "parent": "block/outer_stairs",
    "textures": {
        "bottom": "conquest:blocks/quartzstairsiceplains",
        "top": "conquest:blocks/quartzstairsiceplains",
        "side": "conquest:blocks/quartzstairsiceplains"
    }
}