{
"parent": "block/parent_verticalslab",
"textures": {
    "texture": "conquest:blocks/emeraldblock1",
	"top": "conquest:blocks/emeraldblock1_top",
	"bottom": "conquest:blocks/emeraldblock1_top"
	}
}	