{
    "parent": "block/block",
    "textures": {
        "particle": "conquest:blocks/roman_base_sandstone",
        "side": "conquest:blocks/roman_base_sandstone",
        "down": "conquest:blocks/roman_capital_sandstone_top",
        "up": "conquest:blocks/roman_capital_sandstone_top"
    },
    "elements": [
        {   "from": [ 0, 0, 0 ],
            "to": [ 16, 16, 16 ],
            "faces": {
                "down":  { "texture": "#down", "cullface": "down" },
                "up":    { "texture": "#up", "cullface": "up" },
                "north": { "texture": "#side", "cullface": "north" },
                "south": { "texture": "#side", "cullface": "south" },
                "west":  { "texture": "#side", "cullface": "west" },
                "east":  { "texture": "#side", "cullface": "east" }
            }
        }
    ]
}
