
{
    "parent": "block/outer_stairs",
    "textures": {
        "bottom": "conquest:blocks/roman_capital_marble_top",
        "top": "conquest:blocks/roman_capital_marble_top",
        "side": "conquest:blocks/roman_cornice"
    }
}