
{
    "parent": "block/stairs",
    "textures": {
        "bottom": "blocks/sandstone_bottom",
        "top": "blocks/sandstone_bottom",
        "side": "conquest:blocks/roman_base_sandstone"
    }
}