{
  "parent": "block/cube_bottom_top",
  "textures": {
    "bottom": "conquest:blocks/roman_column_gray_top",
    "top": "conquest:blocks/roman_column_gray_top",
    "side": "conquest:blocks/roman_column_gray"    
  }
}