{
"textures": {
    "particle": "conquest:blocks/roman_base_marblesandstone",
	"bottom": "blocks/sandstone_bottom",
    "top": "conquest:blocks/roman_capital_marble_top",
    "side": "conquest:blocks/roman_base_marblesandstone"
},
"elements": [ 
{
    "from": [ 0, 8, 0 ],
    "to": [ 16, 16, 16 ],
    "faces": {
        "down":  { "uv": [ 0, 0, 16, 16 ], "rotation": 270, "texture": "#top" },
        "up":    { "uv": [ 0, 0, 16, 16 ], "rotation": 90, "texture": "#top" },
        "north": { "uv": [ 8, 0, 16, 8 ], "texture": "#side" },
        "south": { "uv": [ 0, 0, 8, 8 ], "texture": "#side" },
        "west":  { "uv": [ 0, 0, 8, 8 ], "texture": "#side" },
        "east":  { "uv": [ 8, 0, 16, 8 ], "texture": "#side" }
    }
},
{
    "from": [ 8, 8.88178e-016, 8 ],
    "to": [ 16, 8, 16 ],
    "faces": {
        "down":  { "uv": [ 8, 8, 16, 16 ], "rotation": 270, "texture": "#bottom" },
        "up":    { "uv": [ 8, 0, 16, 8 ], "rotation": 90, "texture": "#bottom" },
        "north": { "uv": [ 0, 8, 16, 16 ], "texture": "#side" },
        "south": { "uv": [ 0, 8, 16, 16 ], "texture": "#side" },
        "west":  { "uv": [ 0, 8, 16, 16 ], "texture": "#side" },
        "east":  { "uv": [ 0, 8, 16, 16 ], "texture": "#side" }
    }
}
]
}