{
    "parent": "conquest:block/anvil_base",
    "textures": {
        "particle": "conquest:blocks/doubleslab9",
        "body": "conquest:blocks/doubleslab9",
        "top": "conquest:blocks/doubleslab9"
    }
}