{
    "parent": "block/outer_stairs",
    "textures": {
        "bottom": "conquest:blocks/sandstone_darkcobble",
        "top": "conquest:blocks/sandstone_darkcobble",
        "side": "conquest:blocks/sandstone_darkcobble"
    }
}
