{
"parent": "block/parent_arch",
"textures": {
    "texture": "blocks/sandstone_normal",
    "edge": "blocks/sandstone_normal",
    "side": "blocks/sandstone_normal",
    "side_alt": "blocks/sandstone_normal"
}
}