{
    "parent": "block/anvil_body",
    "textures": {
        "particle": "blocks/red_sandstone_normal",
        "body": "blocks/red_sandstone_normal",
        "top": "blocks/red_sandstone_top"
    }
}