
{
    "parent": "block/shelf_log",
    "textures": {
        "side": "conquest:blocks/bookshelf4_sides",
        "top": "conquest:blocks/bookshelf_topbottom",
        "side1": "conquest:blocks/bookshelf_topbottom"
    }
}