{
"parent": "block/parent_windowslit",
"textures": {
    "texture": "conquest:blocks/slate_lightmortar",
    "top": "conquest:blocks/slate_lightmortar",
	"bottom": "conquest:blocks/slate_lightmortar"
	}
}