{
    "parent": "block/stairs",
    "textures": {
        "bottom": "conquest:blocks/slate_lightmortar",
        "top": "conquest:blocks/slate_lightmortar",
        "side": "conquest:blocks/slate_lightmortar"
    }
}
