
{
    "parent": "block/cube_bottom_top",
    "textures": {
        "bottom": "conquest:blocks/sponge3_top",
        "top": "conquest:blocks/sponge3_top",
        "side": "conquest:blocks/sponge3"
    }
}