
{
    "parent": "block/cube_bottom_top",
    "textures": {
        "bottom": "conquest:blocks/sponge1_top",
        "top": "conquest:blocks/sponge1_top",
        "side": "conquest:blocks/sponge1_sides"
    }
}