{
"__comment": "Designed by Jugbot with BDcraft Cubik PRO 0.96 Beta - http://bdcraft.net",
"parent": "block/block",
"textures": {
    "particle": "conquest:blocks/plank9",
    "texture": "conquest:blocks/plank9"
},
"elements": [ 
{
    "__comment": "Railing",
    "from": [ -0.01, 11, 1 ],
    "to": [ 1.49, 12, 4 ],
    "faces": {
        "down":  { "uv": [ 0, 1, 1.5, 4 ], "texture": "#texture" },
        "up":    { "uv": [ 0, 1, 1.5, 4 ], "texture": "#texture" },
        "north": { "uv": [ 15, 0, 16, 1.5 ], "rotation": 90, "texture": "#texture" },
        "south": { "uv": [ 15, 0, 16, 1.5 ], "rotation": 90, "texture": "#texture" },
        "west":  { "uv": [ 15, 0, 16, 3 ], "rotation": 90, "texture": "#texture" },
        "east":  { "uv": [ 15, 0, 16, 3 ], "rotation": 90, "texture": "#texture" }
    }
},
{
    "__comment": "Railing",
    "from": [ -0.01, 0, 12 ],
    "to": [ 1.49, 1, 15 ],
    "faces": {
        "down":  { "uv": [ 0, 1, 1.5, 4 ], "texture": "#texture" },
        "up":    { "uv": [ 0, 1, 1.5, 4 ], "texture": "#texture" },
        "north": { "uv": [ 7, 11, 8, 12.5 ], "rotation": 90, "texture": "#texture" },
        "south": { "uv": [ 5, 11, 6, 12.5 ], "rotation": 90, "texture": "#texture" },
        "west":  { "uv": [ 8, 11, 9, 14 ], "rotation": 90, "texture": "#texture" },
        "east":  { "uv": [ 8.5, 11, 9.5, 14 ], "rotation": 90, "texture": "#texture" }
    }
},
{
    "__comment": "Railing",
    "from": [ -0.01, 5.5, 6.5 ],
    "to": [ 1.49, 6.5, 9.5 ],
    "faces": {
        "down":  { "uv": [ 0, 1, 1.5, 4 ], "texture": "#texture" },
        "up":    { "uv": [ 0, 1, 1.5, 4 ], "texture": "#texture" },
        "north": { "uv": [ 15, 6, 16, 7.5 ], "rotation": 90, "texture": "#texture" },
        "south": { "uv": [ 15, 6, 16, 7.5 ], "rotation": 90, "texture": "#texture" },
        "west":  { "uv": [ 15, 6, 16, 9 ], "rotation": 90, "texture": "#texture" },
        "east":  { "uv": [ 15, 6, 16, 9 ], "rotation": 90, "texture": "#texture" }
    }
},
{
    "__comment": "Railing",
    "from": [ 1.49, 4, 8 ],
    "to": [ 2.99, 8, 19.3137 ],
    "rotation": { "origin": [ 1.49, 8, 8 ], "axis": "x", "angle": 45 },
    "faces": {
        "down":  { "uv": [ 16, 8, 5, 9.5 ], "rotation": 90, "texture": "#texture" },
        "up":    { "uv": [ 5, 8, 16, 9.5 ], "rotation": 90, "texture": "#texture" },
        "north": { "uv": [ 1, 0, 2.5, 4 ], "texture": "#texture" },
        "south": { "uv": [ 1, 0, 2.5, 4 ], "texture": "#texture" },
        "west":  { "uv": [ 5, 11.5, 16, 15.5 ], "texture": "#texture" },
        "east":  { "uv": [ 16, 0.5, 5, 4.5 ], "texture": "#texture" }
    }
},
{
    "__comment": "Railing",
    "from": [ 1.49, 12, 0 ],
    "to": [ 2.99, 16, 11.3137 ],
    "rotation": { "origin": [ 1.49, 16, 0 ], "axis": "x", "angle": 45 },
    "faces": {
        "down":  { "uv": [ 16, 8, 5, 9.5 ], "rotation": 90, "texture": "#texture" },
        "up":    { "uv": [ 5, 8, 16, 9.5 ], "rotation": 90, "texture": "#texture" },
        "north": { "uv": [ 1, 0, 2.5, 4 ], "texture": "#texture" },
        "south": { "uv": [ 1, 0, 2.5, 4 ], "texture": "#texture" },
        "west":  { "uv": [ 5, 6, 16, 10 ], "texture": "#texture" },
        "east":  { "uv": [ 16, 6, 5, 10 ], "texture": "#texture" }
    }
},
{
    "__comment": "Railing",
    "from": [ -0.01, -16, 12 ],
    "to": [ 1.49, 0, 15 ],
    "faces": {
        "down":  { "uv": [ 0, 1, 1.5, 4 ], "texture": "#texture" },
        "up":    { "uv": [ 0, 1, 1.5, 4 ], "texture": "#texture" },
        "north": { "uv": [ 16, 11, 0, 12.5 ], "rotation": 90, "texture": "#texture" },
        "south": { "uv": [ 16, 11, 0, 12.5 ], "rotation": 90, "texture": "#texture" },
        "west":  { "uv": [ 16, 11, 0, 14 ], "rotation": 90, "texture": "#texture" },
        "east":  { "uv": [ 16, 11, 0, 14 ], "rotation": 90, "texture": "#texture" }
    }
},
{
    "__comment": "Railing",
    "from": [ -0.01, -10.5, 6.5 ],
    "to": [ 1.49, 5.5, 9.5 ],
    "faces": {
        "down":  { "uv": [ 0, 1, 1.5, 4 ], "texture": "#texture" },
        "up":    { "uv": [ 0, 1, 1.5, 4 ], "texture": "#texture" },
        "north": { "uv": [ 0, 6, 16, 7.5 ], "rotation": 90, "texture": "#texture" },
        "south": { "uv": [ 0, 6, 16, 7.5 ], "rotation": 90, "texture": "#texture" },
        "west":  { "uv": [ 0, 6, 16, 9 ], "rotation": 90, "texture": "#texture" },
        "east":  { "uv": [ 0, 6, 16, 9 ], "rotation": 90, "texture": "#texture" }
    }
},
{
    "__comment": "Railing",
    "from": [ -0.01, -5, 1 ],
    "to": [ 1.49, 11, 4 ],
    "faces": {
        "down":  { "uv": [ 0, 1, 1.5, 4 ], "texture": "#texture" },
        "up":    { "uv": [ 0, 1, 1.5, 4 ], "texture": "#texture" },
        "north": { "uv": [ 0, 0, 16, 1.5 ], "rotation": 90, "texture": "#texture" },
        "south": { "uv": [ 0, 0, 16, 1.5 ], "rotation": 90, "texture": "#texture" },
        "west":  { "uv": [ 0, 0, 16, 3 ], "rotation": 90, "texture": "#texture" },
        "east":  { "uv": [ 0, 0, 16, 3 ], "rotation": 90, "texture": "#texture" }
    }
}
],
"display": {
    "gui": {
        "rotation": [ 30, -135, 0 ],
        "translation": [ -3.2, 2.3, 0 ],
        "scale": [ 0.62, 0.62, 0.62 ]
    }
}
}