{
"parent": "block/parent_arch",
"textures": {
    "texture": "blocks/stonebrick_mossy",
    "edge": "blocks/stonebrick_mossy",
    "side": "blocks/stonebrick_mossy",
    "side_alt": "blocks/stonebrick_mossy"
}
}