{
    "parent": "block/anvil",
    "textures": {
        "particle": "conquest:blocks/roman_hardclay_silver",
        "body": "conquest:blocks/roman_hardclay_silver",
        "top": "conquest:blocks/roman_hardclay_silver"
    }
}
