{
    "parent": "block/stairs",
    "textures": {
        "bottom": "conquest:blocks/roman_hardclay_lightblue",
        "top": "conquest:blocks/roman_hardclay_lightblue",
        "side": "conquest:blocks/roman_hardclay_lightblue"
    }
}
