{
    "parent": "block/inner_stairs",
    "textures": {
        "bottom": "conquest:blocks/roman_hardclay_magenta",
        "top": "conquest:blocks/roman_hardclay_magenta",
        "side": "conquest:blocks/roman_hardclay_magenta"
    }
}
