{
    "parent": "conquest:block/anvil_body",
    "textures": {
        "particle": "conquest:blocks/roman_hardclay_purple",
        "body": "conquest:blocks/roman_hardclay_purple",
        "top": "conquest:blocks/roman_hardclay_purple"
    }
}