{
    "parent": "block/anvil",
    "textures": {
        "particle": "conquest:blocks/roman_hardclay_white",
        "body": "conquest:blocks/roman_hardclay_white",
        "top": "conquest:blocks/roman_hardclay_white"
    }
}
