{
"parent": "block/parent_slit",
"textures": {
        "bottom": "conquest:blocks/roman_hardclay_green",
        "side": "conquest:blocks/roman_hardclay_green",
		"top": "conquest:blocks/roman_hardclay_green"
    }
}