{
    "parent": "conquest:block/anvil_body",
    "textures": {
        "particle": "conquest:blocks/roman_hardclay_pink",
        "body": "conquest:blocks/roman_hardclay_pink",
        "top": "conquest:blocks/roman_hardclay_pink"
    }
}