{
"parent": "block/parent_windowslit",
"textures": {
    "texture": "conquest:blocks/roman_hardclay_lime",
    "top": "conquest:blocks/roman_hardclay_lime",
	"bottom": "conquest:blocks/roman_hardclay_lime"
	}
}