{
"parent": "block/parent_corner",
"textures": {
    "texture": "conquest:blocks/roman_hardclay_magenta",
	"top": "conquest:blocks/roman_hardclay_magenta",
	"bottom": "conquest:blocks/roman_hardclay_magenta"
}
}