{
"parent": "block/parent_arch",
"textures": {
    "texture": "conquest:blocks/tiles_clay",
    "edge": "conquest:blocks/tiles_clay",
    "side": "conquest:blocks/tiles_clay",
    "side_alt": "conquest:blocks/tiles_clay"
}
}