{
    "parent": "conquest:block/anvil_body",
    "textures": {
        "particle": "conquest:blocks/tiles_clay",
        "body": "conquest:blocks/tiles_clay",
        "top": "conquest:blocks/tiles_clay"
    }
}