{
    "parent": "block/anvil",
    "textures": {
        "particle": "conquest:blocks/tiles_light",
        "body": "conquest:blocks/tiles_light",
        "top": "conquest:blocks/tiles_light"
    }
}
