{
    "parent": "block/outer_stairs",
    "textures": {
        "bottom": "conquest:blocks/tiles_mixed",
        "top": "conquest:blocks/tiles_mixed",
        "side": "conquest:blocks/tiles_mixed"
    }
}
