{
"parent": "block/parent_arch",
"textures": {
    "texture": "conquest:blocks/tiles_mixed",
    "edge": "conquest:blocks/tiles_mixed",
    "side": "conquest:blocks/tiles_mixed",
    "side_alt": "conquest:blocks/tiles_mixed"
}
}