{
"parent": "block/parent_arch",
"textures": {
    "texture": "conquest:blocks/obsidian1",
    "edge": "conquest:blocks/obsidian1",
    "side": "conquest:blocks/obsidian1",
    "side_alt": "conquest:blocks/obsidian1"
}
}