{
    "parent": "block/upper_slab",
    "textures": {
        "bottom": "conquest:blocks/painted_planks_cyan",
        "top": "conquest:blocks/painted_planks_cyan",
        "side": "conquest:blocks/painted_planks_cyan"
    }
}