{
    "parent": "block/upper_slab",
    "textures": {
        "bottom": "conquest:blocks/roman_travertine",
        "top": "conquest:blocks/roman_travertine",
        "side": "conquest:blocks/roman_travertine"
    }
}
