{
    "parent": "block/upper_slab",
    "textures": {
        "bottom": "conquest:blocks/stoneslab2hell_top",
        "top": "conquest:blocks/stoneslab2hell_top",
        "side": "conquest:blocks/stoneslab2hell_side"
    }
}
