{
    "parent": "block/upper_slab",
    "textures": {
        "bottom": "conquest:blocks/roman_cornice_top",
        "top": "conquest:blocks/roman_cornice_top",
        "side": "conquest:blocks/roman_cornice"
    }
}
