{
    "parent": "block/upper_slab",
    "textures": {
        "bottom": "conquest:blocks/brick1extremehills",
        "top": "conquest:blocks/brick1extremehills",
        "side": "conquest:blocks/brick1extremehills_sides"
    }
}