{
    "parent": "block/upper_slab",
    "textures": {
        "bottom": "conquest:blocks/roman_hardclay_cyan",
        "top": "conquest:blocks/roman_hardclay_cyan",
        "side": "conquest:blocks/roman_hardclay_cyan"
    }
}