{
    "parent": "block/upper_slab",
    "textures": {
        "bottom": "conquest:blocks/roman_wool_green",
        "top": "conquest:blocks/roman_wool_green",
        "side": "conquest:blocks/roman_wool_green"
    }
}