{
    "parent": "block/upper_slab",
    "textures": {
        "bottom": "conquest:blocks/roman_roof_tile",
        "top": "conquest:blocks/roman_roof_tile",
        "side": "conquest:blocks/roman_roof_tile"
    }
}
