{
    "parent": "block/upper_slab",
    "textures": {
        "bottom": "conquest:blocks/plank15hell",
        "top": "conquest:blocks/plank15hell",
        "side": "conquest:blocks/plank15hell"
    }
}