{
    "parent": "block/upper_slab",
    "textures": {
        "bottom": "conquest:blocks/stone_cliff",
        "top": "conquest:blocks/stone_cliff",
        "side": "conquest:blocks/stone_cliff"
    }
}