{
    "parent": "block/upper_slab",
    "textures": {
        "bottom": "conquest:blocks/stoneslab4extremehills_top",
        "top": "conquest:blocks/stoneslab4extremehills_top",
        "side": "conquest:blocks/stoneslab4extremehills_side"
    }
}
