{
    "parent": "block/upper_slab",
    "textures": {
        "bottom": "conquest:blocks/roman_wool_orange",
        "top": "conquest:blocks/roman_wool_orange",
        "side": "conquest:blocks/roman_wool_orange"
    }
}