{
    "parent": "block/upper_slab",
    "textures": {
        "bottom": "conquest:blocks/plank15forest",
        "top": "conquest:blocks/plank15forest",
        "side": "conquest:blocks/plank15forest"
    }
}