{
    "parent": "block/upper_slab",
    "textures": {
        "bottom": "conquest:blocks/acacialog2taiga",
        "top": "conquest:blocks/acacialog2taiga",
        "side": "conquest:blocks/acacialog2taiga"
    }
}