{
    "parent": "block/upper_slab",
    "textures": {
        "bottom": "conquest:blocks/roman_sandstone_block",
        "top": "conquest:blocks/roman_sandstone_block",
        "side": "conquest:blocks/roman_sandstone_block"
    }
}