{
    "parent": "block/upper_slab",
    "textures": {
        "bottom": "conquest:blocks/roman_wool_red",
        "top": "conquest:blocks/roman_wool_red",
        "side": "conquest:blocks/roman_wool_red"
    }
}