{
    "parent": "block/upper_slab",
    "textures": {
        "bottom": "conquest:blocks/oxidized_copper",
        "top": "conquest:blocks/oxidized_copper",
        "side": "conquest:blocks/oxidized_copper"
    }
}
