{
    "parent": "block/upper_slab",
    "textures": {
        "bottom": "conquest:blocks/roman_capital_sandstone_top",
        "top": "conquest:blocks/roman_capital_sandstone_top",
        "side": "conquest:blocks/roman_base_sandstone"
    }
}
