{
    "parent": "block/upper_slab",
    "textures": {
        "bottom": "conquest:blocks/mossystone3",
        "top": "conquest:blocks/mossystone3",
        "side": "conquest:blocks/mossystone3"
    }
}