{
    "parent": "block/upper_slab",
    "textures": {
        "bottom": "conquest:blocks/barrel_bottom2",
        "top": "conquest:blocks/barrelcocoa",
        "side": "conquest:blocks/barrel_side2"
    }
}