{
"parent": "block/parent_windowslit",
"textures": {
    "texture": "conquest:blocks/roman_hardclay_red",
    "top": "conquest:blocks/roman_hardclay_red",
	"bottom": "conquest:blocks/roman_hardclay_red"
	}
}