{
    "parent": "block/wall_post_topbottom",
    "textures": {
        "wall": "conquest:blocks/roman_wool_purple",
        "top": "conquest:blocks/roman_hardclay_red",
        "bottom": "conquest:blocks/roman_hardclay_red"
    }
}
