{
    "parent": "block/wall_nsew_topbottom",
    "textures": {
        "wall": "conquest:blocks/roman_clay_pink",
      "top": "conquest:blocks/roman_hardclay_red",
      "bottom": "conquest:blocks/roman_hardclay_red"
    }
}
