{
"parent": "block/parent_verticalslab",
"textures": {
    "texture": "conquest:blocks/wallpaper_redyellowclean",
	"top": "conquest:blocks/wallpaper_redyellowclean",
	"bottom": "conquest:blocks/wallpaper_redyellowclean"
	}
}	