{
    "parent": "conquest:block/anvil_base",
    "textures": {
        "particle": "conquest:blocks/roman_wool_orange",
        "body": "conquest:blocks/roman_wool_orange",
        "top": "conquest:blocks/roman_wool_orange"
    }
}