{
    "parent": "block/inner_stairs",
    "textures": {
        "bottom": "conquest:blocks/roman_wool_pink",
        "top": "conquest:blocks/roman_wool_pink",
        "side": "conquest:blocks/roman_wool_pink"
    }
}
