{
    "parent": "block/inner_stairs",
    "textures": {
        "bottom": "conquest:blocks/roman_wool_green",
        "top": "conquest:blocks/roman_wool_green",
        "side": "conquest:blocks/roman_wool_green"
    }
}
