{
    "parent": "block/stairs",
    "textures": {
        "bottom": "conquest:blocks/roman_clay_blue",
        "top": "conquest:blocks/roman_clay_blue",
        "side": "conquest:blocks/roman_clay_blue"
    }
}
