{
"parent": "block/parent_verticalslab",
"textures": {
    "texture": "conquest:blocks/roman_hardclay_orange",
	"top": "conquest:blocks/roman_hardclay_orange",
	"bottom": "conquest:blocks/roman_hardclay_orange"
	}
}	