{
    "parent": "block/wall_ns_above_topbottom",
    "textures": {
        "wall": "conquest:blocks/roman_clay_magenta",
        "top": "conquest:blocks/roman_hardclay_red",
        "bottom": "conquest:blocks/roman_hardclay_red"
    }
}
