{
"parent": "block/parent_corner",
"textures": {
    "texture": "conquest:blocks/wallpaper_greenclean",
	"top": "conquest:blocks/wallpaper_greenclean",
	"bottom": "conquest:blocks/wallpaper_greenclean"
}
}