{
    "parent": "block/wall_n_topbottom",
    "textures": {
        "wall": "conquest:blocks/roman_wool_cyan",
        "top": "conquest:blocks/roman_hardclay_red",
        "bottom": "conquest:blocks/roman_hardclay_red"
    }
}
