{
    "parent": "block/outer_stairs",
    "textures": {
        "bottom": "conquest:blocks/roman_hardclay_red",
        "top": "conquest:blocks/roman_hardclay_red",
        "side": "conquest:blocks/roman_hardclay_red"
    }
}
