{
"parent": "block/parent_verticalslab",
"textures": {
    "texture": "conquest:blocks/wallpaper_redyellow",
	"top": "conquest:blocks/wallpaper_redyellow",
	"bottom": "conquest:blocks/wallpaper_redyellow"
	}
}	