{
"parent": "block/parent_verticalslab",
"textures": {
    "texture": "conquest:blocks/wallpaper_blueyellow",
	"top": "conquest:blocks/wallpaper_blueyellow",
	"bottom": "conquest:blocks/wallpaper_blueyellow"
	}
}	