{
    "parent": "block/wall_post_topbottom",
    "textures": {
        "wall": "conquest:blocks/roman_clay_brown",
        "top": "conquest:blocks/roman_hardclay_brown",
        "bottom": "conquest:blocks/roman_hardclay_brown"
    }
}
