{
    "parent": "block/cube_bottom_top",
    "textures": {
        "bottom": "conquest:blocks/railjungle",
        "top": "conquest:blocks/railjungle",
        "side": "conquest:blocks/wardrobe_poor"
    }
}